nodeName	altName	nodeAttr[nodesPresent, ]
Afu8g06980::Chr8_A_fumigatus_Af293:1708341-1709925(-)	NA	cyan
Afu6g11790::Chr6_A_fumigatus_Af293:2944023-2944990(-)	NA	cyan
MSTRG.621::Chr5_A_fumigatus_Af293:2318270-2320171(-)	NA	cyan
MSTRG.717::Chr6_A_fumigatus_Af293:640160-641606(+)	NA	cyan
Afu2g11280::Chr2_A_fumigatus_Af293:2905035-2905767(-)	NA	cyan
Afu4g01270::Chr4_A_fumigatus_Af293:333410-334954(-)	NA	cyan
Afu6g13750::Chr6_A_fumigatus_Af293:3511574-3513533(+)	NA	cyan
Afu3g15350::Chr3_A_fumigatus_Af293:4036785-4037828(-)	NA	cyan
Afu3g01100::Chr3_A_fumigatus_Af293:257301-257995(+)	NA	cyan
Afu4g14540::Chr4_A_fumigatus_Af293:3836206-3837397(-)	NA	cyan
Afu8g00360::Chr8_A_fumigatus_Af293:78110-79003(+)	NA	cyan
Afu4g07410::Chr4_A_fumigatus_Af293:1925465-1927837(+)	NA	cyan
Afu2g05325::Chr2_A_fumigatus_Af293:1480857-1484987(-)	NA	cyan
MSTRG.885::Chr7_A_fumigatus_Af293:1833095-1833726(-)	NA	cyan
Afu3g00970::Chr3_A_fumigatus_Af293:227319-227846(-)	NA	cyan
Afu2g09890::Chr2_A_fumigatus_Af293:2529586-2535595(+)	NA	cyan
Afu6g06530::Chr6_A_fumigatus_Af293:1409895-1411165(-)	NA	cyan
MSTRG.74::Chr1_A_fumigatus_Af293:1508577-1510817(-)	NA	cyan
MSTRG.103::Chr1_A_fumigatus_Af293:2855999-2857043(+)	NA	cyan
Afu4g01850::Chr4_A_fumigatus_Af293:435397-442458(-)	NA	cyan
Afu3g11880::Chr3_A_fumigatus_Af293:3127013-3127406(+)	NA	cyan
Afu7g05180::Chr7_A_fumigatus_Af293:1222408-1223353(+)	NA	cyan
MSTRG.718::Chr6_A_fumigatus_Af293:641608-641895(-)	NA	cyan
Afu6g09200::Chr6_A_fumigatus_Af293:2184239-2185095(+)	NA	cyan
Afu5g02330::Chr5_A_fumigatus_Af293:598209-599272(+)	NA	cyan
Afu3g08070::Chr3_A_fumigatus_Af293:2065420-2067310(+)	NA	cyan
Afu4g07080::Chr4_A_fumigatus_Af293:1834825-1839269(-)	NA	cyan
Afu6g13950::Chr6_A_fumigatus_Af293:3563963-3564751(+)	NA	cyan
Afu3g06000::Chr3_A_fumigatus_Af293:1470596-1473379(-)	NA	cyan
Afu6g13930::Chr6_A_fumigatus_Af293:3551059-3558730(-)	NA	cyan
Afu1g10150::Chr1_A_fumigatus_Af293:2613762-2615152(-)	NA	cyan
Afu7g02070::Chr7_A_fumigatus_Af293:555549-557341(+)	NA	cyan
Afu5g10360::Chr5_A_fumigatus_Af293:2652407-2654370(-)	NA	cyan
Afu3g03695::Chr3_A_fumigatus_Af293:997797-999055(+)	NA	cyan
MSTRG.574::Chr5_A_fumigatus_Af293:726009-726654(-)	NA	cyan
Afu8g00710::Chr8_A_fumigatus_Af293:166797-167103(+)	NA	cyan
Afu2g02860::Chr2_A_fumigatus_Af293:739809-741993(+)	NA	cyan
Afu5g07170::Chr5_A_fumigatus_Af293:1780283-1781416(+)	NA	cyan
MSTRG.866::Chr7_A_fumigatus_Af293:1382787-1383499(+)	NA	cyan
MSTRG.502::Chr4_A_fumigatus_Af293:1839762-1840425(-)	NA	cyan
Afu6g03550::Chr6_A_fumigatus_Af293:771749-772142(+)	NA	cyan
Afu2g11670::Chr2_A_fumigatus_Af293:3000200-3002193(-)	NA	cyan
Afu6g02810::Chr6_A_fumigatus_Af293:571453-572760(-)	NA	cyan
MSTRG.273::Chr2_A_fumigatus_Af293:3579330-3580144(+)	NA	cyan
Afu5g00970::Chr5_A_fumigatus_Af293:250308-254306(-)	NA	cyan
Afu1g00390::Chr1_A_fumigatus_Af293:117404-120219(-)	NA	cyan
Afu1g01110::Chr1_A_fumigatus_Af293:400776-401591(+)	NA	cyan
Afu6g06535::Chr6_A_fumigatus_Af293:1411393-1412742(-)	NA	cyan
Afu6g07260::Chr6_A_fumigatus_Af293:1630844-1633293(+)	NA	cyan
Afu4g00225::Chr4_A_fumigatus_Af293:63168-63921(+)	NA	cyan
Afu3g14090::Chr3_A_fumigatus_Af293:3744530-3749380(+)	NA	cyan
Afu2g17580::Chr2_A_fumigatus_Af293:4686037-4686646(+)	NA	cyan
Afu6g01920::Chr6_A_fumigatus_Af293:277272-279424(-)	NA	cyan
Afu2g11120::Chr2_A_fumigatus_Af293:2849276-2851319(+)	NA	cyan
Afu6g09660::Chr6_A_fumigatus_Af293:2352619-2359124(-)	NA	cyan
Afu8g05890::Chr8_A_fumigatus_Af293:1397357-1398130(-)	NA	cyan
Afu3g14750::Chr3_A_fumigatus_Af293:3913399-3916570(+)	NA	cyan
Afu4g12530::Chr4_A_fumigatus_Af293:3287349-3288685(+)	NA	cyan
Afu2g14860::Chr2_A_fumigatus_Af293:3918350-3920027(+)	NA	cyan
MSTRG.210::Chr2_A_fumigatus_Af293:1594848-1604726(+)	NA	cyan
Afu1g13980::Chr1_A_fumigatus_Af293:3738067-3740960(-)	NA	cyan
MSTRG.822::Chr7_A_fumigatus_Af293:136984-137299(+)	NA	cyan
Afu1g02820::Chr1_A_fumigatus_Af293:809382-810946(+)	NA	cyan
Afu4g07370::Chr4_A_fumigatus_Af293:1914652-1917944(+)	NA	cyan
Afu8g07170::Chr8_A_fumigatus_Af293:1754452-1756203(+)	NA	cyan
Afu2g03130::Chr2_A_fumigatus_Af293:820328-821320(-)	NA	cyan
Afu2g04490::Chr2_A_fumigatus_Af293:1234139-1236047(-)	NA	cyan
Afu4g09470::Chr4_A_fumigatus_Af293:2475814-2477708(-)	NA	cyan
Afu5g03770::Chr5_A_fumigatus_Af293:1015589-1016663(-)	NA	cyan
Afu5g12460::Chr5_A_fumigatus_Af293:3228764-3230250(-)	NA	cyan
Afu7g01000::Chr7_A_fumigatus_Af293:267407-269512(-)	NA	cyan
Afu4g14770::Chr4_A_fumigatus_Af293:3895385-3897806(-)	NA	cyan
Afu4g14850::Chr4_A_fumigatus_Af293:3910060-3911851(-)	NA	cyan
Afu4g14530::Chr4_A_fumigatus_Af293:3835439-3836117(+)	NA	cyan
Afu6g09865::Chr6_A_fumigatus_Af293:2420651-2422992(-)	NA	cyan
Afu8g01280::Chr8_A_fumigatus_Af293:313032-313855(+)	NA	cyan
Afu6g09740::Chr6_A_fumigatus_Af293:2371239-2372302(+)	NA	cyan
Afu1g02950::Chr1_A_fumigatus_Af293:843295-844729(-)	NA	cyan
Afu4g14830::Chr4_A_fumigatus_Af293:3906692-3908473(+)	NA	cyan
Afu2g17560::Chr2_A_fumigatus_Af293:4684752-4685689(-)	NA	cyan
Afu8g07100::Chr8_A_fumigatus_Af293:1740514-1741415(+)	NA	cyan
Afu2g15670::Chr2_A_fumigatus_Af293:4140938-4142572(-)	NA	cyan
Afu2g09450::Chr2_A_fumigatus_Af293:2412039-2415649(-)	NA	cyan
Afu6g12410::Chr6_A_fumigatus_Af293:3135230-3140319(+)	NA	cyan
Afu6g07850::Chr6_A_fumigatus_Af293:1802867-1806130(-)	NA	cyan
Afu5g06230::Chr5_A_fumigatus_Af293:1491734-1494180(+)	NA	cyan
Afu3g08060::Chr3_A_fumigatus_Af293:2062723-2064398(+)	NA	cyan
Afu3g08210::Chr3_A_fumigatus_Af293:2104460-2106885(-)	NA	cyan
Afu2g09400::Chr2_A_fumigatus_Af293:2403247-2405053(+)	NA	cyan
MSTRG.526::Chr4_A_fumigatus_Af293:2671464-2672987(-)	NA	cyan
Afu5g11260::Chr5_A_fumigatus_Af293:2883755-2886983(-)	NA	cyan
Afu2g17980::Chr2_A_fumigatus_Af293:4780545-4781885(-)	NA	cyan
Afu5g14600::Chr5_A_fumigatus_Af293:3786986-3787774(+)	NA	cyan
Afu2g10540::Chr2_A_fumigatus_Af293:2693421-2694490(-)	NA	cyan
MSTRG.716::Chr6_A_fumigatus_Af293:732879-734304(+)	NA	cyan
Afu3g01990::Chr3_A_fumigatus_Af293:490460-491041(+)	NA	cyan
Afu4g08460::Chr4_A_fumigatus_Af293:2184677-2185805(-)	NA	cyan
Afu6g02850::Chr6_A_fumigatus_Af293:581539-585540(-)	NA	cyan
Afu8g06590::Chr8_A_fumigatus_Af293:1597192-1598586(+)	NA	cyan
Afu4g04540::Chr4_A_fumigatus_Af293:1279213-1281957(+)	NA	cyan
Afu6g09610::Chr6_A_fumigatus_Af293:2339537-2343356(-)	NA	cyan
Afu6g00430::Chr6_A_fumigatus_Af293:108483-109654(+)	NA	cyan
MSTRG.559::Chr5_A_fumigatus_Af293:196968-197768(+)	NA	cyan
Afu5g09000::Chr5_A_fumigatus_Af293:2310315-2314013(+)	NA	cyan
Afu4g01242::Chr4_A_fumigatus_Af293:328244-330346(+)	NA	cyan
Afu7g00460::Chr7_A_fumigatus_Af293:119984-121226(-)	NA	cyan
Afu6g09630::Chr6_A_fumigatus_Af293:2346512-2348455(+)	NA	cyan
Afu8g04290::Chr8_A_fumigatus_Af293:953291-956803(-)	NA	cyan
Afu5g01370::Chr5_A_fumigatus_Af293:351292-352418(-)	NA	cyan
Afu6g03290::Chr6_A_fumigatus_Af293:700369-702236(-)	NA	cyan
Afu7g06920::Chr7_A_fumigatus_Af293:1688708-1690801(+)	NA	cyan
Afu2g17550::Chr2_A_fumigatus_Af293:4682496-4683968(-)	NA	cyan
Afu2g12530::Chr2_A_fumigatus_Af293:3220082-3223076(+)	NA	cyan
Afu3g15270::Chr3_A_fumigatus_Af293:4010521-4017637(+)	NA	cyan
Afu4g14520::Chr4_A_fumigatus_Af293:3834230-3835127(+)	NA	cyan
Afu8g00800::Chr8_A_fumigatus_Af293:190387-192163(-)	NA	cyan
Afu2g18030::Chr2_A_fumigatus_Af293:4790868-4792544(-)	NA	cyan
Afu6g09730::Chr6_A_fumigatus_Af293:2369224-2371174(-)	NA	cyan
Afu5g13730::Chr5_A_fumigatus_Af293:3612256-3613798(-)	NA	cyan
Afu6g14010::Chr6_A_fumigatus_Af293:3573771-3574852(+)	NA	cyan
MSTRG.770::Chr6_A_fumigatus_Af293:2344754-2345909(-)	NA	cyan
Afu2g18050::Chr2_A_fumigatus_Af293:4795620-4797742(+)	NA	cyan
Afu4g01280::Chr4_A_fumigatus_Af293:336210-337972(+)	NA	cyan
Afu8g02250::Chr8_A_fumigatus_Af293:588788-589530(+)	NA	cyan
MSTRG.723::Chr6_A_fumigatus_Af293:1033091-1035756(+)	NA	cyan
Afu6g09700::Chr6_A_fumigatus_Af293:2364355-2365341(+)	NA	cyan
Afu4g09490::Chr4_A_fumigatus_Af293:2483802-2484442(-)	NA	cyan
Afu2g02260::Chr2_A_fumigatus_Af293:572177-573791(-)	NA	cyan
Afu5g07570::Chr5_A_fumigatus_Af293:1892685-1895043(-)	NA	cyan
Afu8g05220::Chr8_A_fumigatus_Af293:1216034-1217990(+)	NA	cyan
Afu4g09780::Chr4_A_fumigatus_Af293:2544300-2545508(-)	NA	cyan
Afu5g02770::Chr5_A_fumigatus_Af293:727467-731528(+)	NA	cyan
Afu3g12390::Chr3_A_fumigatus_Af293:3264065-3264993(-)	NA	cyan
Afu4g06880::Chr4_A_fumigatus_Af293:1774382-1776973(-)	NA	cyan
Afu2g01620::Chr2_A_fumigatus_Af293:393149-394779(-)	NA	cyan
Afu7g08440::Chr7_A_fumigatus_Af293:1942318-1942804(+)	NA	cyan
MSTRG.871::Chr7_A_fumigatus_Af293:1612408-1613490(-)	NA	cyan
Afu8g02210::Chr8_A_fumigatus_Af293:572581-573891(-)	NA	cyan
Afu6g13970::Chr6_A_fumigatus_Af293:3565116-3566752(+)	NA	cyan
Afu4g00210::Chr4_A_fumigatus_Af293:55987-61485(-)	NA	cyan
Afu8g01300::Chr8_A_fumigatus_Af293:315470-318324(-)	NA	cyan
MSTRG.479::Chr4_A_fumigatus_Af293:910161-913450(-)	NA	cyan
Afu1g10870::Chr1_A_fumigatus_Af293:2834096-2835409(-)	NA	cyan
Afu5g00300::Chr5_A_fumigatus_Af293:85518-87104(-)	NA	cyan
MSTRG.841::Chr7_A_fumigatus_Af293:686245-687003(-)	NA	cyan
Afu4g09540::Chr4_A_fumigatus_Af293:2492412-2493193(-)	NA	cyan
Afu4g13510::Chr4_A_fumigatus_Af293:3533920-3537271(-)	NA	cyan
Afu7g06140::Chr7_A_fumigatus_Af293:1506862-1509699(-)	NA	cyan
Afu4g10850::Chr4_A_fumigatus_Af293:2837647-2840706(-)	NA	cyan
Afu4g10150::Chr4_A_fumigatus_Af293:2644069-2647655(-)	NA	cyan
Afu4g12740::Chr4_A_fumigatus_Af293:3340257-3342097(+)	NA	cyan
MSTRG.244::Chr2_A_fumigatus_Af293:2526279-2527844(-)	NA	cyan
Afu2g12550::Chr2_A_fumigatus_Af293:3229424-3232368(+)	NA	cyan
Afu5g06670::Chr5_A_fumigatus_Af293:1637973-1640964(+)	NA	cyan
Afu5g08270::Chr5_A_fumigatus_Af293:2098527-2101390(-)	NA	cyan
Afu6g03910::Chr6_A_fumigatus_Af293:864613-866935(-)	NA	cyan
Afu3g12230::Chr3_A_fumigatus_Af293:3222819-3224262(+)	NA	cyan
Afu3g11790::Chr3_A_fumigatus_Af293:3097361-3100416(-)	NA	cyan
Afu1g02800::Chr1_A_fumigatus_Af293:803956-807606(-)	NA	cyan
Afu6g09710::Chr6_A_fumigatus_Af293:2365784-2367679(+)	NA	cyan
Afu4g12510::Chr4_A_fumigatus_Af293:3284838-3287326(+)	NA	cyan
MSTRG.258::Chr2_A_fumigatus_Af293:3052280-3053492(-)	NA	cyan
MSTRG.238::Chr2_A_fumigatus_Af293:2264893-2266617(+)	NA	cyan
Afu6g11910::Chr6_A_fumigatus_Af293:2979805-2982639(-)	NA	cyan
Afu6g09600::Chr6_A_fumigatus_Af293:2337514-2338826(-)	NA	cyan
Afu6g05210::Chr6_A_fumigatus_Af293:1250307-1252518(+)	NA	cyan
Afu1g02960::Chr1_A_fumigatus_Af293:844885-846627(-)	NA	cyan
Afu1g03190::Chr1_A_fumigatus_Af293:931343-932269(+)	NA	cyan
Afu2g08020::Chr2_A_fumigatus_Af293:2056344-2056792(+)	NA	cyan
Afu5g11300::Chr5_A_fumigatus_Af293:2893129-2895838(+)	NA	cyan
MSTRG.765::Chr6_A_fumigatus_Af293:2266196-2267697(-)	NA	cyan
Afu3g08250::Chr3_A_fumigatus_Af293:2116760-2118266(-)	NA	cyan
Afu2g18040::Chr2_A_fumigatus_Af293:4793605-4795120(-)	NA	cyan
Afu5g11020::Chr5_A_fumigatus_Af293:2822228-2824202(-)	NA	cyan
Afu3g15290::Chr3_A_fumigatus_Af293:4021239-4023468(+)	NA	cyan
Afu3g03930::Chr3_A_fumigatus_Af293:1122773-1124824(+)	NA	cyan
MSTRG.670::Chr5_A_fumigatus_Af293:3614530-3615172(+)	NA	cyan
Afu4g04530::Chr4_A_fumigatus_Af293:1277167-1279122(-)	NA	cyan
Afu4g09770::Chr4_A_fumigatus_Af293:2542361-2543945(-)	NA	cyan
Afu1g04600::Chr1_A_fumigatus_Af293:1303599-1306148(+)	NA	cyan
Afu2g12540::Chr2_A_fumigatus_Af293:3223603-3225787(-)	NA	cyan
Afu4g14580::Chr4_A_fumigatus_Af293:3847774-3849411(+)	NA	cyan
Afu6g12050::Chr6_A_fumigatus_Af293:3013592-3017507(+)	NA	cyan
Afu4g14820::Chr4_A_fumigatus_Af293:3904928-3906638(+)	NA	cyan
Afu4g14790::Chr4_A_fumigatus_Af293:3900537-3902061(+)	NA	cyan
Afu5g15080::Chr5_A_fumigatus_Af293:3906825-3907128(-)	NA	cyan
Afu7g08250::Chr7_A_fumigatus_Af293:1844858-1848448(+)	NA	cyan
Afu4g03230::Chr4_A_fumigatus_Af293:909026-909488(+)	NA	cyan
Afu3g01550::Chr3_A_fumigatus_Af293:393028-394804(+)	NA	cyan
Afu4g00230::Chr4_A_fumigatus_Af293:64100-65225(-)	NA	cyan
Afu6g04490::Chr6_A_fumigatus_Af293:1020995-1029671(-)	NA	cyan
Afu2g11270::Chr2_A_fumigatus_Af293:2897168-2904854(-)	NA	cyan
Afu5g07360::Chr5_A_fumigatus_Af293:1839247-1841409(-)	NA	cyan
MSTRG.666::Chr5_A_fumigatus_Af293:3585216-3589371(+)	NA	cyan
MSTRG.777::Chr6_A_fumigatus_Af293:2516617-2516998(+)	NA	cyan
Afu4g08600::Chr4_A_fumigatus_Af293:2225522-2227284(+)	NA	cyan
Afu3g07930::Chr3_A_fumigatus_Af293:2011477-2012789(-)	NA	cyan
Afu8g01050::Chr8_A_fumigatus_Af293:246038-247331(+)	NA	cyan
Afu5g00280::Chr5_A_fumigatus_Af293:78167-80411(+)	NA	cyan
Afu7g04180::Chr7_A_fumigatus_Af293:943572-946679(+)	NA	cyan
Afu5g09020::Chr5_A_fumigatus_Af293:2321596-2324512(+)	NA	cyan
Afu2g17840::Chr2_A_fumigatus_Af293:4743717-4745587(+)	NA	cyan
Afu6g02820::Chr6_A_fumigatus_Af293:573280-575453(+)	NA	cyan
Afu8g00810::Chr8_A_fumigatus_Af293:192283-192460(-)	NA	cyan
Afu7g01010::Chr7_A_fumigatus_Af293:270345-271675(-)	NA	cyan
Afu6g09690::Chr6_A_fumigatus_Af293:2363384-2364337(-)	NA	cyan
Afu4g14780::Chr4_A_fumigatus_Af293:3897886-3899995(-)	NA	cyan
Afu4g03020::Chr4_A_fumigatus_Af293:846793-849507(-)	NA	cyan
MSTRG.500::Chr4_A_fumigatus_Af293:1760582-1760935(+)	NA	cyan
Afu8g00250::Chr8_A_fumigatus_Af293:42051-43530(+)	NA	cyan
Afu6g11740::Chr6_A_fumigatus_Af293:2919409-2922949(+)	NA	cyan
Afu8g02200::Chr8_A_fumigatus_Af293:570197-572443(+)	NA	cyan
Afu3g02000::Chr3_A_fumigatus_Af293:491353-493644(+)	NA	cyan
Afu4g00220::Chr4_A_fumigatus_Af293:61818-62856(-)	NA	cyan
Afu5g01240::Chr5_A_fumigatus_Af293:310445-312371(+)	NA	cyan
Afu6g09680::Chr6_A_fumigatus_Af293:2361662-2363014(-)	NA	cyan
Afu3g13900::Chr3_A_fumigatus_Af293:3686504-3688861(-)	NA	cyan
Afu1g10140::Chr1_A_fumigatus_Af293:2612336-2613231(-)	NA	cyan
Afu1g13510::Chr1_A_fumigatus_Af293:3592676-3596126(-)	NA	cyan
Afu6g09620::Chr6_A_fumigatus_Af293:2343396-2344096(+)	NA	cyan
Afu6g09720::Chr6_A_fumigatus_Af293:2367947-2368912(-)	NA	cyan
Afu5g01490::Chr5_A_fumigatus_Af293:386887-388165(-)	NA	cyan
Afu2g17600::Chr2_A_fumigatus_Af293:4687743-4694405(+)	NA	cyan
Afu3g12220::Chr3_A_fumigatus_Af293:3217005-3221537(+)	NA	cyan
Afu3g00800::Chr3_A_fumigatus_Af293:177065-178684(-)	NA	cyan
Afu5g01420::Chr5_A_fumigatus_Af293:373848-374613(-)	NA	cyan
Afu1g00930::Chr1_A_fumigatus_Af293:333682-334717(+)	NA	cyan
Afu2g18060::Chr2_A_fumigatus_Af293:4797998-4799090(+)	NA	cyan
MSTRG.886::Chr7_A_fumigatus_Af293:1833920-1834554(+)	NA	cyan
Afu6g13740::Chr6_A_fumigatus_Af293:3510178-3511133(+)	NA	cyan
Afu6g00160::Chr6_A_fumigatus_Af293:49282-51363(+)	NA	cyan
Afu4g00430::Chr4_A_fumigatus_Af293:111424-113570(-)	NA	cyan
Afu4g14840::Chr4_A_fumigatus_Af293:3908640-3910032(+)	NA	cyan
Afu6g12780::Chr6_A_fumigatus_Af293:3227474-3228312(+)	NA	cyan
Afu3g14910::Chr3_A_fumigatus_Af293:3940817-3941765(+)	NA	cyan
Afu3g13870::Chr3_A_fumigatus_Af293:3673242-3679180(+)	NA	cyan
Afu1g12340::Chr1_A_fumigatus_Af293:3255528-3260002(-)	NA	cyan
Afu2g05070::Chr2_A_fumigatus_Af293:1393291-1394812(+)	NA	cyan
MSTRG.552::Chr5_A_fumigatus_Af293:53475-53779(-)	NA	cyan
Afu2g02020::Chr2_A_fumigatus_Af293:501945-503548(+)	NA	cyan
Afu2g09880::Chr2_A_fumigatus_Af293:2524826-2525812(+)	NA	cyan
MSTRG.501::Chr4_A_fumigatus_Af293:1779081-1780268(+)	NA	cyan
Afu4g10140::Chr4_A_fumigatus_Af293:2642835-2644013(+)	NA	cyan
Afu3g00620::Chr3_A_fumigatus_Af293:141603-142954(+)	NA	cyan
Afu4g14800::Chr4_A_fumigatus_Af293:3902096-3902870(-)	NA	cyan
Afu7g00990::Chr7_A_fumigatus_Af293:265298-266977(-)	NA	cyan
Afu4g14510::Chr4_A_fumigatus_Af293:3832620-3833644(-)	NA	cyan
Afu1g16810::Chr1_A_fumigatus_Af293:4586395-4588253(-)	NA	cyan
Afu4g03200::Chr4_A_fumigatus_Af293:899238-901141(+)	NA	cyan
Afu1g17070::Chr1_A_fumigatus_Af293:4660826-4663781(+)	NA	cyan
Afu8g02030::Chr8_A_fumigatus_Af293:528620-529754(-)	NA	cyan
Afu2g01170::Chr2_A_fumigatus_Af293:272195-274601(+)	NA	cyan
Afu5g03780::Chr5_A_fumigatus_Af293:1017352-1017915(+)	NA	cyan
MSTRG.628::Chr5_A_fumigatus_Af293:2487636-2488976(-)	NA	cyan
Afu3g13580::Chr3_A_fumigatus_Af293:3586970-3589498(-)	NA	cyan
MSTRG.6::Chr1_A_fumigatus_Af293:40727-41244(-)	NA	cyan
Afu6g07250::Chr6_A_fumigatus_Af293:1628742-1630395(-)	NA	cyan
MSTRG.622::Chr5_A_fumigatus_Af293:2320419-2321073(+)	NA	cyan
MSTRG.251::Chr2_A_fumigatus_Af293:2866390-2866825(+)	NA	cyan
Afu3g14740::Chr3_A_fumigatus_Af293:3910801-3912307(-)	NA	cyan
Afu5g00310::Chr5_A_fumigatus_Af293:87673-90270(-)	NA	cyan
Afu2g05370::Chr2_A_fumigatus_Af293:1495690-1496482(+)	NA	cyan
Afu6g14480::Chr6_A_fumigatus_Af293:3679416-3682604(-)	NA	cyan
Afu6g11750::Chr6_A_fumigatus_Af293:2923475-2925442(+)	NA	cyan
Afu6g13990::Chr6_A_fumigatus_Af293:3568485-3570018(-)	NA	cyan
Afu7g01200::Chr7_A_fumigatus_Af293:316411-317562(-)	NA	cyan
Afu6g11930::Chr6_A_fumigatus_Af293:2985182-2987791(+)	NA	cyan
Afu2g10560::Chr2_A_fumigatus_Af293:2705817-2708591(-)	NA	cyan
Afu3g15280::Chr3_A_fumigatus_Af293:4018030-4019150(-)	NA	cyan
Afu4g14810::Chr4_A_fumigatus_Af293:3903143-3904784(+)	NA	cyan
Afu4g09980::Chr4_A_fumigatus_Af293:2586203-2587953(-)	NA	cyan
MSTRG.327::Chr3_A_fumigatus_Af293:293786-295385(+)	NA	cyan
MSTRG.276::Chr2_A_fumigatus_Af293:3637535-3638008(-)	NA	cyan
Afu2g12900::Chr2_A_fumigatus_Af293:3307098-3308343(-)	NA	cyan
Afu3g07340::Chr3_A_fumigatus_Af293:1841251-1843132(-)	NA	cyan
Afu7g05910::Chr7_A_fumigatus_Af293:1445031-1447701(-)	NA	cyan
Afu3g13890::Chr3_A_fumigatus_Af293:3685760-3686237(+)	NA	cyan
Afu2g05310::Chr2_A_fumigatus_Af293:1474503-1479018(-)	NA	cyan
Afu6g12080::Chr6_A_fumigatus_Af293:3023034-3035305(-)	NA	cyan
Afu4g14760::Chr4_A_fumigatus_Af293:3894204-3895081(+)	NA	cyan
Afu1g00250::Chr1_A_fumigatus_Af293:60908-63246(-)	NA	cyan
Afu2g03240::Chr2_A_fumigatus_Af293:849237-849885(+)	NA	cyan
Afu7g06630::Chr7_A_fumigatus_Af293:1614140-1615948(+)	NA	cyan
Afu3g12210::Chr3_A_fumigatus_Af293:3214021-3216870(-)	NA	cyan
Afu6g09640::Chr6_A_fumigatus_Af293:2349174-2350602(-)	NA	cyan
MSTRG.924::Chr8_A_fumigatus_Af293:586900-587766(-)	NA	cyan
Afu4g12710::Chr4_A_fumigatus_Af293:3334683-3336018(+)	NA	cyan
Afu3g06730::Chr3_A_fumigatus_Af293:1669790-1672116(+)	NA	cyan
Afu4g01070::Chr4_A_fumigatus_Af293:289453-291083(+)	NA	cyan
Afu7g01740::Chr7_A_fumigatus_Af293:466855-468431(-)	NA	cyan
Afu1g16820::Chr1_A_fumigatus_Af293:4588276-4590821(+)	NA	cyan
MSTRG.604::Chr5_A_fumigatus_Af293:1837458-1838482(-)	NA	cyan
Afu6g03380::Chr6_A_fumigatus_Af293:720706-723321(+)	NA	cyan
Afu6g09650::Chr6_A_fumigatus_Af293:2350659-2352265(+)	NA	cyan
Afu1g17250::Chr1_A_fumigatus_Af293:4715171-4716444(-)	NA	cyan
Afu6g01840::Chr6_A_fumigatus_Af293:255433-257750(-)	NA	cyan
Afu6g02230::Chr6_A_fumigatus_Af293:392991-395614(-)	NA	cyan
Afu3g09850::Chr3_A_fumigatus_Af293:2521943-2525392(+)	NA	cyan
Afu1g04130::Chr1_A_fumigatus_Af293:1184804-1186730(+)	NA	cyan
Afu2g01100::Chr2_A_fumigatus_Af293:257820-259008(+)	NA	cyan
Afu6g02220::Chr6_A_fumigatus_Af293:389642-391677(-)	NA	cyan
MSTRG.221::Chr2_A_fumigatus_Af293:2017121-2017918(-)	NA	cyan
Afu3g13210::Chr3_A_fumigatus_Af293:3503710-3507344(-)	NA	cyan
Afu3g12200::Chr3_A_fumigatus_Af293:3210289-3213796(-)	NA	cyan
Afu4g11080::Chr4_A_fumigatus_Af293:2890805-2894438(-)	NA	cyan
Afu1g15630::Chr1_A_fumigatus_Af293:4221385-4222981(-)	NA	cyan
Afu4g10130::Chr4_A_fumigatus_Af293:2640433-2642359(-)	NA	cyan
Afu6g09670::Chr6_A_fumigatus_Af293:2359675-2361541(+)	NA	cyan
Afu6g07055::Chr6_A_fumigatus_Af293:1582874-1583166(+)	NA	cyan
Afu8g00240::Chr8_A_fumigatus_Af293:39660-41454(-)	NA	cyan
Afu4g01230::Chr4_A_fumigatus_Af293:326132-327892(-)	NA	cyan
Afu3g02470::Chr3_A_fumigatus_Af293:621582-623763(-)	NA	cyan
Afu4g12910::Chr4_A_fumigatus_Af293:3378185-3381683(-)	NA	cyan
Afu6g09745::Chr6_A_fumigatus_Af293:2372633-2373250(+)	NA	cyan
Afu6g03430::Chr6_A_fumigatus_Af293:734986-736564(+)	NA	cyan
MSTRG.525::Chr4_A_fumigatus_Af293:2895096-2896139(-)	NA	cyan
Afu4g09830::Chr4_A_fumigatus_Af293:2554605-2556661(-)	NA	cyan
