nodeName	altName	nodeAttr[nodesPresent, ]
Afu4g13860::Chr4_A_fumigatus_Af293:3618375-3620240(+)	NA	darkgrey
Afu5g13240::Chr5_A_fumigatus_Af293:3477212-3482789(-)	NA	darkgrey
Afu2g00330::Chr2_A_fumigatus_Af293:62536-64059(+)	NA	darkgrey
Afu8g06250::Chr8_A_fumigatus_Af293:1489463-1490309(+)	NA	darkgrey
Afu7g00770::Chr7_A_fumigatus_Af293:199848-201283(-)	NA	darkgrey
Afu3g13770::Chr3_A_fumigatus_Af293:3635963-3638416(-)	NA	darkgrey
MSTRG.17::Chr1_A_fumigatus_Af293:140716-140967(-)	NA	darkgrey
Afu5g03830::Chr5_A_fumigatus_Af293:1029514-1029949(-)	NA	darkgrey
Afu2g05770::Chr2_A_fumigatus_Af293:1624007-1625427(+)	NA	darkgrey
Afu3g03050::Chr3_A_fumigatus_Af293:815871-816864(+)	NA	darkgrey
Afu2g03680::Chr2_A_fumigatus_Af293:976600-979405(-)	NA	darkgrey
Afu6g02580::Chr6_A_fumigatus_Af293:493179-494400(+)	NA	darkgrey
Afu2g07420::Chr2_A_fumigatus_Af293:1887478-1890480(-)	NA	darkgrey
Afu4g08715::Chr4_A_fumigatus_Af293:2259170-2260838(+)	NA	darkgrey
Afu4g04640::Chr4_A_fumigatus_Af293:1302958-1305346(-)	NA	darkgrey
MSTRG.505::Chr4_A_fumigatus_Af293:2170355-2170875(-)	NA	darkgrey
Afu5g07090::Chr5_A_fumigatus_Af293:1756854-1758783(-)	NA	darkgrey
Afu1g15340::Chr1_A_fumigatus_Af293:4134030-4136196(-)	NA	darkgrey
Afu3g02320::Chr3_A_fumigatus_Af293:577371-579568(-)	NA	darkgrey
Afu1g01850::Chr1_A_fumigatus_Af293:554337-557654(-)	NA	darkgrey
Afu4g06490::Chr4_A_fumigatus_Af293:1661539-1664377(-)	NA	darkgrey
Afu1g09754::Chr1_A_fumigatus_Af293:2524180-2524840(-)	NA	darkgrey
Afu7g01960::Chr7_A_fumigatus_Af293:530667-531970(+)	NA	darkgrey
MSTRG.72::Chr1_A_fumigatus_Af293:1470652-1471977(+)	NA	darkgrey
Afu2g04760::Chr2_A_fumigatus_Af293:1301498-1309048(-)	NA	darkgrey
Afu3g03510::Chr3_A_fumigatus_Af293:938212-939410(+)	NA	darkgrey
MSTRG.120::Chr1_A_fumigatus_Af293:3461426-3462749(+)	NA	darkgrey
Afu5g07950::Chr5_A_fumigatus_Af293:1994668-1996921(-)	NA	darkgrey
Afu2g01280::Chr2_A_fumigatus_Af293:304747-305859(-)	NA	darkgrey
Afu2g08790::Chr2_A_fumigatus_Af293:2259875-2261796(+)	NA	darkgrey
Afu2g01380::Chr2_A_fumigatus_Af293:332886-333432(-)	NA	darkgrey
Afu1g10645::Chr1_A_fumigatus_Af293:2778215-2779026(-)	NA	darkgrey
Afu5g04380::Chr5_A_fumigatus_Af293:1182116-1183928(-)	NA	darkgrey
Afu5g09220::Chr5_A_fumigatus_Af293:2368262-2376207(+)	NA	darkgrey
Afu7g04760::Chr7_A_fumigatus_Af293:1101591-1103285(+)	NA	darkgrey
Afu3g11820::Chr3_A_fumigatus_Af293:3112290-3113155(+)	NA	darkgrey
Afu1g04020::Chr1_A_fumigatus_Af293:1155506-1156799(+)	NA	darkgrey
Afu1g17060::Chr1_A_fumigatus_Af293:4655514-4656851(+)	NA	darkgrey
Afu3g14640::Chr3_A_fumigatus_Af293:3881375-3882604(+)	NA	darkgrey
Afu5g07440::Chr5_A_fumigatus_Af293:1860958-1865054(-)	NA	darkgrey
Afu1g03170::Chr1_A_fumigatus_Af293:910382-914481(+)	NA	darkgrey
Afu1g06071::Chr1_A_fumigatus_Af293:1757205-1759932(+)	NA	darkgrey
Afu2g16920::Chr2_A_fumigatus_Af293:4522867-4525107(-)	NA	darkgrey
Afu1g15810::Chr1_A_fumigatus_Af293:4272120-4274569(-)	NA	darkgrey
Afu2g17180::Chr2_A_fumigatus_Af293:4591257-4594598(-)	NA	darkgrey
MSTRG.617::Chr5_A_fumigatus_Af293:2222033-2222967(+)	NA	darkgrey
Afu2g04770::Chr2_A_fumigatus_Af293:1309214-1313190(+)	NA	darkgrey
Afu4g00710::Chr4_A_fumigatus_Af293:193240-195051(+)	NA	darkgrey
Afu2g12520::Chr2_A_fumigatus_Af293:3214922-3219754(+)	NA	darkgrey
Afu3g07620::Chr3_A_fumigatus_Af293:1913894-1915958(-)	NA	darkgrey
Afu2g03030::Chr2_A_fumigatus_Af293:777320-787177(-)	NA	darkgrey
Afu6g14330::Chr6_A_fumigatus_Af293:3644926-3649159(-)	NA	darkgrey
MSTRG.127::Chr1_A_fumigatus_Af293:3697154-3698282(+)	NA	darkgrey
Afu6g03950::Chr6_A_fumigatus_Af293:874642-879493(-)	NA	darkgrey
Afu5g07600::Chr5_A_fumigatus_Af293:1901939-1903295(-)	NA	darkgrey
Afu1g13810::Chr1_A_fumigatus_Af293:3687663-3687952(+)	NA	darkgrey
Afu5g07450::Chr5_A_fumigatus_Af293:1865118-1866887(-)	NA	darkgrey
Afu1g12660::Chr1_A_fumigatus_Af293:3343905-3344834(-)	NA	darkgrey
Afu6g11540::Chr6_A_fumigatus_Af293:2865815-2867887(-)	NA	darkgrey
Afu5g08550::Chr5_A_fumigatus_Af293:2170651-2175237(-)	NA	darkgrey
Afu3g03340::Chr3_A_fumigatus_Af293:891334-892127(+)	NA	darkgrey
MSTRG.131::Chr1_A_fumigatus_Af293:3916211-3916982(+)	NA	darkgrey
Afu4g10680::Chr4_A_fumigatus_Af293:2784143-2786720(-)	NA	darkgrey
Afu3g07110::Chr3_A_fumigatus_Af293:1779888-1782182(+)	NA	darkgrey
Afu3g12140::Chr3_A_fumigatus_Af293:3193986-3195009(+)	NA	darkgrey
MSTRG.213::Chr2_A_fumigatus_Af293:1693483-1695330(+)	NA	darkgrey
Afu3g00450::Chr3_A_fumigatus_Af293:97060-98470(+)	NA	darkgrey
Afu2g13620::Chr2_A_fumigatus_Af293:3542007-3545431(+)	NA	darkgrey
Afu7g01510::Chr7_A_fumigatus_Af293:396033-397190(+)	NA	darkgrey
Afu1g11180::Chr1_A_fumigatus_Af293:2944342-2946736(-)	NA	darkgrey
Afu3g09230::Chr3_A_fumigatus_Af293:2342153-2344929(-)	NA	darkgrey
Afu2g05980::Chr2_A_fumigatus_Af293:1680065-1683275(-)	NA	darkgrey
Afu4g06180::Chr4_A_fumigatus_Af293:1591034-1595980(-)	NA	darkgrey
MSTRG.853::Chr7_A_fumigatus_Af293:1113916-1119228(-)	NA	darkgrey
Afu4g11350::Chr4_A_fumigatus_Af293:2978951-2980261(-)	NA	darkgrey
Afu5g11010::Chr5_A_fumigatus_Af293:2818215-2821617(-)	NA	darkgrey
Afu5g13280::Chr5_A_fumigatus_Af293:3491767-3494412(+)	NA	darkgrey
Afu5g02370::Chr5_A_fumigatus_Af293:609204-611860(-)	NA	darkgrey
Afu7g04320::Chr7_A_fumigatus_Af293:977372-979783(+)	NA	darkgrey
Afu5g14420::Chr5_A_fumigatus_Af293:3751274-3753764(-)	NA	darkgrey
Afu4g07430::Chr4_A_fumigatus_Af293:1929399-1931014(+)	NA	darkgrey
Afu2g03970::Chr2_A_fumigatus_Af293:1078748-1080272(+)	NA	darkgrey
Afu5g01800::Chr5_A_fumigatus_Af293:455697-456944(-)	NA	darkgrey
Afu7g03800::Chr7_A_fumigatus_Af293:838651-840467(-)	NA	darkgrey
Afu8g04300::Chr8_A_fumigatus_Af293:957599-962579(-)	NA	darkgrey
Afu6g03930::Chr6_A_fumigatus_Af293:869117-870588(-)	NA	darkgrey
Afu4g03600::Chr4_A_fumigatus_Af293:1015907-1016675(-)	NA	darkgrey
Afu3g14170::Chr3_A_fumigatus_Af293:3768846-3771378(-)	NA	darkgrey
Afu1g16760::Chr1_A_fumigatus_Af293:4571991-4572881(+)	NA	darkgrey
Afu6g14300::Chr6_A_fumigatus_Af293:3637240-3638767(+)	NA	darkgrey
Afu6g07630::Chr6_A_fumigatus_Af293:1731623-1735358(+)	NA	darkgrey
Afu8g01222::Chr8_A_fumigatus_Af293:285815-289530(+)	NA	darkgrey
Afu7g04820::Chr7_A_fumigatus_Af293:1127039-1131022(-)	NA	darkgrey
Afu1g09880::Chr1_A_fumigatus_Af293:2560942-2562130(-)	NA	darkgrey
Afu4g13380::Chr4_A_fumigatus_Af293:3505970-3507517(+)	NA	darkgrey
Afu3g14560::Chr3_A_fumigatus_Af293:3855718-3857658(-)	NA	darkgrey
Afu1g09940::Chr1_A_fumigatus_Af293:2572081-2575110(+)	NA	darkgrey
Afu4g02850::Chr4_A_fumigatus_Af293:798581-799100(+)	NA	darkgrey
Afu3g14915::Chr3_A_fumigatus_Af293:3942102-3942979(-)	NA	darkgrey
Afu2g07880::Chr2_A_fumigatus_Af293:2006827-2009787(+)	NA	darkgrey
Afu1g16610::Chr1_A_fumigatus_Af293:4515161-4516332(-)	NA	darkgrey
MSTRG.756::Chr6_A_fumigatus_Af293:1904801-1910169(+)	NA	darkgrey
Afu1g03250::Chr1_A_fumigatus_Af293:945888-946983(-)	NA	darkgrey
Afu6g10470::Chr6_A_fumigatus_Af293:2596607-2598107(+)	NA	darkgrey
Afu1g05270::Chr1_A_fumigatus_Af293:1514768-1516009(-)	NA	darkgrey
Afu4g03840::Chr4_A_fumigatus_Af293:1076010-1080085(-)	NA	darkgrey
Afu3g07100::Chr3_A_fumigatus_Af293:1777618-1779147(+)	NA	darkgrey
Afu5g03950::Chr5_A_fumigatus_Af293:1051106-1054046(-)	NA	darkgrey
Afu8g07235::Chr8_A_fumigatus_Af293:1776850-1777447(-)	NA	darkgrey
Afu7g00150::Chr7_A_fumigatus_Af293:33092-35361(-)	NA	darkgrey
Afu6g14610::Chr6_A_fumigatus_Af293:3725327-3728084(+)	NA	darkgrey
Afu2g14830::Chr2_A_fumigatus_Af293:3913796-3914681(-)	NA	darkgrey
Afu1g15540::Chr1_A_fumigatus_Af293:4204571-4205545(+)	NA	darkgrey
Afu6g04930::Chr6_A_fumigatus_Af293:1164035-1165144(-)	NA	darkgrey
Afu8g04130::Chr8_A_fumigatus_Af293:901499-904290(-)	NA	darkgrey
Afu6g00480::Chr6_A_fumigatus_Af293:121113-121669(-)	NA	darkgrey
Afu4g02820::Chr4_A_fumigatus_Af293:791814-792660(-)	NA	darkgrey
Afu3g10240::Chr3_A_fumigatus_Af293:2642481-2649693(-)	NA	darkgrey
MSTRG.178::Chr2_A_fumigatus_Af293:805785-806307(+)	NA	darkgrey
Afu5g02400::Chr5_A_fumigatus_Af293:617913-620924(+)	NA	darkgrey
Afu8g04180::Chr8_A_fumigatus_Af293:924144-927619(+)	NA	darkgrey
Afu2g01250::Chr2_A_fumigatus_Af293:293642-295759(+)	NA	darkgrey
Afu5g07340::Chr5_A_fumigatus_Af293:1827642-1828896(+)	NA	darkgrey
MSTRG.814::Chr7_A_fumigatus_Af293:5900-6293(+)	NA	darkgrey
MSTRG.368::Chr3_A_fumigatus_Af293:1086266-1086658(-)	NA	darkgrey
Afu7g06770::Chr7_A_fumigatus_Af293:1644842-1646297(-)	NA	darkgrey
Afu3g07600::Chr3_A_fumigatus_Af293:1907402-1910625(+)	NA	darkgrey
Afu2g15530::Chr2_A_fumigatus_Af293:4096395-4097772(+)	NA	darkgrey
Afu2g05120::Chr2_A_fumigatus_Af293:1407614-1410374(-)	NA	darkgrey
Afu2g10320::Chr2_A_fumigatus_Af293:2639356-2644004(+)	NA	darkgrey
Afu5g06820::Chr5_A_fumigatus_Af293:1677731-1678782(-)	NA	darkgrey
Afu3g08730::Chr3_A_fumigatus_Af293:2233418-2235100(+)	NA	darkgrey
Afu4g13730::Chr4_A_fumigatus_Af293:3593622-3596045(-)	NA	darkgrey
Afu4g09050::Chr4_A_fumigatus_Af293:2349554-2352626(-)	NA	darkgrey
Afu1g13350::Chr1_A_fumigatus_Af293:3550798-3553109(-)	NA	darkgrey
Afu3g12320::Chr3_A_fumigatus_Af293:3246359-3247793(+)	NA	darkgrey
Afu1g09000::Chr1_A_fumigatus_Af293:2332648-2333442(-)	NA	darkgrey
Afu2g04870::Chr2_A_fumigatus_Af293:1336918-1338291(+)	NA	darkgrey
Afu5g07640::Chr5_A_fumigatus_Af293:1908465-1909824(-)	NA	darkgrey
Afu2g02300::Chr2_A_fumigatus_Af293:580361-581999(-)	NA	darkgrey
Afu3g07590::Chr3_A_fumigatus_Af293:1905695-1907184(-)	NA	darkgrey
Afu7g06600::Chr7_A_fumigatus_Af293:1608727-1609315(-)	NA	darkgrey
Afu2g15800::Chr2_A_fumigatus_Af293:4175194-4177781(+)	NA	darkgrey
Afu2g09480::Chr2_A_fumigatus_Af293:2420338-2420879(+)	NA	darkgrey
Afu1g11340::Chr1_A_fumigatus_Af293:2988466-2990133(-)	NA	darkgrey
Afu3g11400::Chr3_A_fumigatus_Af293:2990625-2992029(+)	NA	darkgrey
Afu6g08520::Chr6_A_fumigatus_Af293:2003547-2011514(+)	NA	darkgrey
Afu1g09250::Chr1_A_fumigatus_Af293:2398650-2401196(+)	NA	darkgrey
Afu6g09950::Chr6_A_fumigatus_Af293:2448601-2450097(+)	NA	darkgrey
Afu4g12930::Chr4_A_fumigatus_Af293:3386789-3388460(-)	NA	darkgrey
Afu6g03070::Chr6_A_fumigatus_Af293:647075-648407(+)	NA	darkgrey
Afu3g02920::Chr3_A_fumigatus_Af293:779893-782011(-)	NA	darkgrey
Afu1g00110::Chr1_A_fumigatus_Af293:3751-4495(+)	NA	darkgrey
Afu2g15270::Chr2_A_fumigatus_Af293:4048026-4048658(+)	NA	darkgrey
Afu1g02670::Chr1_A_fumigatus_Af293:774902-776882(-)	NA	darkgrey
Afu5g12400::Chr5_A_fumigatus_Af293:3217221-3218396(+)	NA	darkgrey
Afu6g13470::Chr6_A_fumigatus_Af293:3429530-3430769(-)	NA	darkgrey
Afu2g04860::Chr2_A_fumigatus_Af293:1332821-1336302(-)	NA	darkgrey
Afu4g12680::Chr4_A_fumigatus_Af293:3323677-3328344(-)	NA	darkgrey
Afu1g01390::Chr1_A_fumigatus_Af293:454909-456094(-)	NA	darkgrey
Afu2g13295::Chr2_A_fumigatus_Af293:3433660-3435299(+)	NA	darkgrey
Afu7g01790::Chr7_A_fumigatus_Af293:475073-476303(+)	NA	darkgrey
MSTRG.187::Chr2_A_fumigatus_Af293:1051581-1053933(-)	NA	darkgrey
Afu1g05040::Chr1_A_fumigatus_Af293:1446767-1448185(-)	NA	darkgrey
Afu5g01450::Chr5_A_fumigatus_Af293:377839-379168(-)	NA	darkgrey
Afu1g12250::Chr1_A_fumigatus_Af293:3234740-3235925(-)	NA	darkgrey
Afu5g03970::Chr5_A_fumigatus_Af293:1059652-1062223(-)	NA	darkgrey
Afu5g10530::Chr5_A_fumigatus_Af293:2694100-2695858(+)	NA	darkgrey
Afu8g06710::Chr8_A_fumigatus_Af293:1638169-1638802(+)	NA	darkgrey
Afu8g03980::Chr8_A_fumigatus_Af293:850867-851763(+)	NA	darkgrey
Afu6g12900::Chr6_A_fumigatus_Af293:3259409-3260559(+)	NA	darkgrey
Afu5g00330::Chr5_A_fumigatus_Af293:91963-93063(+)	NA	darkgrey
Afu3g02250::Chr3_A_fumigatus_Af293:554697-555834(+)	NA	darkgrey
Afu2g10800::Chr2_A_fumigatus_Af293:2772208-2773990(+)	NA	darkgrey
Afu2g03080::Chr2_A_fumigatus_Af293:799769-804798(-)	NA	darkgrey
Afu2g11760::Chr2_A_fumigatus_Af293:3020957-3024086(+)	NA	darkgrey
Afu5g01900::Chr5_A_fumigatus_Af293:482208-485134(-)	NA	darkgrey
MSTRG.191::Chr2_A_fumigatus_Af293:1123875-1124914(-)	NA	darkgrey
Afu2g13580::Chr2_A_fumigatus_Af293:3532689-3534267(+)	NA	darkgrey
Afu4g03910::Chr4_A_fumigatus_Af293:1098441-1100652(+)	NA	darkgrey
Afu2g16510::Chr2_A_fumigatus_Af293:4407027-4409858(+)	NA	darkgrey
MSTRG.322::Chr3_A_fumigatus_Af293:255513-256547(+)	NA	darkgrey
Afu1g04210::Chr1_A_fumigatus_Af293:1198697-1202857(-)	NA	darkgrey
Afu1g13310::Chr1_A_fumigatus_Af293:3541614-3544191(+)	NA	darkgrey
Afu2g06010::Chr2_A_fumigatus_Af293:1701551-1702608(+)	NA	darkgrey
Afu2g13512::Chr2_A_fumigatus_Af293:3504256-3506834(-)	NA	darkgrey
Afu3g07300::Chr3_A_fumigatus_Af293:1829700-1834824(-)	NA	darkgrey
Afu6g12290::Chr6_A_fumigatus_Af293:3087691-3091785(+)	NA	darkgrey
MSTRG.438::Chr3_A_fumigatus_Af293:3384019-3384315(-)	NA	darkgrey
Afu3g10840::Chr3_A_fumigatus_Af293:2821579-2823874(+)	NA	darkgrey
Afu5g12050::Chr5_A_fumigatus_Af293:3117726-3121599(-)	NA	darkgrey
Afu3g08850::Chr3_A_fumigatus_Af293:2266675-2267683(-)	NA	darkgrey
Afu4g01310::Chr4_A_fumigatus_Af293:347390-349065(+)	NA	darkgrey
Afu7g05320::Chr7_A_fumigatus_Af293:1270024-1272162(+)	NA	darkgrey
Afu1g11070::Chr1_A_fumigatus_Af293:2910006-2913027(-)	NA	darkgrey
Afu1g01410::Chr1_A_fumigatus_Af293:457494-459374(+)	NA	darkgrey
Afu5g08620::Chr5_A_fumigatus_Af293:2192109-2193715(+)	NA	darkgrey
Afu1g06500::Chr1_A_fumigatus_Af293:1865485-1866432(-)	NA	darkgrey
Afu6g08600::Chr6_A_fumigatus_Af293:2036240-2040411(-)	NA	darkgrey
Afu2g10900::Chr2_A_fumigatus_Af293:2806415-2808914(+)	NA	darkgrey
Afu4g04290::Chr4_A_fumigatus_Af293:1205293-1211416(-)	NA	darkgrey
Afu1g01970::Chr1_A_fumigatus_Af293:584789-588649(+)	NA	darkgrey
Afu5g07660::Chr5_A_fumigatus_Af293:1911941-1914608(+)	NA	darkgrey
Afu4g12790::Chr4_A_fumigatus_Af293:3354361-3358561(+)	NA	darkgrey
Afu8g06920::Chr8_A_fumigatus_Af293:1694082-1697571(-)	NA	darkgrey
Afu8g01890::Chr8_A_fumigatus_Af293:488078-490076(-)	NA	darkgrey
MSTRG.234::Chr2_A_fumigatus_Af293:2258594-2259411(+)	NA	darkgrey
Afu4g03580::Chr4_A_fumigatus_Af293:1008288-1009112(+)	NA	darkgrey
Afu6g06470::Chr6_A_fumigatus_Af293:1391920-1393678(+)	NA	darkgrey
Afu1g02700::Chr1_A_fumigatus_Af293:780967-783001(-)	NA	darkgrey
Afu6g10480::Chr6_A_fumigatus_Af293:2598805-2599623(-)	NA	darkgrey
Afu7g05560::Chr7_A_fumigatus_Af293:1350807-1351581(+)	NA	darkgrey
Afu1g07700::Chr1_A_fumigatus_Af293:2171630-2175897(-)	NA	darkgrey
Afu3g01090::Chr3_A_fumigatus_Af293:253706-254777(+)	NA	darkgrey
Afu3g03350::Chr3_A_fumigatus_Af293:892437-898767(+)	NA	darkgrey
Afu5g02390::Chr5_A_fumigatus_Af293:614620-617783(+)	NA	darkgrey
Afu8g04870::Chr8_A_fumigatus_Af293:1120065-1121438(-)	NA	darkgrey
Afu7g00760::Chr7_A_fumigatus_Af293:199109-199805(+)	NA	darkgrey
Afu3g00870::Chr3_A_fumigatus_Af293:198636-199110(-)	NA	darkgrey
Afu1g04740::Chr1_A_fumigatus_Af293:1344614-1345127(+)	NA	darkgrey
Afu6g04580::Chr6_A_fumigatus_Af293:1062887-1065320(-)	NA	darkgrey
Afu5g11100::Chr5_A_fumigatus_Af293:2841771-2842922(-)	NA	darkgrey
Afu3g00730::Chr3_A_fumigatus_Af293:165339-166134(-)	NA	darkgrey
Afu3g02280::Chr3_A_fumigatus_Af293:566657-570794(+)	NA	darkgrey
Afu6g14120::Chr6_A_fumigatus_Af293:3597491-3598679(+)	NA	darkgrey
Afu6g00520::Chr6_A_fumigatus_Af293:127118-129483(+)	NA	darkgrey
Afu4g04700::Chr4_A_fumigatus_Af293:1322795-1323632(-)	NA	darkgrey
MSTRG.320::Chr3_A_fumigatus_Af293:196211-196881(+)	NA	darkgrey
Afu7g06210::Chr7_A_fumigatus_Af293:1519574-1521092(+)	NA	darkgrey
Afu2g08650::Chr2_A_fumigatus_Af293:2216684-2222439(+)	NA	darkgrey
Afu5g06330::Chr5_A_fumigatus_Af293:1519696-1525225(-)	NA	darkgrey
Afu1g15370::Chr1_A_fumigatus_Af293:4140596-4145377(+)	NA	darkgrey
Afu6g02080::Chr6_A_fumigatus_Af293:349824-352289(+)	NA	darkgrey
Afu4g04745::Chr4_A_fumigatus_Af293:1338317-1339404(-)	NA	darkgrey
Afu1g06420::Chr1_A_fumigatus_Af293:1845498-1846995(-)	NA	darkgrey
Afu6g13580::Chr6_A_fumigatus_Af293:3456787-3457258(-)	NA	darkgrey
Afu2g15180::Chr2_A_fumigatus_Af293:4019093-4024827(+)	NA	darkgrey
Afu2g00320::Chr2_A_fumigatus_Af293:61019-62153(+)	NA	darkgrey
Afu2g05380::Chr2_A_fumigatus_Af293:1498428-1500925(+)	NA	darkgrey
Afu2g07870::Chr2_A_fumigatus_Af293:2004518-2006502(+)	NA	darkgrey
Afu2g13930::Chr2_A_fumigatus_Af293:3632666-3633248(+)	NA	darkgrey
Afu1g03460::Chr1_A_fumigatus_Af293:1002532-1004378(+)	NA	darkgrey
Afu2g04980::Chr2_A_fumigatus_Af293:1369358-1370879(-)	NA	darkgrey
Afu6g04750::Chr6_A_fumigatus_Af293:1115795-1118509(+)	NA	darkgrey
Afu5g00650::Chr5_A_fumigatus_Af293:182685-184205(-)	NA	darkgrey
Afu5g09370::Chr5_A_fumigatus_Af293:2411431-2412049(+)	NA	darkgrey
Afu1g03050::Chr1_A_fumigatus_Af293:878845-882246(+)	NA	darkgrey
Afu2g08090::Chr2_A_fumigatus_Af293:2098577-2101332(-)	NA	darkgrey
Afu1g14300::Chr1_A_fumigatus_Af293:3822598-3824153(+)	NA	darkgrey
Afu5g00770::Chr5_A_fumigatus_Af293:214068-214476(-)	NA	darkgrey
MSTRG.806::Chr6_A_fumigatus_Af293:3590486-3592471(-)	NA	darkgrey
Afu7g04540::Chr7_A_fumigatus_Af293:1034453-1035840(+)	NA	darkgrey
Afu5g14110::Chr5_A_fumigatus_Af293:3687287-3687656(-)	NA	darkgrey
Afu4g01050::Chr4_A_fumigatus_Af293:282937-287401(+)	NA	darkgrey
Afu6g06445::Chr6_A_fumigatus_Af293:1387617-1388750(+)	NA	darkgrey
Afu2g02840::Chr2_A_fumigatus_Af293:728626-731346(+)	NA	darkgrey
Afu2g10110::Chr2_A_fumigatus_Af293:2586152-2587712(+)	NA	darkgrey
Afu2g02530::Chr2_A_fumigatus_Af293:652174-655754(+)	NA	darkgrey
Afu2g14400::Chr2_A_fumigatus_Af293:3766506-3769891(+)	NA	darkgrey
MSTRG.861::Chr7_A_fumigatus_Af293:1258261-1261953(+)	NA	darkgrey
Afu6g03940::Chr6_A_fumigatus_Af293:871288-874252(+)	NA	darkgrey
Afu2g15580::Chr2_A_fumigatus_Af293:4107558-4109719(+)	NA	darkgrey
Afu4g04502::Chr4_A_fumigatus_Af293:1268449-1271315(-)	NA	darkgrey
Afu5g14180::Chr5_A_fumigatus_Af293:3699977-3701185(+)	NA	darkgrey
Afu4g01580::Chr4_A_fumigatus_Af293:421105-427786(-)	NA	darkgrey
Afu5g14170::Chr5_A_fumigatus_Af293:3699066-3699625(-)	NA	darkgrey
Afu5g07740::Chr5_A_fumigatus_Af293:1932048-1934459(-)	NA	darkgrey
Afu5g12390::Chr5_A_fumigatus_Af293:3214542-3217087(-)	NA	darkgrey
Afu4g10610::Chr4_A_fumigatus_Af293:2775000-2775371(-)	NA	darkgrey
Afu6g03700::Chr6_A_fumigatus_Af293:815809-817408(-)	NA	darkgrey
MSTRG.266::Chr2_A_fumigatus_Af293:3357532-3358390(+)	NA	darkgrey
Afu4g11012::Chr4_A_fumigatus_Af293:2868973-2875009(+)	NA	darkgrey
Afu3g03950::Chr3_A_fumigatus_Af293:1127134-1127851(-)	NA	darkgrey
Afu4g07860::Chr4_A_fumigatus_Af293:2053101-2053906(+)	NA	darkgrey
Afu2g02470::Chr2_A_fumigatus_Af293:628321-630951(+)	NA	darkgrey
Afu3g09120::Chr3_A_fumigatus_Af293:2320794-2321177(-)	NA	darkgrey
Afu1g09830::Chr1_A_fumigatus_Af293:2550671-2552177(+)	NA	darkgrey
Afu5g14880::Chr5_A_fumigatus_Af293:3847947-3849477(-)	NA	darkgrey
Afu8g05240::Chr8_A_fumigatus_Af293:1220483-1222535(-)	NA	darkgrey
Afu6g02920::Chr6_A_fumigatus_Af293:604221-605681(-)	NA	darkgrey
Afu5g04320::Chr5_A_fumigatus_Af293:1157917-1159806(-)	NA	darkgrey
Afu3g06140::Chr3_A_fumigatus_Af293:1516448-1520994(+)	NA	darkgrey
Afu5g11570::Chr5_A_fumigatus_Af293:2966314-2969143(+)	NA	darkgrey
Afu1g03890::Chr1_A_fumigatus_Af293:1124300-1126046(-)	NA	darkgrey
Afu2g00960::Chr2_A_fumigatus_Af293:217717-219748(+)	NA	darkgrey
Afu7g06680::Chr7_A_fumigatus_Af293:1626767-1628757(+)	NA	darkgrey
Afu1g03270::Chr1_A_fumigatus_Af293:952522-952987(+)	NA	darkgrey
Afu1g10690::Chr1_A_fumigatus_Af293:2789766-2792519(+)	NA	darkgrey
Afu1g11800::Chr1_A_fumigatus_Af293:3102586-3104906(+)	NA	darkgrey
Afu5g11840::Chr5_A_fumigatus_Af293:3052951-3058536(+)	NA	darkgrey
Afu2g00170::Chr2_A_fumigatus_Af293:30090-31852(-)	NA	darkgrey
Afu1g04160::Chr1_A_fumigatus_Af293:1190681-1192122(+)	NA	darkgrey
MSTRG.223::Chr2_A_fumigatus_Af293:1988018-1989652(+)	NA	darkgrey
Afu4g12180::Chr4_A_fumigatus_Af293:3195794-3199106(+)	NA	darkgrey
Afu2g14160::Chr2_A_fumigatus_Af293:3704972-3707548(-)	NA	darkgrey
Afu3g00540::Chr3_A_fumigatus_Af293:115709-117960(+)	NA	darkgrey
MSTRG.469::Chr4_A_fumigatus_Af293:757072-760900(+)	NA	darkgrey
Afu4g02810::Chr4_A_fumigatus_Af293:789620-791042(-)	NA	darkgrey
Afu2g01410::Chr2_A_fumigatus_Af293:337490-338525(+)	NA	darkgrey
Afu1g14060::Chr1_A_fumigatus_Af293:3754980-3756046(+)	NA	darkgrey
Afu3g03220::Chr3_A_fumigatus_Af293:862316-862739(-)	NA	darkgrey
Afu8g05640::Chr8_A_fumigatus_Af293:1335430-1337967(+)	NA	darkgrey
Afu3g11500::Chr3_A_fumigatus_Af293:3016425-3021935(-)	NA	darkgrey
Afu6g11410::Chr6_A_fumigatus_Af293:2829599-2832547(+)	NA	darkgrey
Afu4g08370::Chr4_A_fumigatus_Af293:2166070-2167330(-)	NA	darkgrey
Afu1g03195::Chr1_A_fumigatus_Af293:922374-924616(+)	NA	darkgrey
Afu5g06440::Chr5_A_fumigatus_Af293:1554931-1558275(+)	NA	darkgrey
Afu4g02940::Chr4_A_fumigatus_Af293:823119-825730(-)	NA	darkgrey
Afu7g01640::Chr7_A_fumigatus_Af293:431795-435147(+)	NA	darkgrey
Afu1g12020::Chr1_A_fumigatus_Af293:3174620-3178318(+)	NA	darkgrey
Afu8g05880::Chr8_A_fumigatus_Af293:1396612-1397352(-)	NA	darkgrey
Afu3g12660::Chr3_A_fumigatus_Af293:3355548-3357569(+)	NA	darkgrey
Afu3g03240::Chr3_A_fumigatus_Af293:866767-868128(-)	NA	darkgrey
Afu3g12670::Chr3_A_fumigatus_Af293:3358690-3361939(-)	NA	darkgrey
Afu5g14220::Chr5_A_fumigatus_Af293:3706432-3707309(-)	NA	darkgrey
Afu5g02360::Chr5_A_fumigatus_Af293:605750-609032(-)	NA	darkgrey
Afu3g08750::Chr3_A_fumigatus_Af293:2238346-2241396(-)	NA	darkgrey
Afu1g13300::Chr1_A_fumigatus_Af293:3539496-3541612(+)	NA	darkgrey
Afu4g04280::Chr4_A_fumigatus_Af293:1203826-1204765(-)	NA	darkgrey
Afu4g11650::Chr4_A_fumigatus_Af293:3079844-3083210(+)	NA	darkgrey
MSTRG.704::Chr6_A_fumigatus_Af293:424564-425856(+)	NA	darkgrey
Afu5g12780::Chr5_A_fumigatus_Af293:3350379-3353129(+)	NA	darkgrey
Afu2g10030::Chr2_A_fumigatus_Af293:2569507-2570778(-)	NA	darkgrey
MSTRG.930::Chr8_A_fumigatus_Af293:904864-905220(-)	NA	darkgrey
Afu3g09360::Chr3_A_fumigatus_Af293:2366933-2368890(+)	NA	darkgrey
Afu6g07440::Chr6_A_fumigatus_Af293:1680557-1688881(-)	NA	darkgrey
Afu5g05650::Chr5_A_fumigatus_Af293:1316507-1317003(-)	NA	darkgrey
MSTRG.378::Chr3_A_fumigatus_Af293:1408714-1409924(+)	NA	darkgrey
Afu4g06070::Chr4_A_fumigatus_Af293:1553591-1557646(+)	NA	darkgrey
Afu2g01940::Chr2_A_fumigatus_Af293:484337-485867(+)	NA	darkgrey
Afu6g06520::Chr6_A_fumigatus_Af293:1405488-1409237(-)	NA	darkgrey
Afu6g02010::Chr6_A_fumigatus_Af293:313050-315204(-)	NA	darkgrey
Afu2g03690::Chr2_A_fumigatus_Af293:979782-980706(-)	NA	darkgrey
Afu5g07100::Chr5_A_fumigatus_Af293:1759313-1763683(+)	NA	darkgrey
Afu1g17240::Chr1_A_fumigatus_Af293:4711511-4713331(-)	NA	darkgrey
Afu6g06540::Chr6_A_fumigatus_Af293:1416667-1422688(-)	NA	darkgrey
Afu3g10600::Chr3_A_fumigatus_Af293:2737241-2738745(+)	NA	darkgrey
Afu2g12690::Chr2_A_fumigatus_Af293:3260045-3260432(+)	NA	darkgrey
Afu3g00230::Chr3_A_fumigatus_Af293:47498-50530(+)	NA	darkgrey
Afu6g03090::Chr6_A_fumigatus_Af293:653048-654612(-)	NA	darkgrey
MSTRG.532::Chr4_A_fumigatus_Af293:3268232-3269150(+)	NA	darkgrey
Afu2g14820::Chr2_A_fumigatus_Af293:3912797-3913586(+)	NA	darkgrey
Afu3g08020::Chr3_A_fumigatus_Af293:2049354-2054027(+)	NA	darkgrey
Afu2g04670::Chr2_A_fumigatus_Af293:1269156-1272109(-)	NA	darkgrey
Afu2g08740::Chr2_A_fumigatus_Af293:2244649-2246448(-)	NA	darkgrey
MSTRG.667::Chr5_A_fumigatus_Af293:3597256-3599679(+)	NA	darkgrey
Afu7g04640::Chr7_A_fumigatus_Af293:1066605-1069895(-)	NA	darkgrey
Afu1g09680::Chr1_A_fumigatus_Af293:2510683-2513236(+)	NA	darkgrey
Afu2g04720::Chr2_A_fumigatus_Af293:1290434-1294568(-)	NA	darkgrey
Afu1g01420::Chr1_A_fumigatus_Af293:460987-462481(-)	NA	darkgrey
Afu2g15820::Chr2_A_fumigatus_Af293:4179470-4180647(-)	NA	darkgrey
Afu1g13050::Chr1_A_fumigatus_Af293:3459889-3460751(-)	NA	darkgrey
Afu4g13240::Chr4_A_fumigatus_Af293:3467617-3468991(-)	NA	darkgrey
Afu3g08010::Chr3_A_fumigatus_Af293:2045436-2048176(+)	NA	darkgrey
Afu8g05660::Chr8_A_fumigatus_Af293:1339491-1343726(-)	NA	darkgrey
Afu2g17110::Chr2_A_fumigatus_Af293:4568057-4570820(+)	NA	darkgrey
Afu1g14620::Chr1_A_fumigatus_Af293:3902496-3906345(+)	NA	darkgrey
Afu1g13950::Chr1_A_fumigatus_Af293:3730590-3731507(-)	NA	darkgrey
Afu5g05860::Chr5_A_fumigatus_Af293:1364456-1370786(-)	NA	darkgrey
Afu4g03070::Chr4_A_fumigatus_Af293:858867-864999(-)	NA	darkgrey
Afu1g09500::Chr1_A_fumigatus_Af293:2453834-2457988(+)	NA	darkgrey
MSTRG.164::Chr2_A_fumigatus_Af293:33356-33895(+)	NA	darkgrey
Afu5g00670::Chr5_A_fumigatus_Af293:191640-193807(+)	NA	darkgrey
Afu4g05900::Chr4_A_fumigatus_Af293:1505907-1507443(+)	NA	darkgrey
MSTRG.240::Chr2_A_fumigatus_Af293:2464469-2466254(+)	NA	darkgrey
Afu2g04170::Chr2_A_fumigatus_Af293:1151807-1155779(+)	NA	darkgrey
Afu7g05270::Chr7_A_fumigatus_Af293:1251881-1253107(-)	NA	darkgrey
Afu1g13290::Chr1_A_fumigatus_Af293:3537399-3539158(+)	NA	darkgrey
Afu5g14280::Chr5_A_fumigatus_Af293:3718195-3719894(-)	NA	darkgrey
Afu2g00660::Chr2_A_fumigatus_Af293:144248-148591(-)	NA	darkgrey
Afu3g12730::Chr3_A_fumigatus_Af293:3380869-3383228(-)	NA	darkgrey
Afu4g12350::Chr4_A_fumigatus_Af293:3232552-3234436(-)	NA	darkgrey
Afu2g03480::Chr2_A_fumigatus_Af293:915933-919699(-)	NA	darkgrey
Afu1g02870::Chr1_A_fumigatus_Af293:821549-825521(-)	NA	darkgrey
Afu8g02630::Chr8_A_fumigatus_Af293:695780-697720(-)	NA	darkgrey
Afu3g12550::Chr3_A_fumigatus_Af293:3324045-3332678(+)	NA	darkgrey
Afu6g03100::Chr6_A_fumigatus_Af293:655058-656110(-)	NA	darkgrey
Afu2g09540::Chr2_A_fumigatus_Af293:2441522-2444663(+)	NA	darkgrey
Afu8g06380::Chr8_A_fumigatus_Af293:1533833-1534602(+)	NA	darkgrey
Afu1g06560::Chr1_A_fumigatus_Af293:1879831-1882854(+)	NA	darkgrey
