nodeName	altName	nodeAttr[nodesPresent, ]
Afu7g04210::Chr7_A_fumigatus_Af293:951567-952611(+)	NA	green
Afu2g13090::Chr2_A_fumigatus_Af293:3361375-3362710(+)	NA	green
Afu3g06190::Chr3_A_fumigatus_Af293:1528981-1530023(+)	NA	green
Afu1g16840::Chr1_A_fumigatus_Af293:4594904-4596267(-)	NA	green
Afu2g08880::Chr2_A_fumigatus_Af293:2282264-2282821(+)	NA	green
Afu3g13310::Chr3_A_fumigatus_Af293:3532028-3533477(-)	NA	green
Afu6g11240::Chr6_A_fumigatus_Af293:2783721-2783955(+)	NA	green
AfuMttR(ACG)10::mito_A_fumigatus_Af293:27378-27449(+)	NA	green
Afu4g06390::Chr4_A_fumigatus_Af293:1638302-1639644(+)	NA	green
Afu2g14000::Chr2_A_fumigatus_Af293:3660240-3661404(-)	NA	green
Afu6g12660::Chr6_A_fumigatus_Af293:3198812-3199723(+)	NA	green
Afu6g12340::Chr6_A_fumigatus_Af293:3103527-3108222(-)	NA	green
Afu3g06760::Chr3_A_fumigatus_Af293:1677799-1678699(-)	NA	green
Afu2g13040::Chr2_A_fumigatus_Af293:3346581-3347575(-)	NA	green
Afu3g13120::Chr3_A_fumigatus_Af293:3484962-3486119(-)	NA	green
Afu5g10480::Chr5_A_fumigatus_Af293:2676337-2677974(-)	NA	green
Afu4g06010::Chr4_A_fumigatus_Af293:1526142-1526984(+)	NA	green
Afu3tD(GUC)6::Chr3_A_fumigatus_Af293:900572-900660(-)	NA	green
Afu4g03040::Chr4_A_fumigatus_Af293:851976-852904(+)	NA	green
Afu3g08460::Chr3_A_fumigatus_Af293:2167383-2169459(-)	NA	green
Afu6g01880::Chr6_A_fumigatus_Af293:266923-267151(-)	NA	green
Afu7g08590::Chr7_A_fumigatus_Af293:2002577-2004777(-)	NA	green
Afu2g11450::Chr2_A_fumigatus_Af293:2946985-2948560(-)	NA	green
Afu4tG(GCC)5::Chr4_A_fumigatus_Af293:3653661-3653732(+)	NA	green
Afu1g07420::Chr1_A_fumigatus_Af293:2098711-2099410(-)	NA	green
Afu3g04220::Chr3_A_fumigatus_Af293:1190132-1197288(+)	NA	green
Afu2g10000::Chr2_A_fumigatus_Af293:2559413-2563580(+)	NA	green
Afu5g11610::Chr5_A_fumigatus_Af293:2982087-2986417(-)	NA	green
Afu8g02080::Chr8_A_fumigatus_Af293:537177-537243(+)	NA	green
Afu6g04430::Chr6_A_fumigatus_Af293:1012671-1013586(-)	NA	green
Afu6g09060::Chr6_A_fumigatus_Af293:2153864-2154754(+)	NA	green
Afu4g03650::Chr4_A_fumigatus_Af293:1028894-1030574(+)	NA	green
Afu2g14340::Chr2_A_fumigatus_Af293:3755094-3756269(-)	NA	green
Afu5g07240::Chr5_A_fumigatus_Af293:1801228-1803593(+)	NA	green
Afu2g15980::Chr2_A_fumigatus_Af293:4227873-4229115(+)	NA	green
Afu7g01400::Chr7_A_fumigatus_Af293:361590-365758(-)	NA	green
Afu1g04170::Chr1_A_fumigatus_Af293:1192672-1194869(+)	NA	green
Afu6g03820::Chr6_A_fumigatus_Af293:840366-841647(-)	NA	green
Afu5g10810::Chr5_A_fumigatus_Af293:2760591-2762922(-)	NA	green
Afu2g08750::Chr2_A_fumigatus_Af293:2247308-2248331(+)	NA	green
Afu3g07680::Chr3_A_fumigatus_Af293:1940147-1941416(-)	NA	green
Afu2g09740::Chr2_A_fumigatus_Af293:2495536-2497417(+)	NA	green
Afu5g12480::Chr5_A_fumigatus_Af293:3232202-3233375(-)	NA	green
Afu2g14280::Chr2_A_fumigatus_Af293:3742707-3745971(+)	NA	green
Afu2g02230::Chr2_A_fumigatus_Af293:564439-565782(-)	NA	green
Afu2g10700::Chr2_A_fumigatus_Af293:2738196-2739330(+)	NA	green
Afu7g01460::Chr7_A_fumigatus_Af293:378739-380901(-)	NA	green
Afu6g14240::Chr6_A_fumigatus_Af293:3623431-3625377(-)	NA	green
Afu2g04700::Chr2_A_fumigatus_Af293:1282379-1287638(+)	NA	green
Afu5g09390::Chr5_A_fumigatus_Af293:2414137-2417560(-)	NA	green
Afu3g06840::Chr3_A_fumigatus_Af293:1702881-1704544(+)	NA	green
Afu1g16960::Chr1_A_fumigatus_Af293:4633230-4633899(-)	NA	green
Afu3g07970::Chr3_A_fumigatus_Af293:2026399-2028224(-)	NA	green
Afu5g13570::Chr5_A_fumigatus_Af293:3564069-3565005(+)	NA	green
Afu5g14670::Chr5_A_fumigatus_Af293:3798028-3799324(+)	NA	green
Afu3g05950::Chr3_A_fumigatus_Af293:1453726-1459969(-)	NA	green
Afu5g13330::Chr5_A_fumigatus_Af293:3507705-3508803(+)	NA	green
Afu5g12840::Chr5_A_fumigatus_Af293:3361747-3362965(-)	NA	green
Afu1g15240::Chr1_A_fumigatus_Af293:4104166-4105293(-)	NA	green
Afu4g06090::Chr4_A_fumigatus_Af293:1562470-1564011(-)	NA	green
Afu4g09000::Chr4_A_fumigatus_Af293:2335324-2336390(-)	NA	green
Afu2tT(CGU)1::Chr2_A_fumigatus_Af293:4499890-4499962(+)	NA	green
Afu1g06390::Chr1_A_fumigatus_Af293:1831212-1833461(+)	NA	green
Afu2g02870::Chr2_A_fumigatus_Af293:742794-743812(-)	NA	green
Afu6g12690::Chr6_A_fumigatus_Af293:3204153-3206055(-)	NA	green
Afu7g01900::Chr7_A_fumigatus_Af293:510943-511879(-)	NA	green
Afu1g12065::Chr1_A_fumigatus_Af293:3196495-3197461(-)	NA	green
Afu6g05310::Chr6_A_fumigatus_Af293:1272226-1273221(+)	NA	green
Afu6g01990::Chr6_A_fumigatus_Af293:308939-310081(+)	NA	green
Afu2g01070::Chr2_A_fumigatus_Af293:247423-248662(+)	NA	green
Afu2g13340::Chr2_A_fumigatus_Af293:3441659-3442601(-)	NA	green
Afu3g08270::Chr3_A_fumigatus_Af293:2129159-2130221(+)	NA	green
Afu2g12400::Chr2_A_fumigatus_Af293:3185192-3186621(+)	NA	green
Afu2g13130::Chr2_A_fumigatus_Af293:3370564-3372100(-)	NA	green
Afu2g03150::Chr2_A_fumigatus_Af293:824003-827774(-)	NA	green
Afu2g16880::Chr2_A_fumigatus_Af293:4515768-4517329(-)	NA	green
Afu2g11090::Chr2_A_fumigatus_Af293:2842309-2843373(+)	NA	green
Afu1g03110::Chr1_A_fumigatus_Af293:896543-897574(+)	NA	green
Afu8g05710::Chr8_A_fumigatus_Af293:1356447-1358495(-)	NA	green
Afu5g02220::Chr5_A_fumigatus_Af293:566032-569100(-)	NA	green
Afu2g16160::Chr2_A_fumigatus_Af293:4280944-4284847(+)	NA	green
Afu1g05210::Chr1_A_fumigatus_Af293:1489005-1491480(+)	NA	green
Afu5g02210::Chr5_A_fumigatus_Af293:563257-565725(-)	NA	green
Afu6g03670::Chr6_A_fumigatus_Af293:803566-804814(+)	NA	green
Afu4g12600::Chr4_A_fumigatus_Af293:3306502-3308413(-)	NA	green
Afu3g10260::Chr3_A_fumigatus_Af293:2656964-2658128(-)	NA	green
Afu4g07520::Chr4_A_fumigatus_Af293:1950977-1952890(+)	NA	green
Afu2g07940::Chr2_A_fumigatus_Af293:2031479-2033612(+)	NA	green
Afu1g15280::Chr1_A_fumigatus_Af293:4114228-4116394(-)	NA	green
Afu2g05430::Chr2_A_fumigatus_Af293:1520508-1522677(-)	NA	green
Afu1g17400::Chr1_A_fumigatus_Af293:4757491-4760000(+)	NA	green
Afu1g13610::Chr1_A_fumigatus_Af293:3619619-3622641(+)	NA	green
Afu6g09220::Chr6_A_fumigatus_Af293:2186899-2192890(+)	NA	green
Afu6g06760::Chr6_A_fumigatus_Af293:1477256-1478521(-)	NA	green
Afu1g09180::Chr1_A_fumigatus_Af293:2384472-2386000(+)	NA	green
Afu2g11010::Chr2_A_fumigatus_Af293:2828955-2830972(+)	NA	green
Afu6g06370::Chr6_A_fumigatus_Af293:1367295-1369195(+)	NA	green
Afu2g03640::Chr2_A_fumigatus_Af293:964939-971334(+)	NA	green
Afu3g04210::Chr3_A_fumigatus_Af293:1182736-1190107(-)	NA	green
Afu6g04570::Chr6_A_fumigatus_Af293:1060588-1062846(+)	NA	green
Afu1g06300::Chr1_A_fumigatus_Af293:1808346-1810051(+)	NA	green
Afu4g08060::Chr4_A_fumigatus_Af293:2094131-2096312(+)	NA	green
MSTRG.66::Chr1_A_fumigatus_Af293:1175621-1176077(-)	NA	green
Afu5g11990::Chr5_A_fumigatus_Af293:3103325-3104721(-)	NA	green
Afu5g12260::Chr5_A_fumigatus_Af293:3182915-3184685(+)	NA	green
Afu2g10500::Chr2_A_fumigatus_Af293:2686274-2687792(-)	NA	green
Afu1g06770::Chr1_A_fumigatus_Af293:1932518-1933785(-)	NA	green
Afu4g04430::Chr4_A_fumigatus_Af293:1252787-1253900(+)	NA	green
Afu1g06100::Chr1_A_fumigatus_Af293:1765521-1765995(+)	NA	green
Afu1g16280::Chr1_A_fumigatus_Af293:4425596-4428961(+)	NA	green
Afu3g08100::Chr3_A_fumigatus_Af293:2070159-2075777(-)	NA	green
Afu1g02230::Chr1_A_fumigatus_Af293:655706-657411(-)	NA	green
Afu2g07800::Chr2_A_fumigatus_Af293:1995737-1996349(-)	NA	green
Afu5g06690::Chr5_A_fumigatus_Af293:1643644-1644228(-)	NA	green
Afu1g16240::Chr1_A_fumigatus_Af293:4416066-4417179(+)	NA	green
Afu3g03815::Chr3_A_fumigatus_Af293:1098555-1099413(-)	NA	green
Afu3g06600::Chr3_A_fumigatus_Af293:1636437-1638685(-)	NA	green
Afu2g16410::Chr2_A_fumigatus_Af293:4351297-4352658(+)	NA	green
Afu4g07580::Chr4_A_fumigatus_Af293:1969968-1971642(+)	NA	green
Afu6g07080::Chr6_A_fumigatus_Af293:1590882-1592494(+)	NA	green
Afu7g00450::Chr7_A_fumigatus_Af293:119031-119748(-)	NA	green
Afu4g04620::Chr4_A_fumigatus_Af293:1299400-1301264(+)	NA	green
Afu1g03510::Chr1_A_fumigatus_Af293:1014246-1016117(+)	NA	green
Afu2g14210::Chr2_A_fumigatus_Af293:3720982-3723226(+)	NA	green
Afu4g04200::Chr4_A_fumigatus_Af293:1181212-1183152(-)	NA	green
Afu2g14700::Chr2_A_fumigatus_Af293:3859305-3860500(+)	NA	green
Afu1g04840::Chr1_A_fumigatus_Af293:1371577-1374461(-)	NA	green
Afu3g03610::Chr3_A_fumigatus_Af293:968690-969866(-)	NA	green
Afu1g16523::Chr1_A_fumigatus_Af293:4479285-4479951(-)	NA	green
Afu1g15830::Chr1_A_fumigatus_Af293:4279055-4280414(+)	NA	green
Afu1g12280::Chr1_A_fumigatus_Af293:3239065-3240559(-)	NA	green
Afu7g02490::Chr7_A_fumigatus_Af293:678435-679563(-)	NA	green
Afu4g13170::Chr4_A_fumigatus_Af293:3448363-3450035(-)	NA	green
Afu3g10950::Chr3_A_fumigatus_Af293:2853050-2854144(-)	NA	green
Afu3g13465::Chr3_A_fumigatus_Af293:3560635-3561694(+)	NA	green
Afu2g10290::Chr2_A_fumigatus_Af293:2635027-2636443(+)	NA	green
Afu4g09750::Chr4_A_fumigatus_Af293:2538832-2540018(+)	NA	green
Afu3g06970::Chr3_A_fumigatus_Af293:1743101-1744103(+)	NA	green
Afu5g02080::Chr5_A_fumigatus_Af293:529804-530664(+)	NA	green
Afu8tG(GCC)11::Chr8_A_fumigatus_Af293:665779-665850(-)	NA	green
Afu2g07550::Chr2_A_fumigatus_Af293:1931944-1933246(+)	NA	green
Afu6g04100::Chr6_A_fumigatus_Af293:925051-927715(-)	NA	green
Afu1g06570::Chr1_A_fumigatus_Af293:1883285-1884451(-)	NA	green
Afu6g10760::Chr6_A_fumigatus_Af293:2659742-2660907(-)	NA	green
Afu6g12700::Chr6_A_fumigatus_Af293:3206622-3207799(+)	NA	green
Afu5g05760::Chr5_A_fumigatus_Af293:1343280-1344012(+)	NA	green
Afu2g01570::Chr2_A_fumigatus_Af293:375680-376344(-)	NA	green
Afu4g09900::Chr4_A_fumigatus_Af293:2569543-2570141(-)	NA	green
Afu5g09170::Chr5_A_fumigatus_Af293:2350373-2353376(+)	NA	green
Afu5g08380::Chr5_A_fumigatus_Af293:2127987-2130165(+)	NA	green
Afu5g05540::Chr5_A_fumigatus_Af293:1289429-1291879(+)	NA	green
Afu5g04080::Chr5_A_fumigatus_Af293:1083991-1086741(+)	NA	green
Afu4g13140::Chr4_A_fumigatus_Af293:3443621-3444458(+)	NA	green
Afu4g06500::Chr4_A_fumigatus_Af293:1665913-1667157(-)	NA	green
Afu2g03870::Chr2_A_fumigatus_Af293:1031910-1032538(+)	NA	green
Afu1g13180::Chr1_A_fumigatus_Af293:3496988-3498507(-)	NA	green
Afu3g10510::Chr3_A_fumigatus_Af293:2718532-2718868(-)	NA	green
Afu2tL(AAG)4::Chr2_A_fumigatus_Af293:4666950-4667063(-)	NA	green
Afu3g08370::Chr3_A_fumigatus_Af293:2147455-2148049(+)	NA	green
Afu1g03070::Chr1_A_fumigatus_Af293:884869-887625(+)	NA	green
Afu2tR(ACG)3::Chr2_A_fumigatus_Af293:87108-87180(-)	NA	green
Afu1g06260::Chr1_A_fumigatus_Af293:1801211-1803077(+)	NA	green
Afu6g13850::Chr6_A_fumigatus_Af293:3535619-3540158(-)	NA	green
Afu6g04170::Chr6_A_fumigatus_Af293:935063-936298(-)	NA	green
Afu6g09810::Chr6_A_fumigatus_Af293:2410726-2412063(-)	NA	green
Afu4g11050::Chr4_A_fumigatus_Af293:2877965-2880095(+)	NA	green
Afu2g13450::Chr2_A_fumigatus_Af293:3480521-3484964(-)	NA	green
Afu6g07680::Chr6_A_fumigatus_Af293:1743392-1744892(+)	NA	green
Afu6g07180::Chr6_A_fumigatus_Af293:1609946-1612167(+)	NA	green
Afu2g08470::Chr2_A_fumigatus_Af293:2181427-2186850(-)	NA	green
Afu1g06620::Chr1_A_fumigatus_Af293:1893373-1894172(+)	NA	green
Afu2g15780::Chr2_A_fumigatus_Af293:4168292-4170736(-)	NA	green
Afu2g09760::Chr2_A_fumigatus_Af293:2498559-2499213(+)	NA	green
Afu4g09870::Chr4_A_fumigatus_Af293:2563523-2564322(-)	NA	green
Afu4g04270::Chr4_A_fumigatus_Af293:1202575-1203610(+)	NA	green
Afu1g06180::Chr1_A_fumigatus_Af293:1784682-1786054(-)	NA	green
Afu3g03105::Chr3_A_fumigatus_Af293:836706-836822(+)	NA	green
Afu1g07620::Chr1_A_fumigatus_Af293:2146872-2149116(-)	NA	green
Afu4g05950::Chr4_A_fumigatus_Af293:1515722-1516672(-)	NA	green
Afu7g02340::Chr7_A_fumigatus_Af293:635303-636088(+)	NA	green
Afu4g06600::Chr4_A_fumigatus_Af293:1700115-1703381(-)	NA	green
Afu1g13195::Chr1_A_fumigatus_Af293:3501532-3502024(-)	NA	green
Afu4g08570::Chr4_A_fumigatus_Af293:2215585-2218276(-)	NA	green
Afu2tL(AAG)1::Chr2_A_fumigatus_Af293:3830451-3830564(+)	NA	green
Afu1g10820::Chr1_A_fumigatus_Af293:2822604-2823301(-)	NA	green
Afu1g17390::Chr1_A_fumigatus_Af293:4755908-4756517(-)	NA	green
Afu4g03610::Chr4_A_fumigatus_Af293:1017011-1019054(-)	NA	green
Afu5g08320::Chr5_A_fumigatus_Af293:2112226-2114035(-)	NA	green
Afu5g03520::Chr5_A_fumigatus_Af293:949869-951084(+)	NA	green
Afu4g09040::Chr4_A_fumigatus_Af293:2345771-2348549(-)	NA	green
Afu3g14450::Chr3_A_fumigatus_Af293:3839647-3840027(-)	NA	green
Afu2g16260::Chr2_A_fumigatus_Af293:4315129-4318608(+)	NA	green
Afu2g10100::Chr2_A_fumigatus_Af293:2584594-2585778(-)	NA	green
Afu3g08170::Chr3_A_fumigatus_Af293:2096433-2098043(+)	NA	green
Afu5g03080::Chr5_A_fumigatus_Af293:832894-835028(-)	NA	green
Afu4g06890::Chr4_A_fumigatus_Af293:1780883-1785331(-)	NA	green
Afu5g14510::Chr5_A_fumigatus_Af293:3765128-3766445(-)	NA	green
Afu5g02920::Chr5_A_fumigatus_Af293:773873-774997(-)	NA	green
Afu4g07030::Chr4_A_fumigatus_Af293:1821786-1823809(+)	NA	green
Afu3g08080::Chr3_A_fumigatus_Af293:2067548-2068235(-)	NA	green
Afu6g04090::Chr6_A_fumigatus_Af293:923886-924811(+)	NA	green
Afu4g13160::Chr4_A_fumigatus_Af293:3446383-3448132(+)	NA	green
Afu7g04220::Chr7_A_fumigatus_Af293:952920-953832(-)	NA	green
Afu1g07050::Chr1_A_fumigatus_Af293:2001585-2004691(-)	NA	green
Afu3g07230::Chr3_A_fumigatus_Af293:1816055-1817288(-)	NA	green
Afu4g10260::Chr4_A_fumigatus_Af293:2680376-2681826(+)	NA	green
Afu3g08140::Chr3_A_fumigatus_Af293:2091361-2092189(+)	NA	green
Afu8g01010::Chr8_A_fumigatus_Af293:230197-231703(+)	NA	green
Afu3g13340::Chr3_A_fumigatus_Af293:3535418-3536253(-)	NA	green
Afu1g07550::Chr1_A_fumigatus_Af293:2124633-2125539(-)	NA	green
Afu4g13110::Chr4_A_fumigatus_Af293:3432629-3433211(-)	NA	green
Afu6g11210::Chr6_A_fumigatus_Af293:2775180-2776329(-)	NA	green
Afu7g05085::Chr7_A_fumigatus_Af293:1200865-1203076(+)	NA	green
Afu6g02960::Chr6_A_fumigatus_Af293:614805-615290(-)	NA	green
Afu5g04160::Chr5_A_fumigatus_Af293:1105008-1106759(+)	NA	green
Afu4g10740::Chr4_A_fumigatus_Af293:2795819-2796829(+)	NA	green
Afu4g12200::Chr4_A_fumigatus_Af293:3201722-3203443(+)	NA	green
Afu3g12690::Chr3_A_fumigatus_Af293:3364714-3368339(-)	NA	green
Afu3g10060::Chr3_A_fumigatus_Af293:2588450-2589887(+)	NA	green
Afu2g03370::Chr2_A_fumigatus_Af293:889496-891227(+)	NA	green
Afu3g11470::Chr3_A_fumigatus_Af293:3009347-3012275(+)	NA	green
Afu3tP(AGG)3::Chr3_A_fumigatus_Af293:577116-577205(-)	NA	green
Afu1g12110::Chr1_A_fumigatus_Af293:3204210-3205270(-)	NA	green
Afu1g12810::Chr1_A_fumigatus_Af293:3384584-3385771(-)	NA	green
Afu2g09780::Chr2_A_fumigatus_Af293:2499497-2500977(-)	NA	green
Afu1g12270::Chr1_A_fumigatus_Af293:3238304-3238638(+)	NA	green
Afu3g11610::Chr3_A_fumigatus_Af293:3051703-3053381(+)	NA	green
Afu2g07770::Chr2_A_fumigatus_Af293:1990827-1991628(+)	NA	green
Afu5g03790::Chr5_A_fumigatus_Af293:1018188-1020263(-)	NA	green
Afu1g11540::Chr1_A_fumigatus_Af293:3046566-3047668(+)	NA	green
Afu5g07130::Chr5_A_fumigatus_Af293:1772194-1773634(+)	NA	green
Afu1g09450::Chr1_A_fumigatus_Af293:2442749-2444344(-)	NA	green
Afu2g09840::Chr2_A_fumigatus_Af293:2514148-2516275(-)	NA	green
Afu6g03560::Chr6_A_fumigatus_Af293:773172-773834(-)	NA	green
Afu5g08140::Chr5_A_fumigatus_Af293:2059429-2060941(-)	NA	green
Afu1g12890::Chr1_A_fumigatus_Af293:3406439-3408111(+)	NA	green
Afu1g12240::Chr1_A_fumigatus_Af293:3231620-3234289(+)	NA	green
Afu2g09090::Chr2_A_fumigatus_Af293:2330106-2331458(-)	NA	green
Afu4g08295::Chr4_A_fumigatus_Af293:2148131-2148917(+)	NA	green
Afu2g01210::Chr2_A_fumigatus_Af293:284101-286379(+)	NA	green
Afu6g13250::Chr6_A_fumigatus_Af293:3354552-3355891(+)	NA	green
Afu5g11000::Chr5_A_fumigatus_Af293:2816651-2818115(-)	NA	green
Afu4g04520::Chr4_A_fumigatus_Af293:1275056-1276859(-)	NA	green
Afu2g16170::Chr2_A_fumigatus_Af293:4284880-4287806(+)	NA	green
Afu6g12980::Chr6_A_fumigatus_Af293:3275549-3278496(+)	NA	green
Afu5g03500::Chr5_A_fumigatus_Af293:944578-947906(+)	NA	green
Afu3g10920::Chr3_A_fumigatus_Af293:2842515-2844244(-)	NA	green
Afu2g03040::Chr2_A_fumigatus_Af293:787406-788437(+)	NA	green
MSTRG.920::Chr8_A_fumigatus_Af293:470411-470704(-)	NA	green
Afu5g01970::Chr5_A_fumigatus_Af293:503796-505194(+)	NA	green
Afu7g02560::Chr7_A_fumigatus_Af293:702017-704019(+)	NA	green
Afu1g04890::Chr1_A_fumigatus_Af293:1385731-1387318(+)	NA	green
Afu6g10970::Chr6_A_fumigatus_Af293:2700657-2701233(+)	NA	green
Afu2tR(ACG)1::Chr2_A_fumigatus_Af293:2993062-2993134(+)	NA	green
Afu3g06270::Chr3_A_fumigatus_Af293:1552010-1553162(+)	NA	green
Afu1g05080::Chr1_A_fumigatus_Af293:1454059-1455134(+)	NA	green
Afu5g13000::Chr5_A_fumigatus_Af293:3408676-3410548(-)	NA	green
Afu5g08190::Chr5_A_fumigatus_Af293:2073088-2074402(-)	NA	green
Afu6g10170::Chr6_A_fumigatus_Af293:2514874-2515341(-)	NA	green
Afu3g08410::Chr3_A_fumigatus_Af293:2157007-2157753(+)	NA	green
Afu7g00930::Chr7_A_fumigatus_Af293:249100-250403(-)	NA	green
Afu8g03930::Chr8_A_fumigatus_Af293:839108-842056(+)	NA	green
Afu1g12140::Chr1_A_fumigatus_Af293:3210005-3210843(+)	NA	green
Afu1g05390::Chr1_A_fumigatus_Af293:1548015-1549201(-)	NA	green
Afu5g08540::Chr5_A_fumigatus_Af293:2167614-2169399(+)	NA	green
Afu1g10750::Chr1_A_fumigatus_Af293:2803648-2806170(-)	NA	green
Afu4g07100::Chr4_A_fumigatus_Af293:1846676-1848956(-)	NA	green
Afu4g05860::Chr4_A_fumigatus_Af293:1498644-1499759(+)	NA	green
Afu5g03070::Chr5_A_fumigatus_Af293:831418-832848(-)	NA	green
Afu7g05400::Chr7_A_fumigatus_Af293:1297805-1299763(+)	NA	green
Afu3g13410::Chr3_A_fumigatus_Af293:3548101-3549086(+)	NA	green
Afu7g05350::Chr7_A_fumigatus_Af293:1283531-1284647(-)	NA	green
Afu3g10730::Chr3_A_fumigatus_Af293:2780134-2781257(-)	NA	green
Afu6g04380::Chr6_A_fumigatus_Af293:1000245-1002733(-)	NA	green
Afu1g05500::Chr1_A_fumigatus_Af293:1572835-1573616(+)	NA	green
Afu4g07740::Chr4_A_fumigatus_Af293:2023796-2025535(+)	NA	green
Afu3g14660::Chr3_A_fumigatus_Af293:3885532-3885807(-)	NA	green
Afu6g02705::Chr6_A_fumigatus_Af293:542737-543273(+)	NA	green
Afu5g12000::Chr5_A_fumigatus_Af293:3104855-3105680(-)	NA	green
Afu2g09750::Chr2_A_fumigatus_Af293:2497579-2498394(-)	NA	green
Afu3g08320::Chr3_A_fumigatus_Af293:2140549-2141815(-)	NA	green
Afu1g10310::Chr1_A_fumigatus_Af293:2655203-2658641(+)	NA	green
Afu7g01990::Chr7_A_fumigatus_Af293:535092-537369(-)	NA	green
Afu1g05930::Chr1_A_fumigatus_Af293:1709666-1713339(+)	NA	green
Afu1g04800::Chr1_A_fumigatus_Af293:1362823-1364514(+)	NA	green
Afu1g09010::Chr1_A_fumigatus_Af293:2333704-2336001(+)	NA	green
Afu4tG(GCC)6::Chr4_A_fumigatus_Af293:2412534-2412605(-)	NA	green
Afu1g15580::Chr1_A_fumigatus_Af293:4213975-4214794(+)	NA	green
Afu2g10910::Chr2_A_fumigatus_Af293:2810882-2812618(+)	NA	green
Afu3g05460::Chr3_A_fumigatus_Af293:1315563-1316169(-)	NA	green
Afu1g10570::Chr1_A_fumigatus_Af293:2748911-2750227(+)	NA	green
Afu3g07710::Chr3_A_fumigatus_Af293:1944992-1947320(+)	NA	green
Afu1tY(GUA)2::Chr1_A_fumigatus_Af293:3760088-3760173(+)	NA	green
Afu5g02450::Chr5_A_fumigatus_Af293:631974-633093(+)	NA	green
Afu4g04550::Chr4_A_fumigatus_Af293:1281998-1284111(+)	NA	green
Afu2g07970::Chr2_A_fumigatus_Af293:2047893-2049543(+)	NA	green
Afu7g05810::Chr7_A_fumigatus_Af293:1423694-1425684(-)	NA	green
Afu5tP(UGG)2::Chr5_A_fumigatus_Af293:3207243-3207315(+)	NA	green
Afu5g13990::Chr5_A_fumigatus_Af293:3656747-3658181(-)	NA	green
Afu1g14530::Chr1_A_fumigatus_Af293:3883609-3885482(+)	NA	green
Afu6g10040::Chr6_A_fumigatus_Af293:2470460-2472168(-)	NA	green
Afu1g05620::Chr1_A_fumigatus_Af293:1613029-1615558(+)	NA	green
Afu6g08120::Chr6_A_fumigatus_Af293:1882250-1886758(+)	NA	green
Afu4g12840::Chr4_A_fumigatus_Af293:3363637-3365116(-)	NA	green
Afu5g04100::Chr5_A_fumigatus_Af293:1088911-1090205(-)	NA	green
Afu4g00930::Chr4_A_fumigatus_Af293:253339-254590(+)	NA	green
Afu4g06540::Chr4_A_fumigatus_Af293:1680789-1682202(+)	NA	green
Afu5g12800::Chr5_A_fumigatus_Af293:3355296-3356439(-)	NA	green
Afu3g09350::Chr3_A_fumigatus_Af293:2365911-2366495(-)	NA	green
Afu5g10850::Chr5_A_fumigatus_Af293:2775094-2778638(+)	NA	green
Afu5g13120::Chr5_A_fumigatus_Af293:3441588-3442686(+)	NA	green
Afu6g08250::Chr6_A_fumigatus_Af293:1928529-1930468(+)	NA	green
Afu5tG(GCC)8::Chr5_A_fumigatus_Af293:1903587-1903658(-)	NA	green
Afu2g16000::Chr2_A_fumigatus_Af293:4232321-4235268(+)	NA	green
Afu4g07060::Chr4_A_fumigatus_Af293:1830101-1831555(+)	NA	green
Afu6g12500::Chr6_A_fumigatus_Af293:3155494-3156604(-)	NA	green
Afu8g00680::Chr8_A_fumigatus_Af293:161237-163457(-)	NA	green
Afu3g10330::Chr3_A_fumigatus_Af293:2676311-2677043(+)	NA	green
Afu2g02560::Chr2_A_fumigatus_Af293:659060-663159(+)	NA	green
Afu5g06800::Chr5_A_fumigatus_Af293:1672772-1674593(+)	NA	green
Afu1g06810::Chr1_A_fumigatus_Af293:1942690-1945541(-)	NA	green
Afu6g10610::Chr6_A_fumigatus_Af293:2625813-2626707(+)	NA	green
Afu4g02690::Chr4_A_fumigatus_Af293:741935-742965(+)	NA	green
Afu7g02470::Chr7_A_fumigatus_Af293:671692-673432(-)	NA	green
Afu5tN(GUU)3::Chr5_A_fumigatus_Af293:3374564-3374656(-)	NA	green
Afu1g13020::Chr1_A_fumigatus_Af293:3452608-3454120(-)	NA	green
Afu3g09670::Chr3_A_fumigatus_Af293:2466136-2469922(+)	NA	green
Afu1g08810::Chr1_A_fumigatus_Af293:2275385-2279086(+)	NA	green
Afu2g16180::Chr2_A_fumigatus_Af293:4288065-4289524(+)	NA	green
Afu3g09570::Chr3_A_fumigatus_Af293:2435822-2436617(+)	NA	green
Afu2g04130::Chr2_A_fumigatus_Af293:1131701-1132740(-)	NA	green
Afu1g10700::Chr1_A_fumigatus_Af293:2792854-2793876(-)	NA	green
Afu1g09950::Chr1_A_fumigatus_Af293:2575119-2576756(+)	NA	green
Afu2g03830::Chr2_A_fumigatus_Af293:1016129-1018170(+)	NA	green
Afu5g09990::Chr5_A_fumigatus_Af293:2578305-2580568(-)	NA	green
Afu3g14290::Chr3_A_fumigatus_Af293:3793212-3794046(-)	NA	green
Afu4g08730::Chr4_A_fumigatus_Af293:2264155-2269194(+)	NA	green
Afu5g11030::Chr5_A_fumigatus_Af293:2824902-2828287(-)	NA	green
Afu4g11990::Chr4_A_fumigatus_Af293:3154648-3156053(+)	NA	green
Afu5g05490::Chr5_A_fumigatus_Af293:1274644-1276940(+)	NA	green
Afu6g11510::Chr6_A_fumigatus_Af293:2855468-2858886(+)	NA	green
Afu1g16660::Chr1_A_fumigatus_Af293:4525472-4527780(+)	NA	green
Afu2g16740::Chr2_A_fumigatus_Af293:4466001-4468250(-)	NA	green
Afu6g02970::Chr6_A_fumigatus_Af293:615530-616770(+)	NA	green
Afu6g07490::Chr6_A_fumigatus_Af293:1698631-1702420(-)	NA	green
Afu1g10540::Chr1_A_fumigatus_Af293:2742084-2744826(+)	NA	green
Afu4g13700::Chr4_A_fumigatus_Af293:3585939-3588834(+)	NA	green
Afu3g06490::Chr3_A_fumigatus_Af293:1603184-1606351(-)	NA	green
Afu4g14240::Chr4_A_fumigatus_Af293:3720728-3722077(+)	NA	green
Afu6g07390::Chr6_A_fumigatus_Af293:1667073-1668427(+)	NA	green
Afu5g09700::Chr5_A_fumigatus_Af293:2506404-2507113(-)	NA	green
Afu5g04250::Chr5_A_fumigatus_Af293:1134366-1136473(-)	NA	green
Afu5tH(GUG)3::Chr5_A_fumigatus_Af293:2564937-2565008(-)	NA	green
Afu2g16820::Chr2_A_fumigatus_Af293:4490499-4493223(-)	NA	green
Afu4g03510::Chr4_A_fumigatus_Af293:996835-998503(+)	NA	green
Afu1g03000::Chr1_A_fumigatus_Af293:864133-866082(+)	NA	green
Afu4g04750::Chr4_A_fumigatus_Af293:1339739-1341065(+)	NA	green
Afu1g01180::Chr1_A_fumigatus_Af293:412394-415891(-)	NA	green
Afu1g05070::Chr1_A_fumigatus_Af293:1451971-1453831(-)	NA	green
Afu6g08010::Chr6_A_fumigatus_Af293:1855799-1857903(+)	NA	green
Afu2g03380::Chr2_A_fumigatus_Af293:891879-892615(-)	NA	green
Afu4g06740::Chr4_A_fumigatus_Af293:1739545-1741125(+)	NA	green
Afu6g10180::Chr6_A_fumigatus_Af293:2515623-2515992(-)	NA	green
Afu3g05790::Chr3_A_fumigatus_Af293:1416357-1417533(-)	NA	green
Afu1g12160::Chr1_A_fumigatus_Af293:3213197-3214214(+)	NA	green
Afu5g09620::Chr5_A_fumigatus_Af293:2481772-2483281(+)	NA	green
Afu6g12770::Chr6_A_fumigatus_Af293:3225354-3226949(-)	NA	green
Afu6g14090::Chr6_A_fumigatus_Af293:3593050-3594095(+)	NA	green
Afu5g13560::Chr5_A_fumigatus_Af293:3560270-3562553(+)	NA	green
Afu1g15290::Chr1_A_fumigatus_Af293:4119093-4121388(-)	NA	green
Afu2g04900::Chr2_A_fumigatus_Af293:1347035-1349359(+)	NA	green
Afu6g06390::Chr6_A_fumigatus_Af293:1371908-1372097(+)	NA	green
Afu6g03810::Chr6_A_fumigatus_Af293:839211-840093(-)	NA	green
Afu8g04490::Chr8_A_fumigatus_Af293:1016713-1018670(+)	NA	green
Afu3g06510::Chr3_A_fumigatus_Af293:1610515-1614188(+)	NA	green
Afu5g14070::Chr5_A_fumigatus_Af293:3678013-3678515(-)	NA	green
Afu5g03640::Chr5_A_fumigatus_Af293:974565-976598(+)	NA	green
Afu2g04950::Chr2_A_fumigatus_Af293:1359766-1360999(+)	NA	green
Afu8tV(AAC)7::Chr8_A_fumigatus_Af293:1315261-1315335(-)	NA	green
Afu3g10850::Chr3_A_fumigatus_Af293:2824167-2825505(-)	NA	green
Afu5g05450::Chr5_A_fumigatus_Af293:1264884-1267216(-)	NA	green
Afu7g04090::Chr7_A_fumigatus_Af293:921434-922800(+)	NA	green
Afu2g07350::Chr2_A_fumigatus_Af293:1876932-1878405(+)	NA	green
Afu1g05160::Chr1_A_fumigatus_Af293:1477587-1478316(+)	NA	green
Afu3g11690::Chr3_A_fumigatus_Af293:3069304-3072133(-)	NA	green
Afu4g10370::Chr4_A_fumigatus_Af293:2709273-2711420(-)	NA	green
Afu5g09660::Chr5_A_fumigatus_Af293:2494855-2496893(-)	NA	green
Afu2g08840::Chr2_A_fumigatus_Af293:2271791-2273906(+)	NA	green
Afu6g06330::Chr6_A_fumigatus_Af293:1336682-1337152(+)	NA	green
Afu7g04260::Chr7_A_fumigatus_Af293:959653-960787(+)	NA	green
Afu2g03100::Chr2_A_fumigatus_Af293:810953-812277(+)	NA	green
Afu6g13900::Chr6_A_fumigatus_Af293:3545539-3547374(+)	NA	green
Afu7g04420::Chr7_A_fumigatus_Af293:1006630-1008223(-)	NA	green
Afu6g00660::Chr6_A_fumigatus_Af293:170159-171220(+)	NA	green
Afu1g10910::Chr1_A_fumigatus_Af293:2848154-2850137(-)	NA	green
MSTRG.495::Chr4_A_fumigatus_Af293:1296371-1296638(+)	NA	green
Afu1g00950::Chr1_A_fumigatus_Af293:336864-337907(+)	NA	green
Afu3g13790::Chr3_A_fumigatus_Af293:3640158-3644179(-)	NA	green
Afu6g04510::Chr6_A_fumigatus_Af293:1044347-1045667(-)	NA	green
Afu2tM(CAU)2::Chr2_A_fumigatus_Af293:4722131-4722238(+)	NA	green
Afu3g08560::Chr3_A_fumigatus_Af293:2194591-2196171(+)	NA	green
Afu3g14110::Chr3_A_fumigatus_Af293:3752031-3752945(-)	NA	green
Afu5g03560::Chr5_A_fumigatus_Af293:960778-963406(-)	NA	green
Afu1g03430::Chr1_A_fumigatus_Af293:995829-996800(-)	NA	green
Afu1g07170::Chr1_A_fumigatus_Af293:2033188-2035083(-)	NA	green
Afu1g09330::Chr1_A_fumigatus_Af293:2420220-2422052(+)	NA	green
Afu5g11390::Chr5_A_fumigatus_Af293:2926232-2929015(+)	NA	green
Afu1g10740::Chr1_A_fumigatus_Af293:2802340-2803604(-)	NA	green
Afu4g11315::Chr4_A_fumigatus_Af293:2969095-2969185(+)	NA	green
Afu2g10380::Chr2_A_fumigatus_Af293:2656029-2657757(-)	NA	green
Afu1g11860::Chr1_A_fumigatus_Af293:3121476-3122364(-)	NA	green
Afu1g13480::Chr1_A_fumigatus_Af293:3584421-3585631(+)	NA	green
Afu4g07590::Chr4_A_fumigatus_Af293:1972339-1974111(+)	NA	green
Afu2g02070::Chr2_A_fumigatus_Af293:511839-513846(+)	NA	green
Afu3g05410::Chr3_A_fumigatus_Af293:1301928-1302699(+)	NA	green
Afu8g03950::Chr8_A_fumigatus_Af293:843388-844576(-)	NA	green
Afu6g13300::Chr6_A_fumigatus_Af293:3375625-3377200(-)	NA	green
Afu4g07820::Chr4_A_fumigatus_Af293:2044232-2046392(-)	NA	green
MSTRG.59::Chr1_A_fumigatus_Af293:939676-940494(+)	NA	green
Afu3g10550::Chr3_A_fumigatus_Af293:2730595-2731243(-)	NA	green
MSTRG.427::Chr3_A_fumigatus_Af293:3104643-3105219(+)	NA	green
Afu6g03270::Chr6_A_fumigatus_Af293:694434-695010(+)	NA	green
MSTRG.828::Chr7_A_fumigatus_Af293:300737-301127(+)	NA	green
Afu4g07845::Chr4_A_fumigatus_Af293:2048793-2049975(+)	NA	green
Afu5g05930::Chr5_A_fumigatus_Af293:1392341-1393619(+)	NA	green
Afu1g14630::Chr1_A_fumigatus_Af293:3906371-3907849(+)	NA	green
Afu6g04010::Chr6_A_fumigatus_Af293:901281-904822(+)	NA	green
Afu4g10430::Chr4_A_fumigatus_Af293:2735738-2737082(-)	NA	green
Afu4g11690::Chr4_A_fumigatus_Af293:3087469-3089449(-)	NA	green
Afu2g15190::Chr2_A_fumigatus_Af293:4024828-4026129(-)	NA	green
Afu4g11820::Chr4_A_fumigatus_Af293:3121144-3122676(-)	NA	green
Afu4g06400::Chr4_A_fumigatus_Af293:1640019-1642754(+)	NA	green
Afu2g11190::Chr2_A_fumigatus_Af293:2875550-2877034(-)	NA	green
AfuMttK(UUU)2::mito_A_fumigatus_Af293:10008-10081(+)	NA	green
Afu6g02110::Chr6_A_fumigatus_Af293:357382-358584(-)	NA	green
Afu7g05720::Chr7_A_fumigatus_Af293:1398604-1400277(+)	NA	green
Afu6tR(ACG)5::Chr6_A_fumigatus_Af293:3587600-3587672(+)	NA	green
Afu2g03010::Chr2_A_fumigatus_Af293:771516-772718(-)	NA	green
Afu1g05430::Chr1_A_fumigatus_Af293:1558601-1559258(-)	NA	green
Afu1g09420::Chr1_A_fumigatus_Af293:2439016-2439730(+)	NA	green
Afu5g01000::Chr5_A_fumigatus_Af293:256275-256850(+)	NA	green
Afu4g12170::Chr4_A_fumigatus_Af293:3193791-3195715(+)	NA	green
Afu4g07605::Chr4_A_fumigatus_Af293:1975221-1977027(+)	NA	green
Afu5g00495::Chr5_A_fumigatus_Af293:141286-144170(+)	NA	green
Afu3g06255::Chr3_A_fumigatus_Af293:1547417-1548145(+)	NA	green
Afu8g04810::Chr8_A_fumigatus_Af293:1103014-1104248(-)	NA	green
Afu2g05410::Chr2_A_fumigatus_Af293:1513345-1516972(-)	NA	green
AfuMttY(GUA)7::mito_A_fumigatus_Af293:7920-8005(+)	NA	green
Afu2g05890::Chr2_A_fumigatus_Af293:1657281-1660256(-)	NA	green
Afu4g10960::Chr4_A_fumigatus_Af293:2860013-2860799(+)	NA	green
Afu6g03640::Chr6_A_fumigatus_Af293:795412-797560(-)	NA	green
Afu2g11710::Chr2_A_fumigatus_Af293:3005074-3006602(-)	NA	green
Afu4g10620::Chr4_A_fumigatus_Af293:2776009-2777646(-)	NA	green
Afu5g00980::Chr5_A_fumigatus_Af293:254323-255862(+)	NA	green
Afu6g12630::Chr6_A_fumigatus_Af293:3191116-3194980(+)	NA	green
Afu2g04010::Chr2_A_fumigatus_Af293:1092486-1095746(-)	NA	green
Afu1g04550::Chr1_A_fumigatus_Af293:1287139-1288616(+)	NA	green
Afu5g11650::Chr5_A_fumigatus_Af293:2992827-2994174(-)	NA	green
Afu6g11260::Chr6_A_fumigatus_Af293:2786301-2788495(+)	NA	green
Afu8g05680::Chr8_A_fumigatus_Af293:1346996-1351920(+)	NA	green
Afu1g12180::Chr1_A_fumigatus_Af293:3216899-3220323(+)	NA	green
Afu3g10250::Chr3_A_fumigatus_Af293:2650775-2654727(+)	NA	green
Afu5g05630::Chr5_A_fumigatus_Af293:1312257-1314271(-)	NA	green
Afu1g03840::Chr1_A_fumigatus_Af293:1115004-1117196(+)	NA	green
Afu6g08610::Chr6_A_fumigatus_Af293:2040447-2041619(-)	NA	green
Afu4g11040::Chr4_A_fumigatus_Af293:2875143-2877924(+)	NA	green
Afu2g10580::Chr2_A_fumigatus_Af293:2708772-2710000(-)	NA	green
Afu7g01490::Chr7_A_fumigatus_Af293:388098-390895(+)	NA	green
Afu5g13490::Chr5_A_fumigatus_Af293:3542236-3542887(+)	NA	green
Afu2g02165::Chr2_A_fumigatus_Af293:540007-541339(-)	NA	green
Afu7g05790::Chr7_A_fumigatus_Af293:1416854-1420089(-)	NA	green
Afu1g04580::Chr1_A_fumigatus_Af293:1298567-1300485(+)	NA	green
Afu4g08770::Chr4_A_fumigatus_Af293:2275173-2278618(-)	NA	green
Afu1tP(UGG)1::Chr1_A_fumigatus_Af293:3698804-3698876(-)	NA	green
Afu2g11680::Chr2_A_fumigatus_Af293:3002568-3003967(+)	NA	green
Afu5g02690::Chr5_A_fumigatus_Af293:702769-705415(-)	NA	green
Afu2g09690::Chr2_A_fumigatus_Af293:2485860-2486686(-)	NA	green
Afu3g13360::Chr3_A_fumigatus_Af293:3538758-3539284(-)	NA	green
Afu5tG(GCC)9::Chr5_A_fumigatus_Af293:321609-321680(-)	NA	green
Afu5g11410::Chr5_A_fumigatus_Af293:2931544-2932378(+)	NA	green
Afu2g02100::Chr2_A_fumigatus_Af293:521299-524372(-)	NA	green
Afu2g07510::Chr2_A_fumigatus_Af293:1924080-1925435(-)	NA	green
Afu3g12480::Chr3_A_fumigatus_Af293:3296332-3298981(-)	NA	green
Afu7g01540::Chr7_A_fumigatus_Af293:401967-403191(+)	NA	green
Afu6g01820::Chr6_A_fumigatus_Af293:251901-253560(+)	NA	green
Afu1g04320::Chr1_A_fumigatus_Af293:1225855-1226942(+)	NA	green
Afu2g05670::Chr2_A_fumigatus_Af293:1584646-1587163(+)	NA	green
Afu2g08670::Chr2_A_fumigatus_Af293:2227400-2234495(-)	NA	green
Afu1g16800::Chr1_A_fumigatus_Af293:4582632-4586153(+)	NA	green
Afu3g13030::Chr3_A_fumigatus_Af293:3459561-3461612(+)	NA	green
Afu2g17820::Chr2_A_fumigatus_Af293:4739534-4741113(-)	NA	green
Afu1g08980::Chr1_A_fumigatus_Af293:2329240-2330811(+)	NA	green
Afu1g09650::Chr1_A_fumigatus_Af293:2498561-2500275(+)	NA	green
Afu6g06750::Chr6_A_fumigatus_Af293:1473856-1476209(+)	NA	green
Afu2g08520::Chr2_A_fumigatus_Af293:2193927-2194517(+)	NA	green
Afu5g04030::Chr5_A_fumigatus_Af293:1076635-1077523(-)	NA	green
Afu5g07840::Chr5_A_fumigatus_Af293:1966276-1967484(+)	NA	green
Afu4g11910::Chr4_A_fumigatus_Af293:3142159-3145282(-)	NA	green
Afu3g08800::Chr3_A_fumigatus_Af293:2251321-2252071(+)	NA	green
Afu3tI(AAU)2::Chr3_A_fumigatus_Af293:2793259-2793333(+)	NA	green
Afu1g12730::Chr1_A_fumigatus_Af293:3368159-3369380(-)	NA	green
Afu8g05000::Chr8_A_fumigatus_Af293:1154886-1156286(-)	NA	green
Afu4g08290::Chr4_A_fumigatus_Af293:2146762-2147681(+)	NA	green
Afu4g06830::Chr4_A_fumigatus_Af293:1764214-1765322(-)	NA	green
Afu6tV(AAC)1::Chr6_A_fumigatus_Af293:126213-126287(+)	NA	green
Afu4g12160::Chr4_A_fumigatus_Af293:3190151-3193450(-)	NA	green
Afu7g06660::Chr7_A_fumigatus_Af293:1618890-1620171(+)	NA	green
Afu3g15380::Chr3_A_fumigatus_Af293:4059477-4061040(+)	NA	green
Afu2g14220::Chr2_A_fumigatus_Af293:3723535-3725505(-)	NA	green
Afu7tV(AAC)2::Chr7_A_fumigatus_Af293:103766-103840(+)	NA	green
Afu4g09970::Chr4_A_fumigatus_Af293:2583691-2585985(+)	NA	green
Afu6g12280::Chr6_A_fumigatus_Af293:3085108-3086436(+)	NA	green
Afu5g05660::Chr5_A_fumigatus_Af293:1318645-1319506(+)	NA	green
Afu1g12800::Chr1_A_fumigatus_Af293:3382390-3384187(+)	NA	green
Afu4g04318::Chr4_A_fumigatus_Af293:1216901-1218030(-)	NA	green
Afu5tL(AAG)5::Chr5_A_fumigatus_Af293:2569911-2570024(-)	NA	green
Afu5g07140::Chr5_A_fumigatus_Af293:1773866-1776629(-)	NA	green
Afu6g04660::Chr6_A_fumigatus_Af293:1086107-1086724(-)	NA	green
Afu3g03600::Chr3_A_fumigatus_Af293:964391-965315(-)	NA	green
Afu6g05200::Chr6_A_fumigatus_Af293:1248568-1250258(+)	NA	green
Afu1g12580::Chr1_A_fumigatus_Af293:3323911-3324414(+)	NA	green
Afu4g10800::Chr4_A_fumigatus_Af293:2822223-2823590(-)	NA	green
Afu1g09800::Chr1_A_fumigatus_Af293:2543870-2545480(+)	NA	green
Afu6g07550::Chr6_A_fumigatus_Af293:1716092-1717209(+)	NA	green
Afu5g06130::Chr5_A_fumigatus_Af293:1464301-1466175(-)	NA	green
Afu4g09740::Chr4_A_fumigatus_Af293:2536568-2538826(+)	NA	green
Afu4g02802::Chr4_A_fumigatus_Af293:782298-783152(-)	NA	green
Afu4g07435::Chr4_A_fumigatus_Af293:1931581-1932692(-)	NA	green
Afu6g08160::Chr6_A_fumigatus_Af293:1899218-1900250(+)	NA	green
Afu3g06520::Chr3_A_fumigatus_Af293:1614627-1616391(-)	NA	green
Afu7g05490::Chr7_A_fumigatus_Af293:1326514-1326733(-)	NA	green
Afu5g07750::Chr5_A_fumigatus_Af293:1934756-1936169(+)	NA	green
Afu4g07460::Chr4_A_fumigatus_Af293:1935461-1938809(-)	NA	green
Afu2g09930::Chr2_A_fumigatus_Af293:2541562-2543711(+)	NA	green
Afu5g05570::Chr5_A_fumigatus_Af293:1299089-1299809(-)	NA	green
Afu2g03720::Chr2_A_fumigatus_Af293:995025-995900(+)	NA	green
Afu2g03160::Chr2_A_fumigatus_Af293:829183-830711(+)	NA	green
Afu2g11140::Chr2_A_fumigatus_Af293:2853997-2855791(+)	NA	green
Afu6g10520::Chr6_A_fumigatus_Af293:2607305-2608820(-)	NA	green
Afu1g06370::Chr1_A_fumigatus_Af293:1828185-1829171(-)	NA	green
Afu4g07910::Chr4_A_fumigatus_Af293:2063232-2067278(-)	NA	green
Afu2g15870::Chr2_A_fumigatus_Af293:4191474-4195083(-)	NA	green
Afu1g17630::Chr1_A_fumigatus_Af293:4830854-4832945(-)	NA	green
Afu1g12820::Chr1_A_fumigatus_Af293:3385905-3388870(+)	NA	green
Afu8g04090::Chr8_A_fumigatus_Af293:888417-890815(+)	NA	green
Afu4g07990::Chr4_A_fumigatus_Af293:2077852-2078962(+)	NA	green
Afu4g13030::Chr4_A_fumigatus_Af293:3413981-3415231(-)	NA	green
Afu3g08160::Chr3_A_fumigatus_Af293:2094222-2095759(-)	NA	green
Afu4g00950::Chr4_A_fumigatus_Af293:256074-258106(-)	NA	green
Afu6g04910::Chr6_A_fumigatus_Af293:1156484-1160994(+)	NA	green
Afu1g17080::Chr1_A_fumigatus_Af293:4662923-4663586(-)	NA	green
Afu8g04140::Chr8_A_fumigatus_Af293:909298-912261(-)	NA	green
Afu6g10730::Chr6_A_fumigatus_Af293:2650121-2652248(-)	NA	green
Afu2g11000::Chr2_A_fumigatus_Af293:2826692-2828577(+)	NA	green
Afu2g04690::Chr2_A_fumigatus_Af293:1279386-1281635(-)	NA	green
Afu4g07730::Chr4_A_fumigatus_Af293:2022958-2023719(-)	NA	green
Afu6tR(ACG)6::Chr6_A_fumigatus_Af293:3438529-3438601(-)	NA	green
Afu1g04960::Chr1_A_fumigatus_Af293:1413264-1418032(-)	NA	green
Afu7g05420::Chr7_A_fumigatus_Af293:1301652-1303010(+)	NA	green
Afu6g05130::Chr6_A_fumigatus_Af293:1224891-1228157(+)	NA	green
MSTRG.136::Chr1_A_fumigatus_Af293:4010194-4010663(-)	NA	green
Afu6g06890::Chr6_A_fumigatus_Af293:1519200-1520519(-)	NA	green
Afu5g09060::Chr5_A_fumigatus_Af293:2329961-2330744(-)	NA	green
Afu4g12080::Chr4_A_fumigatus_Af293:3178774-3179859(+)	NA	green
Afu2g03760::Chr2_A_fumigatus_Af293:1002837-1003701(-)	NA	green
Afu7g02130::Chr7_A_fumigatus_Af293:571829-573309(-)	NA	green
Afu5g12030::Chr5_A_fumigatus_Af293:3111380-3111548(-)	NA	green
Afu3g01070::Chr3_A_fumigatus_Af293:249093-251093(+)	NA	green
Afu3g05880::Chr3_A_fumigatus_Af293:1434915-1438239(-)	NA	green
Afu4g11900::Chr4_A_fumigatus_Af293:3139818-3142127(+)	NA	green
AfuMttM(CAU)10::mito_A_fumigatus_Af293:16182-16255(+)	NA	green
Afu6g12800::Chr6_A_fumigatus_Af293:3230761-3232059(+)	NA	green
Afu3g06650::Chr3_A_fumigatus_Af293:1645731-1647349(-)	NA	green
Afu4g05930::Chr4_A_fumigatus_Af293:1512161-1513186(-)	NA	green
Afu1g02660::Chr1_A_fumigatus_Af293:772133-773463(-)	NA	green
Afu2g09860::Chr2_A_fumigatus_Af293:2520578-2523170(+)	NA	green
Afu1tG(GCC)1::Chr1_A_fumigatus_Af293:1651255-1651326(+)	NA	green
Afu6g04520::Chr6_A_fumigatus_Af293:1045815-1047768(+)	NA	green
Afu3g08490::Chr3_A_fumigatus_Af293:2177952-2178615(+)	NA	green
Afu5g08520::Chr5_A_fumigatus_Af293:2163435-2164495(+)	NA	green
Afu5g03630::Chr5_A_fumigatus_Af293:973455-974461(+)	NA	green
Afu2g09570::Chr2_A_fumigatus_Af293:2449598-2453387(-)	NA	green
Afu6g10860::Chr6_A_fumigatus_Af293:2679287-2680278(-)	NA	green
Afu2g07380::Chr2_A_fumigatus_Af293:1878669-1879546(-)	NA	green
Afu2g05840::Chr2_A_fumigatus_Af293:1641566-1643827(-)	NA	green
Afu2g04300::Chr2_A_fumigatus_Af293:1186730-1187945(+)	NA	green
Afu5g06490::Chr5_A_fumigatus_Af293:1585665-1586235(+)	NA	green
Afu2g10250::Chr2_A_fumigatus_Af293:2619683-2621488(+)	NA	green
Afu3g09920::Chr3_A_fumigatus_Af293:2544009-2545087(-)	NA	green
Afu1g13380::Chr1_A_fumigatus_Af293:3558538-3559429(+)	NA	green
Afu3g10830::Chr3_A_fumigatus_Af293:2820307-2821219(+)	NA	green
Afu1g09260::Chr1_A_fumigatus_Af293:2401275-2402032(+)	NA	green
Afu5g11550::Chr5_A_fumigatus_Af293:2962226-2964135(+)	NA	green
Afu2g13110::Chr2_A_fumigatus_Af293:3367111-3368165(-)	NA	green
Afu5g11630::Chr5_A_fumigatus_Af293:2989421-2991611(-)	NA	green
Afu2g09210::Chr2_A_fumigatus_Af293:2359329-2360452(+)	NA	green
Afu3tI(AAU)4::Chr3_A_fumigatus_Af293:2791976-2792050(-)	NA	green
Afu5g01790::Chr5_A_fumigatus_Af293:455313-455541(-)	NA	green
Afu6g09330::Chr6_A_fumigatus_Af293:2227722-2229437(+)	NA	green
Afu5g11090::Chr5_A_fumigatus_Af293:2840764-2841730(+)	NA	green
Afu5g08600::Chr5_A_fumigatus_Af293:2186827-2188426(+)	NA	green
Afu1g10640::Chr1_A_fumigatus_Af293:2776930-2777812(+)	NA	green
Afu3g09280::Chr3_A_fumigatus_Af293:2353955-2355185(+)	NA	green
Afu5g14660::Chr5_A_fumigatus_Af293:3794748-3797326(-)	NA	green
Afu1g07280::Chr1_A_fumigatus_Af293:2064572-2067201(+)	NA	green
Afu4g03880::Chr4_A_fumigatus_Af293:1090669-1092542(+)	NA	green
Afu3g12640::Chr3_A_fumigatus_Af293:3350660-3352214(+)	NA	green
Afu7g05980::Chr7_A_fumigatus_Af293:1468863-1469276(+)	NA	green
Afu6g12420::Chr6_A_fumigatus_Af293:3140679-3143410(+)	NA	green
Afu8tI(AAU)7::Chr8_A_fumigatus_Af293:970484-970558(-)	NA	green
Afu1g05100::Chr1_A_fumigatus_Af293:1455664-1458632(-)	NA	green
Afu4g07290::Chr4_A_fumigatus_Af293:1895296-1896766(+)	NA	green
Afu4g11730::Chr4_A_fumigatus_Af293:3101682-3103518(+)	NA	green
Afu5g07770::Chr5_A_fumigatus_Af293:1939401-1942215(+)	NA	green
Afu6tR(ACG)8::Chr6_A_fumigatus_Af293:713927-713999(-)	NA	green
Afu7g00910::Chr7_A_fumigatus_Af293:242363-244865(-)	NA	green
Afu6g08630::Chr6_A_fumigatus_Af293:2043109-2043968(-)	NA	green
Afu6g07380::Chr6_A_fumigatus_Af293:1663632-1667034(-)	NA	green
Afu8g05210::Chr8_A_fumigatus_Af293:1214104-1215565(+)	NA	green
Afu4g04460::Chr4_A_fumigatus_Af293:1261057-1262578(+)	NA	green
Afu1g13580::Chr1_A_fumigatus_Af293:3610269-3612955(+)	NA	green
Afu4g14250::Chr4_A_fumigatus_Af293:3722635-3725494(+)	NA	green
Afu2g15060::Chr2_A_fumigatus_Af293:3979947-3981347(-)	NA	green
Afu2g03310::Chr2_A_fumigatus_Af293:871549-873798(-)	NA	green
Afu2g08600::Chr2_A_fumigatus_Af293:2206236-2207522(-)	NA	green
Afu5g11540::Chr5_A_fumigatus_Af293:2960774-2962071(-)	NA	green
Afu2g10740::Chr2_A_fumigatus_Af293:2749053-2751216(+)	NA	green
Afu1g11130::Chr1_A_fumigatus_Af293:2932746-2934316(+)	NA	green
Afu6g06800::Chr6_A_fumigatus_Af293:1486402-1487725(-)	NA	green
Afu2g13120::Chr2_A_fumigatus_Af293:3369211-3370199(+)	NA	green
Afu1g15300::Chr1_A_fumigatus_Af293:4124094-4127115(+)	NA	green
Afu5g03000::Chr5_A_fumigatus_Af293:799890-801824(+)	NA	green
Afu5g06390::Chr5_A_fumigatus_Af293:1536626-1538366(+)	NA	green
Afu4g13910::Chr4_A_fumigatus_Af293:3627071-3630200(-)	NA	green
Afu1g06630::Chr1_A_fumigatus_Af293:1895053-1896487(+)	NA	green
Afu2g16020::Chr2_A_fumigatus_Af293:4237711-4239959(+)	NA	green
Afu7g04060::Chr7_A_fumigatus_Af293:913229-914337(+)	NA	green
Afu1g07260::Chr1_A_fumigatus_Af293:2061710-2063371(+)	NA	green
Afu3g12370::Chr3_A_fumigatus_Af293:3260059-3261136(+)	NA	green
Afu6g06580::Chr6_A_fumigatus_Af293:1432279-1433769(-)	NA	green
Afu4g12540::Chr4_A_fumigatus_Af293:3288897-3289512(-)	NA	green
Afu2tG(GCC)3::Chr2_A_fumigatus_Af293:465234-465305(-)	NA	green
Afu3g10570::Chr3_A_fumigatus_Af293:2732803-2733769(-)	NA	green
Afu3g08760::Chr3_A_fumigatus_Af293:2241506-2242697(-)	NA	green
Afu4g07640::Chr4_A_fumigatus_Af293:1986588-1987642(-)	NA	green
Afu3g06550::Chr3_A_fumigatus_Af293:1623468-1625008(+)	NA	green
Afu3g08330::Chr3_A_fumigatus_Af293:2142308-2143675(-)	NA	green
Afu1g09550::Chr1_A_fumigatus_Af293:2468225-2469303(+)	NA	green
Afu4g07600::Chr4_A_fumigatus_Af293:1974398-1974932(-)	NA	green
Afu2g01640::Chr2_A_fumigatus_Af293:396305-397896(+)	NA	green
Afu2g14905::Chr2_A_fumigatus_Af293:3926741-3927304(-)	NA	green
Afu3g12300::Chr3_A_fumigatus_Af293:3242069-3243283(+)	NA	green
Afu2g09200::Chr2_A_fumigatus_Af293:2358209-2359012(+)	NA	green
Afu5g05700::Chr5_A_fumigatus_Af293:1326199-1327346(+)	NA	green
Afu1g10630::Chr1_A_fumigatus_Af293:2774480-2776565(-)	NA	green
Afu5g00990::Chr5_A_fumigatus_Af293:256001-256245(+)	NA	green
Afu2g10440::Chr2_A_fumigatus_Af293:2671161-2672292(-)	NA	green
Afu3g06420::Chr3_A_fumigatus_Af293:1579952-1580603(-)	NA	green
Afu1g05630::Chr1_A_fumigatus_Af293:1616206-1617454(-)	NA	green
Afu5g03570::Chr5_A_fumigatus_Af293:963515-964585(+)	NA	green
Afu5g06360::Chr5_A_fumigatus_Af293:1530675-1531695(-)	NA	green
Afu3g13480::Chr3_A_fumigatus_Af293:3565251-3567163(+)	NA	green
Afu2g01360::Chr2_A_fumigatus_Af293:327004-327947(-)	NA	green
Afu5g06912::Chr5_A_fumigatus_Af293:1700184-1700300(+)	NA	green
Afu5g11985::Chr5_A_fumigatus_Af293:3102686-3103169(+)	NA	green
Afu2g01030::Chr2_A_fumigatus_Af293:236686-237739(-)	NA	green
Afu5g12810::Chr5_A_fumigatus_Af293:3356559-3357895(+)	NA	green
Afu1tG(GCC)2::Chr1_A_fumigatus_Af293:2907409-2907480(+)	NA	green
Afu5g06270::Chr5_A_fumigatus_Af293:1504544-1507198(+)	NA	green
Afu5g14490::Chr5_A_fumigatus_Af293:3760905-3762694(+)	NA	green
Afu3g01196::Chr3_A_fumigatus_Af293:292378-293333(-)	NA	green
Afu6g04740::Chr6_A_fumigatus_Af293:1113099-1114851(-)	NA	green
Afu8g05790::Chr8_A_fumigatus_Af293:1377540-1378281(+)	NA	green
Afu7g05930::Chr7_A_fumigatus_Af293:1451451-1454955(+)	NA	green
Afu2g14060::Chr2_A_fumigatus_Af293:3676422-3677571(-)	NA	green
Afu2g11080::Chr2_A_fumigatus_Af293:2839966-2842086(-)	NA	green
Afu5g01960::Chr5_A_fumigatus_Af293:501132-503280(+)	NA	green
Afu6g03830::Chr6_A_fumigatus_Af293:841755-842871(-)	NA	green
Afu7g02140::Chr7_A_fumigatus_Af293:573446-574975(+)	NA	green
Afu1g05960::Chr1_A_fumigatus_Af293:1717984-1720882(-)	NA	green
Afu4g06190::Chr4_A_fumigatus_Af293:1596220-1598467(-)	NA	green
Afu8g04440::Chr8_A_fumigatus_Af293:1002274-1003046(+)	NA	green
Afu4g12920::Chr4_A_fumigatus_Af293:3384471-3386472(+)	NA	green
Afu7g02360::Chr7_A_fumigatus_Af293:640992-642433(-)	NA	green
Afu5g06653::Chr5_A_fumigatus_Af293:1629894-1630482(+)	NA	green
Afu8g00850::Chr8_A_fumigatus_Af293:201038-202401(-)	NA	green
Afu2g01780::Chr2_A_fumigatus_Af293:440617-442246(-)	NA	green
Afu5g08610::Chr5_A_fumigatus_Af293:2189987-2191931(+)	NA	green
Afu8g05320::Chr8_A_fumigatus_Af293:1239432-1242145(+)	NA	green
Afu7g03970::Chr7_A_fumigatus_Af293:892168-892894(+)	NA	green
Afu3g11600::Chr3_A_fumigatus_Af293:3048311-3049201(+)	NA	green
Afu3g04020::Chr3_A_fumigatus_Af293:1142461-1143395(+)	NA	green
MSTRG.182::Chr2_A_fumigatus_Af293:961392-961899(+)	NA	green
Afu7g03740::Chr7_A_fumigatus_Af293:804300-806313(-)	NA	green
Afu4g08070::Chr4_A_fumigatus_Af293:2096702-2098332(+)	NA	green
Afu5g08890::Chr5_A_fumigatus_Af293:2281401-2284083(+)	NA	green
Afu5g10550::Chr5_A_fumigatus_Af293:2699826-2702848(-)	NA	green
Afu4g11720::Chr4_A_fumigatus_Af293:3098930-3100984(-)	NA	green
Afu2g05850::Chr2_A_fumigatus_Af293:1644730-1647324(-)	NA	green
Afu6g00620::Chr6_A_fumigatus_Af293:160928-161618(-)	NA	green
AfuMt00050::mito_A_fumigatus_Af293:8078-8729(+)	NA	green
Afu6g07670::Chr6_A_fumigatus_Af293:1741178-1742990(-)	NA	green
Afu2g11440::Chr2_A_fumigatus_Af293:2945653-2946723(+)	NA	green
Afu5g12020::Chr5_A_fumigatus_Af293:3108059-3111008(-)	NA	green
Afu2g08720::Chr2_A_fumigatus_Af293:2242151-2242771(-)	NA	green
Afu8g04330::Chr8_A_fumigatus_Af293:972171-973726(-)	NA	green
Afu3tG(GCC)4::Chr3_A_fumigatus_Af293:3556766-3556837(+)	NA	green
Afu1tS(GCU)1::Chr1_A_fumigatus_Af293:2426521-2426602(+)	NA	green
Afu5g07390::Chr5_A_fumigatus_Af293:1845237-1846785(-)	NA	green
Afu1g04530::Chr1_A_fumigatus_Af293:1282635-1283216(+)	NA	green
Afu6g02260::Chr6_A_fumigatus_Af293:402538-404132(+)	NA	green
Afu7g02080::Chr7_A_fumigatus_Af293:557649-558936(-)	NA	green
Afu1g06610::Chr1_A_fumigatus_Af293:1891684-1893157(-)	NA	green
Afu1g02070::Chr1_A_fumigatus_Af293:611101-612423(+)	NA	green
Afu6g12860::Chr6_A_fumigatus_Af293:3244429-3246490(-)	NA	green
Afu6g12990::Chr6_A_fumigatus_Af293:3279114-3280591(-)	NA	green
Afu4g10270::Chr4_A_fumigatus_Af293:2681974-2684163(-)	NA	green
Afu1g02900::Chr1_A_fumigatus_Af293:830976-832970(-)	NA	green
Afu6g11310::Chr6_A_fumigatus_Af293:2800854-2808760(+)	NA	green
Afu6g09353::Chr6_A_fumigatus_Af293:2237881-2238143(+)	NA	green
Afu2g13720::Chr2_A_fumigatus_Af293:3562412-3563730(+)	NA	green
Afu6g10620::Chr6_A_fumigatus_Af293:2626931-2628109(-)	NA	green
Afu3g13040::Chr3_A_fumigatus_Af293:3461784-3462402(-)	NA	green
Afu1g03390::Chr1_A_fumigatus_Af293:987081-988509(-)	NA	green
Afu5g12570::Chr5_A_fumigatus_Af293:3257994-3258330(+)	NA	green
Afu7g03990::Chr7_A_fumigatus_Af293:895561-896996(-)	NA	green
Afu6g12880::Chr6_A_fumigatus_Af293:3250552-3251830(+)	NA	green
Afu4g11550::Chr4_A_fumigatus_Af293:3043563-3046613(-)	NA	green
Afu1g09660::Chr1_A_fumigatus_Af293:2500381-2501842(+)	NA	green
Afu1tY(GUA)4::Chr1_A_fumigatus_Af293:3761144-3761229(-)	NA	green
Afu6g13550::Chr6_A_fumigatus_Af293:3449022-3450087(-)	NA	green
Afu1g04690::Chr1_A_fumigatus_Af293:1330401-1332489(+)	NA	green
Afu5g10750::Chr5_A_fumigatus_Af293:2748153-2748873(+)	NA	green
Afu3g11510::Chr3_A_fumigatus_Af293:3024409-3025607(-)	NA	green
Afu6g06610::Chr6_A_fumigatus_Af293:1437110-1438456(-)	NA	green
Afu4g04075::Chr4_A_fumigatus_Af293:1147214-1147957(-)	NA	green
Afu2g11550::Chr2_A_fumigatus_Af293:2975218-2975720(+)	NA	green
Afu2g11850::Chr2_A_fumigatus_Af293:3060645-3062461(+)	NA	green
Afu6g11785::Chr6_A_fumigatus_Af293:2935411-2935527(+)	NA	green
Afu8g04350::Chr8_A_fumigatus_Af293:976264-977698(-)	NA	green
Afu4g03645::Chr4_A_fumigatus_Af293:1028077-1028871(-)	NA	green
Afu2g04650::Chr2_A_fumigatus_Af293:1265101-1268753(-)	NA	green
Afu7g01370::Chr7_A_fumigatus_Af293:357629-359168(-)	NA	green
Afu5g14345::Chr5_A_fumigatus_Af293:3739413-3739623(-)	NA	green
Afu1g09290::Chr1_A_fumigatus_Af293:2410145-2413208(+)	NA	green
Afu5g10560::Chr5_A_fumigatus_Af293:2703179-2704368(-)	NA	green
Afu7g05370::Chr7_A_fumigatus_Af293:1289970-1293303(+)	NA	green
Afu5g03580::Chr5_A_fumigatus_Af293:964765-966127(-)	NA	green
Afu5g04370::Chr5_A_fumigatus_Af293:1178961-1181944(+)	NA	green
Afu4g03490::Chr4_A_fumigatus_Af293:993109-994967(+)	NA	green
Afu1g05180::Chr1_A_fumigatus_Af293:1482064-1482792(-)	NA	green
Afu2g05510::Chr2_A_fumigatus_Af293:1537428-1538546(+)	NA	green
Afu1g15610::Chr1_A_fumigatus_Af293:4216386-4217931(-)	NA	green
Afu6g11150::Chr6_A_fumigatus_Af293:2751128-2751896(+)	NA	green
Afu8g04800::Chr8_A_fumigatus_Af293:1098424-1101881(-)	NA	green
Afu1g09150::Chr1_A_fumigatus_Af293:2378587-2381078(-)	NA	green
Afu2g10780::Chr2_A_fumigatus_Af293:2768970-2769420(+)	NA	green
Afu5g06770::Chr5_A_fumigatus_Af293:1666631-1668558(+)	NA	green
Afu2g01830::Chr2_A_fumigatus_Af293:458013-460098(+)	NA	green
Afu1g05290::Chr1_A_fumigatus_Af293:1523452-1524654(+)	NA	green
Afu6g07750::Chr6_A_fumigatus_Af293:1766447-1769230(-)	NA	green
Afu4g13690::Chr4_A_fumigatus_Af293:3584661-3585901(-)	NA	green
Afu2g11162::Chr2_A_fumigatus_Af293:2858290-2858862(-)	NA	green
Afu4g05890::Chr4_A_fumigatus_Af293:1504550-1505687(-)	NA	green
Afu1g16540::Chr1_A_fumigatus_Af293:4480245-4482300(-)	NA	green
Afu6g09307::Chr6_A_fumigatus_Af293:2218094-2223072(-)	NA	green
Afu7g05410::Chr7_A_fumigatus_Af293:1299830-1301493(-)	NA	green
Afu4g00270::Chr4_A_fumigatus_Af293:76125-77796(-)	NA	green
Afu7g06700::Chr7_A_fumigatus_Af293:1631592-1632948(+)	NA	green
Afu4g09030::Chr4_A_fumigatus_Af293:2342357-2345336(-)	NA	green
Afu4g11870::Chr4_A_fumigatus_Af293:3133343-3135613(-)	NA	green
Afu1g08950::Chr1_A_fumigatus_Af293:2322346-2323573(-)	NA	green
Afu1g06930::Chr1_A_fumigatus_Af293:1978326-1981125(+)	NA	green
Afu3g04170::Chr3_A_fumigatus_Af293:1175361-1177045(+)	NA	green
Afu5g07250::Chr5_A_fumigatus_Af293:1804366-1806317(+)	NA	green
Afu2g03580::Chr2_A_fumigatus_Af293:952669-955580(+)	NA	green
Afu1g03020::Chr1_A_fumigatus_Af293:869372-869671(+)	NA	green
Afu5g06320::Chr5_A_fumigatus_Af293:1518034-1519331(-)	NA	green
Afu5g06710::Chr5_A_fumigatus_Af293:1646733-1648685(+)	NA	green
Afu8g05330::Chr8_A_fumigatus_Af293:1242641-1243783(+)	NA	green
Afu1g03620::Chr1_A_fumigatus_Af293:1050343-1054201(+)	NA	green
Afu5g05940::Chr5_A_fumigatus_Af293:1394019-1395368(+)	NA	green
Afu3g05500::Chr3_A_fumigatus_Af293:1325844-1330123(-)	NA	green
Afu1g11870::Chr1_A_fumigatus_Af293:3122589-3124717(-)	NA	green
Afu2tL(AAG)3::Chr2_A_fumigatus_Af293:2411927-2412040(-)	NA	green
Afu5g10610::Chr5_A_fumigatus_Af293:2714029-2715644(-)	NA	green
Afu2g14070::Chr2_A_fumigatus_Af293:3678118-3679196(+)	NA	green
Afu2g00440::Chr2_A_fumigatus_Af293:95386-96173(+)	NA	green
Afu1g16880::Chr1_A_fumigatus_Af293:4603152-4608184(+)	NA	green
Afu3g08770::Chr3_A_fumigatus_Af293:2242895-2243705(+)	NA	green
Afu3g08640::Chr3_A_fumigatus_Af293:2211460-2213932(-)	NA	green
Afu3g05430::Chr3_A_fumigatus_Af293:1305738-1307445(-)	NA	green
Afu4g08640::Chr4_A_fumigatus_Af293:2244290-2244793(-)	NA	green
Afu3g13240::Chr3_A_fumigatus_Af293:3514653-3516036(+)	NA	green
Afu5g12970::Chr5_A_fumigatus_Af293:3400892-3401310(-)	NA	green
Afu5g03900::Chr5_A_fumigatus_Af293:1039340-1040085(-)	NA	green
Afu8tV(AAC)3::Chr8_A_fumigatus_Af293:1009805-1009879(+)	NA	green
Afu1g13490::Chr1_A_fumigatus_Af293:3586807-3588296(+)	NA	green
Afu3g12040::Chr3_A_fumigatus_Af293:3169356-3170555(-)	NA	green
Afu2g16970::Chr2_A_fumigatus_Af293:4534693-4535883(+)	NA	green
Afu2g10090::Chr2_A_fumigatus_Af293:2583074-2584537(-)	NA	green
Afu1g02890::Chr1_A_fumigatus_Af293:829951-830818(+)	NA	green
Afu4g13410::Chr4_A_fumigatus_Af293:3510959-3512559(+)	NA	green
Afu3g12110::Chr3_A_fumigatus_Af293:3181333-3182122(-)	NA	green
Afu7g05080::Chr7_A_fumigatus_Af293:1198308-1200727(+)	NA	green
Afu2g05920::Chr2_A_fumigatus_Af293:1665689-1666031(+)	NA	green
Afu3g06100::Chr3_A_fumigatus_Af293:1504911-1506560(-)	NA	green
Afu2g07660::Chr2_A_fumigatus_Af293:1952609-1953374(+)	NA	green
Afu5g08430::Chr5_A_fumigatus_Af293:2142980-2143741(-)	NA	green
Afu5g03020::Chr5_A_fumigatus_Af293:806574-808149(+)	NA	green
Afu5g07260::Chr5_A_fumigatus_Af293:1806910-1808313(-)	NA	green
Afu4g13480::Chr4_A_fumigatus_Af293:3528355-3528967(-)	NA	green
Afu8g00790::Chr8_A_fumigatus_Af293:188963-189464(-)	NA	green
Afu7g01880::Chr7_A_fumigatus_Af293:505790-507681(+)	NA	green
Afu3g12820::Chr3_A_fumigatus_Af293:3410033-3412889(-)	NA	green
Afu4g07450::Chr4_A_fumigatus_Af293:1935134-1935320(-)	NA	green
Afu6g13230::Chr6_A_fumigatus_Af293:3353320-3354487(+)	NA	green
Afu1g05340::Chr1_A_fumigatus_Af293:1537486-1538453(+)	NA	green
Afu2g11920::Chr2_A_fumigatus_Af293:3076262-3077764(+)	NA	green
Afu1g04720::Chr1_A_fumigatus_Af293:1339758-1340879(-)	NA	green
Afu6g08800::Chr6_A_fumigatus_Af293:2085874-2087541(-)	NA	green
Afu2g02290::Chr2_A_fumigatus_Af293:577582-580165(-)	NA	green
Afu1g14410::Chr1_A_fumigatus_Af293:3851697-3852806(+)	NA	green
Afu2g05790::Chr2_A_fumigatus_Af293:1627792-1629694(-)	NA	green
Afu3tR(ACG)4::Chr3_A_fumigatus_Af293:821185-821257(+)	NA	green
Afu3g09870::Chr3_A_fumigatus_Af293:2529336-2529988(-)	NA	green
Afu3g11370::Chr3_A_fumigatus_Af293:2979824-2981433(+)	NA	green
Afu4g02610::Chr4_A_fumigatus_Af293:714994-715666(+)	NA	green
MSTRG.688::Chr6_A_fumigatus_Af293:159683-160418(-)	NA	green
Afu6g11570::Chr6_A_fumigatus_Af293:2871153-2872785(-)	NA	green
Afu7g04430::Chr7_A_fumigatus_Af293:1008487-1009322(+)	NA	green
Afu6g08030::Chr6_A_fumigatus_Af293:1864850-1865003(+)	NA	green
Afu5g06540::Chr5_A_fumigatus_Af293:1595292-1596356(+)	NA	green
Afu1g09230::Chr1_A_fumigatus_Af293:2394735-2395480(-)	NA	green
Afu2g05480::Chr2_A_fumigatus_Af293:1533896-1534392(+)	NA	green
Afu1g14950::Chr1_A_fumigatus_Af293:4011603-4014419(-)	NA	green
Afu8tR(CCU)2::Chr8_A_fumigatus_Af293:647969-648049(-)	NA	green
Afu4g14230::Chr4_A_fumigatus_Af293:3718237-3720060(-)	NA	green
Afu3tF(GAA)1::Chr3_A_fumigatus_Af293:115479-115567(+)	NA	green
Afu6tR(ACG)7::Chr6_A_fumigatus_Af293:847759-847831(-)	NA	green
Afu8tM(CAU)8::Chr8_A_fumigatus_Af293:1756465-1756578(+)	NA	green
Afu2g12030::Chr2_A_fumigatus_Af293:3094622-3096495(-)	NA	green
Afu6g09190::Chr6_A_fumigatus_Af293:2181393-2183735(-)	NA	green
Afu5g14840::Chr5_A_fumigatus_Af293:3834454-3835135(-)	NA	green
Afu3g08915::Chr3_A_fumigatus_Af293:2277848-2277964(-)	NA	green
Afu5g09250::Chr5_A_fumigatus_Af293:2380880-2384349(+)	NA	green
Afu6g04120::Chr6_A_fumigatus_Af293:930497-931569(+)	NA	green
Afu4g08940::Chr4_A_fumigatus_Af293:2321076-2323459(+)	NA	green
Afu4g08330::Chr4_A_fumigatus_Af293:2158614-2161056(+)	NA	green
Afu6g07100::Chr6_A_fumigatus_Af293:1594495-1596193(+)	NA	green
Afu6g08620::Chr6_A_fumigatus_Af293:2041658-2042912(+)	NA	green
Afu4g11390::Chr4_A_fumigatus_Af293:2987781-2989075(+)	NA	green
Afu3g08890::Chr3_A_fumigatus_Af293:2274187-2274779(-)	NA	green
Afu1g06710::Chr1_A_fumigatus_Af293:1920361-1922820(-)	NA	green
Afu6g10650::Chr6_A_fumigatus_Af293:2631088-2633781(-)	NA	green
Afu5g09670::Chr5_A_fumigatus_Af293:2497069-2498546(-)	NA	green
Afu2g14740::Chr2_A_fumigatus_Af293:3882214-3883947(+)	NA	green
Afu2g16250::Chr2_A_fumigatus_Af293:4313834-4315106(-)	NA	green
Afu3g03020::Chr3_A_fumigatus_Af293:806163-807813(-)	NA	green
Afu4g00235::Chr4_A_fumigatus_Af293:65809-66476(+)	NA	green
Afu6g02140::Chr6_A_fumigatus_Af293:369611-370211(-)	NA	green
Afu7g00920::Chr7_A_fumigatus_Af293:245951-249052(+)	NA	green
Afu6g10630::Chr6_A_fumigatus_Af293:2628239-2629508(+)	NA	green
Afu8tH(GUG)4::Chr8_A_fumigatus_Af293:1618769-1618840(-)	NA	green
Afu4g11970::Chr4_A_fumigatus_Af293:3152380-3152637(+)	NA	green
Afu4g06640::Chr4_A_fumigatus_Af293:1719068-1721809(+)	NA	green
Afu1tS(GCU)3::Chr1_A_fumigatus_Af293:2425373-2425454(-)	NA	green
Afu5g06530::Chr5_A_fumigatus_Af293:1593387-1595213(-)	NA	green
Afu6g08070::Chr6_A_fumigatus_Af293:1871237-1872190(+)	NA	green
Afu5g12880::Chr5_A_fumigatus_Af293:3378474-3379503(+)	NA	green
Afu4g07190::Chr4_A_fumigatus_Af293:1866826-1868341(-)	NA	green
Afu5g08830::Chr5_A_fumigatus_Af293:2265786-2268455(+)	NA	green
Afu5g06160::Chr5_A_fumigatus_Af293:1469682-1471414(-)	NA	green
Afu3g09290::Chr3_A_fumigatus_Af293:2355493-2357229(-)	NA	green
Afu1g09780::Chr1_A_fumigatus_Af293:2537270-2538681(+)	NA	green
Afu1g15020::Chr1_A_fumigatus_Af293:4039172-4040722(+)	NA	green
Afu5tA(UGC)3::Chr5_A_fumigatus_Af293:1440601-1440673(+)	NA	green
Afu2g11060::Chr2_A_fumigatus_Af293:2836625-2837531(+)	NA	green
Afu3g08840::Chr3_A_fumigatus_Af293:2262044-2266262(+)	NA	green
Afu3g06390::Chr3_A_fumigatus_Af293:1575015-1576260(+)	NA	green
Afu6g14615::Chr6_A_fumigatus_Af293:3730879-3730995(-)	NA	green
Afu1g09100::Chr1_A_fumigatus_Af293:2363047-2364627(+)	NA	green
Afu5g12920::Chr5_A_fumigatus_Af293:3389487-3391310(+)	NA	green
Afu4g07250::Chr4_A_fumigatus_Af293:1881261-1882555(+)	NA	green
Afu2g02270::Chr2_A_fumigatus_Af293:574177-575023(-)	NA	green
Afu1g01380::Chr1_A_fumigatus_Af293:453031-453946(-)	NA	green
Afu2g08730::Chr2_A_fumigatus_Af293:2242945-2244397(+)	NA	green
Afu3g06350::Chr3_A_fumigatus_Af293:1570068-1570344(+)	NA	green
Afu7g05950::Chr7_A_fumigatus_Af293:1456347-1457573(-)	NA	green
Afu2g07730::Chr2_A_fumigatus_Af293:1977241-1982125(-)	NA	green
Afu5g06150::Chr5_A_fumigatus_Af293:1468748-1469344(-)	NA	green
Afu6g03050::Chr6_A_fumigatus_Af293:636045-637345(+)	NA	green
Afu2g09870::Chr2_A_fumigatus_Af293:2523317-2524784(+)	NA	green
Afu3g13320::Chr3_A_fumigatus_Af293:3533534-3534743(+)	NA	green
Afu1g02390::Chr1_A_fumigatus_Af293:696675-698632(+)	NA	green
Afu5g14320::Chr5_A_fumigatus_Af293:3733223-3735879(-)	NA	green
Afu1g13260::Chr1_A_fumigatus_Af293:3532156-3533452(+)	NA	green
AfuMt00150::mito_A_fumigatus_Af293:29912-31601(+)	NA	green
Afu3g06740::Chr3_A_fumigatus_Af293:1672272-1675237(-)	NA	green
Afu4g07130::Chr4_A_fumigatus_Af293:1851560-1852972(+)	NA	green
Afu5g01770::Chr5_A_fumigatus_Af293:450686-451812(+)	NA	green
Afu2g03590::Chr2_A_fumigatus_Af293:956336-956883(-)	NA	green
Afu6g10400::Chr6_A_fumigatus_Af293:2576664-2579169(+)	NA	green
Afu1g04040::Chr1_A_fumigatus_Af293:1156800-1157943(-)	NA	green
Afu1g16260::Chr1_A_fumigatus_Af293:4422222-4422474(+)	NA	green
Afu5g12200::Chr5_A_fumigatus_Af293:3161453-3162430(-)	NA	green
Afu7g05290::Chr7_A_fumigatus_Af293:1256031-1257278(-)	NA	green
Afu5g14810::Chr5_A_fumigatus_Af293:3828014-3830041(+)	NA	green
Afu1g11590::Chr1_A_fumigatus_Af293:3056635-3058082(+)	NA	green
Afu5g02860::Chr5_A_fumigatus_Af293:758331-760220(+)	NA	green
Afu3tR(CCG)2::Chr3_A_fumigatus_Af293:2345013-2345085(+)	NA	green
Afu3g07830::Chr3_A_fumigatus_Af293:1972786-1974945(+)	NA	green
Afu4g11510::Chr4_A_fumigatus_Af293:3031473-3033525(-)	NA	green
Afu1g09755::Chr1_A_fumigatus_Af293:2523941-2524024(+)	NA	green
Afu5g10640::Chr5_A_fumigatus_Af293:2721362-2723271(+)	NA	green
Afu6g08210::Chr6_A_fumigatus_Af293:1914674-1915656(+)	NA	green
Afu1g04850::Chr1_A_fumigatus_Af293:1374607-1375732(+)	NA	green
Afu5g04230::Chr5_A_fumigatus_Af293:1126856-1129638(-)	NA	green
Afu8g04730::Chr8_A_fumigatus_Af293:1075933-1078214(-)	NA	green
Afu5g06610::Chr5_A_fumigatus_Af293:1618742-1620608(+)	NA	green
Afu4g08030::Chr4_A_fumigatus_Af293:2086683-2088988(-)	NA	green
Afu3g05370::Chr3_A_fumigatus_Af293:1293343-1295556(+)	NA	green
Afu4g11920::Chr4_A_fumigatus_Af293:3145562-3146793(-)	NA	green
Afu4g12100::Chr4_A_fumigatus_Af293:3181889-3182668(-)	NA	green
MSTRG.901::Chr7_A_fumigatus_Af293:1989117-1991664(+)	NA	green
Afu1g12290::Chr1_A_fumigatus_Af293:3241151-3241979(+)	NA	green
Afu3g13840::Chr3_A_fumigatus_Af293:3655003-3655986(-)	NA	green
Afu1g08850::Chr1_A_fumigatus_Af293:2292463-2293812(-)	NA	green
Afu1g16470::Chr1_A_fumigatus_Af293:4467853-4471099(+)	NA	green
Afu6g07220::Chr6_A_fumigatus_Af293:1619642-1620383(-)	NA	green
Afu3g08780::Chr3_A_fumigatus_Af293:2243957-2248653(-)	NA	green
Afu3tI(AAU)5::Chr3_A_fumigatus_Af293:2793696-2793770(+)	NA	green
Afu8g05300::Chr8_A_fumigatus_Af293:1235845-1237670(-)	NA	green
Afu5g09860::Chr5_A_fumigatus_Af293:2551524-2552852(-)	NA	green
Afu3g00360::Chr3_A_fumigatus_Af293:73701-74544(+)	NA	green
Afu1g02030::Chr1_A_fumigatus_Af293:600492-603263(+)	NA	green
Afu6g14700::Chr6_A_fumigatus_Af293:3772566-3772987(-)	NA	green
Afu2g12580::Chr2_A_fumigatus_Af293:3238576-3240090(-)	NA	green
Afu1g12750::Chr1_A_fumigatus_Af293:3370235-3371724(-)	NA	green
Afu1g05060::Chr1_A_fumigatus_Af293:1450480-1451784(-)	NA	green
Afu6g12330::Chr6_A_fumigatus_Af293:3100859-3102650(+)	NA	green
Afu4g12810::Chr4_A_fumigatus_Af293:3360219-3360729(+)	NA	green
Afu2g07720::Chr2_A_fumigatus_Af293:1976467-1976974(+)	NA	green
Afu1g09960::Chr1_A_fumigatus_Af293:2577201-2578149(-)	NA	green
Afu2g11500::Chr2_A_fumigatus_Af293:2964406-2965345(+)	NA	green
Afu2g05100::Chr2_A_fumigatus_Af293:1401793-1402591(+)	NA	green
Afu1g02620::Chr1_A_fumigatus_Af293:763377-763989(-)	NA	green
Afu4g05940::Chr4_A_fumigatus_Af293:1513475-1515703(+)	NA	green
Afu1g10130::Chr1_A_fumigatus_Af293:2610280-2611841(-)	NA	green
AfuMttI(GAU)1::mito_A_fumigatus_Af293:10571-10643(+)	NA	green
Afu6g10600::Chr6_A_fumigatus_Af293:2623216-2625115(-)	NA	green
Afu5g08980::Chr5_A_fumigatus_Af293:2304997-2306093(+)	NA	green
Afu1g01740::Chr1_A_fumigatus_Af293:536272-538318(-)	NA	green
Afu2g05690::Chr2_A_fumigatus_Af293:1591214-1591904(-)	NA	green
Afu5g12070::Chr5_A_fumigatus_Af293:3126497-3129072(+)	NA	green
Afu6g11130::Chr6_A_fumigatus_Af293:2746739-2747858(+)	NA	green
Afu2g05900::Chr2_A_fumigatus_Af293:1660443-1662493(+)	NA	green
Afu2g12570::Chr2_A_fumigatus_Af293:3234579-3237997(+)	NA	green
Afu5g11120::Chr5_A_fumigatus_Af293:2844346-2844875(-)	NA	green
Afu1g09390::Chr1_A_fumigatus_Af293:2432847-2433870(-)	NA	green
Afu6g02440::Chr6_A_fumigatus_Af293:458924-460555(+)	NA	green
Afu6g10720::Chr6_A_fumigatus_Af293:2647925-2649944(-)	NA	green
Afu5tG(GCC)7::Chr5_A_fumigatus_Af293:3086240-3086311(+)	NA	green
Afu4g12800::Chr4_A_fumigatus_Af293:3358934-3359833(-)	NA	green
Afu2g05090::Chr2_A_fumigatus_Af293:1400866-1401560(-)	NA	green
Afu3g13820::Chr3_A_fumigatus_Af293:3647401-3651295(-)	NA	green
Afu3g02735::Chr3_A_fumigatus_Af293:710374-710490(+)	NA	green
Afu5g04210::Chr5_A_fumigatus_Af293:1121881-1123798(+)	NA	green
Afu7g02190::Chr7_A_fumigatus_Af293:587508-588543(+)	NA	green
Afu2g12230::Chr2_A_fumigatus_Af293:3151849-3152676(+)	NA	green
Afu2g13710::Chr2_A_fumigatus_Af293:3560105-3562127(-)	NA	green
Afu6g09580::Chr6_A_fumigatus_Af293:2334636-2336198(+)	NA	green
Afu3g09590::Chr3_A_fumigatus_Af293:2438181-2440501(-)	NA	green
Afu1g09820::Chr1_A_fumigatus_Af293:2546939-2550572(-)	NA	green
Afu5g09710::Chr5_A_fumigatus_Af293:2507310-2513813(+)	NA	green
Afu4g10020::Chr4_A_fumigatus_Af293:2595363-2596927(-)	NA	green
Afu2g16620::Chr2_A_fumigatus_Af293:4439385-4441692(+)	NA	green
Afu1g02550::Chr1_A_fumigatus_Af293:744133-746706(-)	NA	green
Afu1g13770::Chr1_A_fumigatus_Af293:3677625-3678995(+)	NA	green
Afu1g13460::Chr1_A_fumigatus_Af293:3581681-3583091(+)	NA	green
Afu7g04150::Chr7_A_fumigatus_Af293:937235-938035(-)	NA	green
Afu6g08430::Chr6_A_fumigatus_Af293:1979743-1980418(+)	NA	green
Afu7g04190::Chr7_A_fumigatus_Af293:946679-948894(-)	NA	green
Afu6g04920::Chr6_A_fumigatus_Af293:1161191-1163908(+)	NA	green
Afu5g11830::Chr5_A_fumigatus_Af293:3051590-3052910(+)	NA	green
Afu1g09753::Chr1_A_fumigatus_Af293:2523642-2523734(+)	NA	green
Afu5g11820::Chr5_A_fumigatus_Af293:3048670-3051312(-)	NA	green
Afu5g08970::Chr5_A_fumigatus_Af293:2303292-2304986(-)	NA	green
Afu5g11270::Chr5_A_fumigatus_Af293:2887145-2889076(-)	NA	green
Afu8tV(AAC)4::Chr8_A_fumigatus_Af293:1010164-1010238(+)	NA	green
Afu5tF(GAA)3::Chr5_A_fumigatus_Af293:3171998-3172086(+)	NA	green
Afu5g03130::Chr5_A_fumigatus_Af293:847394-849301(+)	NA	green
Afu2g05650::Chr2_A_fumigatus_Af293:1580138-1582404(-)	NA	green
Afu3g02875::Chr3_A_fumigatus_Af293:767771-767887(+)	NA	green
Afu8g00860::Chr8_A_fumigatus_Af293:202475-204505(+)	NA	green
Afu4g04440::Chr4_A_fumigatus_Af293:1254198-1257195(-)	NA	green
Afu1g11710::Chr1_A_fumigatus_Af293:3079980-3080890(-)	NA	green
Afu3g10560::Chr3_A_fumigatus_Af293:2731391-2731754(-)	NA	green
Afu1g06980::Chr1_A_fumigatus_Af293:1989189-1991222(-)	NA	green
Afu3g11100::Chr3_A_fumigatus_Af293:2901962-2903853(+)	NA	green
Afu1g05200::Chr1_A_fumigatus_Af293:1485293-1488975(-)	NA	green
Afu5g09500::Chr5_A_fumigatus_Af293:2452901-2454216(+)	NA	green
Afu5g11740::Chr5_A_fumigatus_Af293:3020761-3021918(+)	NA	green
Afu1g15080::Chr1_A_fumigatus_Af293:4051359-4053219(+)	NA	green
Afu2g04270::Chr2_A_fumigatus_Af293:1181276-1181897(+)	NA	green
Afu1g07580::Chr1_A_fumigatus_Af293:2138773-2140420(+)	NA	green
Afu1g11660::Chr1_A_fumigatus_Af293:3071787-3074692(-)	NA	green
Afu5tF(GAA)2::Chr5_A_fumigatus_Af293:3171824-3171912(+)	NA	green
Afu3g01560::Chr3_A_fumigatus_Af293:393031-394802(-)	NA	green
Afu5g13930::Chr5_A_fumigatus_Af293:3645628-3646879(+)	NA	green
Afu2g10600::Chr2_A_fumigatus_Af293:2713389-2714904(+)	NA	green
Afu2g11540::Chr2_A_fumigatus_Af293:2973460-2974560(-)	NA	green
Afu6g12490::Chr6_A_fumigatus_Af293:3154782-3155371(+)	NA	green
Afu1g11190::Chr1_A_fumigatus_Af293:2947141-2948249(+)	NA	green
Afu2g16280::Chr2_A_fumigatus_Af293:4318608-4321168(-)	NA	green
MSTRG.530::Chr4_A_fumigatus_Af293:3172012-3172459(-)	NA	green
Afu2g10350::Chr2_A_fumigatus_Af293:2649372-2650089(+)	NA	green
Afu4g08340::Chr4_A_fumigatus_Af293:2161110-2162979(-)	NA	green
Afu3g10700::Chr3_A_fumigatus_Af293:2774685-2775739(+)	NA	green
Afu1g14120::Chr1_A_fumigatus_Af293:3774140-3776224(+)	NA	green
Afu8g05610::Chr8_A_fumigatus_Af293:1318115-1321114(+)	NA	green
MSTRG.467::Chr4_A_fumigatus_Af293:316277-316914(+)	NA	green
Afu6g07210::Chr6_A_fumigatus_Af293:1618199-1619391(+)	NA	green
Afu5g01730::Chr5_A_fumigatus_Af293:433405-440939(-)	NA	green
Afu4g03150::Chr4_A_fumigatus_Af293:885561-886100(-)	NA	green
Afu5g02030::Chr5_A_fumigatus_Af293:520483-521754(+)	NA	green
Afu4g00780::Chr4_A_fumigatus_Af293:210314-212023(+)	NA	green
Afu5tF(GAA)5::Chr5_A_fumigatus_Af293:3169459-3169547(-)	NA	green
Afu2g09130::Chr2_A_fumigatus_Af293:2343308-2344888(-)	NA	green
Afu1g09380::Chr1_A_fumigatus_Af293:2431964-2432573(+)	NA	green
Afu1g06340::Chr1_A_fumigatus_Af293:1821568-1823081(+)	NA	green
Afu3g12280::Chr3_A_fumigatus_Af293:3238310-3239576(-)	NA	green
Afu3g14080::Chr3_A_fumigatus_Af293:3744629-3744736(-)	NA	green
MSTRG.566::Chr5_A_fumigatus_Af293:264575-265829(+)	NA	green
Afu1g09440::Chr1_A_fumigatus_Af293:2441555-2442180(+)	NA	green
Afu4g10410::Chr4_A_fumigatus_Af293:2729975-2732681(-)	NA	green
Afu4g00920::Chr4_A_fumigatus_Af293:251345-252821(-)	NA	green
Afu5g11850::Chr5_A_fumigatus_Af293:3058860-3059897(+)	NA	green
Afu4g12280::Chr4_A_fumigatus_Af293:3220778-3222120(-)	NA	green
Afu2g16380::Chr2_A_fumigatus_Af293:4343738-4345736(-)	NA	green
Afu2g13470::Chr2_A_fumigatus_Af293:3490109-3491401(-)	NA	green
Afu2g04710::Chr2_A_fumigatus_Af293:1287775-1288894(-)	NA	green
Afu8g05200::Chr8_A_fumigatus_Af293:1212185-1213665(-)	NA	green
Afu1g09600::Chr1_A_fumigatus_Af293:2479940-2480773(+)	NA	green
Afu3g08420::Chr3_A_fumigatus_Af293:2158120-2158983(-)	NA	green
Afu6g10965::Chr6_A_fumigatus_Af293:2699475-2700085(-)	NA	green
Afu2g15080::Chr2_A_fumigatus_Af293:3982890-3983754(-)	NA	green
Afu2g12200::Chr2_A_fumigatus_Af293:3141692-3143343(-)	NA	green
Afu6g12620::Chr6_A_fumigatus_Af293:3189648-3190472(-)	NA	green
Afu2g12260::Chr2_A_fumigatus_Af293:3155359-3156761(-)	NA	green
Afu4g08580::Chr4_A_fumigatus_Af293:2218985-2220447(-)	NA	green
Afu6g04060::Chr6_A_fumigatus_Af293:912488-915167(+)	NA	green
Afu8tV(AAC)6::Chr8_A_fumigatus_Af293:1016438-1016512(+)	NA	green
Afu6g12790::Chr6_A_fumigatus_Af293:3228843-3230648(+)	NA	green
Afu2g17000::Chr2_A_fumigatus_Af293:4543455-4551531(+)	NA	green
Afu1g08840::Chr1_A_fumigatus_Af293:2290908-2291935(+)	NA	green
Afu6g10560::Chr6_A_fumigatus_Af293:2615559-2616540(+)	NA	green
Afu1g12590::Chr1_A_fumigatus_Af293:3324667-3326348(-)	NA	green
Afu1tS(GCU)2::Chr1_A_fumigatus_Af293:2425915-2425996(-)	NA	green
Afu6g07060::Chr6_A_fumigatus_Af293:1583391-1584681(-)	NA	green
Afu5g13510::Chr5_A_fumigatus_Af293:3544751-3546764(-)	NA	green
Afu2g01460::Chr2_A_fumigatus_Af293:349672-350635(-)	NA	green
Afu2g02140::Chr2_A_fumigatus_Af293:534146-536261(-)	NA	green
Afu8g04960::Chr8_A_fumigatus_Af293:1145917-1146463(-)	NA	green
Afu3g12250::Chr3_A_fumigatus_Af293:3227897-3230408(-)	NA	green
Afu2g15850::Chr2_A_fumigatus_Af293:4187112-4188057(+)	NA	green
Afu2g07560::Chr2_A_fumigatus_Af293:1933536-1934435(-)	NA	green
Afu5g13890::Chr5_A_fumigatus_Af293:3640457-3641207(-)	NA	green
Afu4g09360::Chr4_A_fumigatus_Af293:2449886-2452155(-)	NA	green
Afu7g06010::Chr7_A_fumigatus_Af293:1471567-1472598(-)	NA	green
Afu6g04370::Chr6_A_fumigatus_Af293:999084-1000106(+)	NA	green
Afu8g02060::Chr8_A_fumigatus_Af293:533909-534965(+)	NA	green
Afu4g10760::Chr4_A_fumigatus_Af293:2798796-2799890(-)	NA	green
Afu2g15940::Chr2_A_fumigatus_Af293:4215004-4217043(-)	NA	green
Afu5g03850::Chr5_A_fumigatus_Af293:1032425-1033385(+)	NA	green
Afu1g03100::Chr1_A_fumigatus_Af293:894077-896013(-)	NA	green
Afu3g14320::Chr3_A_fumigatus_Af293:3801602-3804381(+)	NA	green
Afu1g03775::Chr1_A_fumigatus_Af293:1095725-1098617(-)	NA	green
Afu7g04280::Chr7_A_fumigatus_Af293:963235-963803(+)	NA	green
Afu1g03220::Chr1_A_fumigatus_Af293:943146-943615(+)	NA	green
Afu2g02280::Chr2_A_fumigatus_Af293:576263-576990(+)	NA	green
Afu1g02240::Chr1_A_fumigatus_Af293:657845-658664(-)	NA	green
Afu6g04250::Chr6_A_fumigatus_Af293:952889-956748(+)	NA	green
Afu3g05540::Chr3_A_fumigatus_Af293:1340248-1342321(+)	NA	green
Afu1g04090::Chr1_A_fumigatus_Af293:1164753-1166475(+)	NA	green
Afu1g15590::Chr1_A_fumigatus_Af293:4215044-4216101(-)	NA	green
Afu2g08190::Chr2_A_fumigatus_Af293:2119284-2119740(+)	NA	green
Afu4g03860::Chr4_A_fumigatus_Af293:1085956-1089075(+)	NA	green
Afu4g10920::Chr4_A_fumigatus_Af293:2853548-2854304(+)	NA	green
Afu3g07220::Chr3_A_fumigatus_Af293:1813820-1815221(-)	NA	green
Afu4g07390::Chr4_A_fumigatus_Af293:1920337-1921660(+)	NA	green
Afu6g04900::Chr6_A_fumigatus_Af293:1155013-1156435(+)	NA	green
MSTRG.380::Chr3_A_fumigatus_Af293:1521461-1522501(+)	NA	green
Afu1g01870::Chr1_A_fumigatus_Af293:559514-560599(+)	NA	green
Afu4g10180::Chr4_A_fumigatus_Af293:2655982-2658310(+)	NA	green
Afu6g06490::Chr6_A_fumigatus_Af293:1400769-1401654(-)	NA	green
Afu1g02840::Chr1_A_fumigatus_Af293:814023-817328(-)	NA	green
Afu7g03730::Chr7_A_fumigatus_Af293:803133-803877(+)	NA	green
Afu1g07080::Chr1_A_fumigatus_Af293:2008461-2010532(+)	NA	green
Afu2g11150::Chr2_A_fumigatus_Af293:2855860-2857872(+)	NA	green
Afu5g05780::Chr5_A_fumigatus_Af293:1349460-1350837(-)	NA	green
Afu1g05990::Chr1_A_fumigatus_Af293:1727903-1728875(-)	NA	green
Afu2g15030::Chr2_A_fumigatus_Af293:3968424-3969726(-)	NA	green
Afu2g03840::Chr2_A_fumigatus_Af293:1018393-1020070(-)	NA	green
Afu3g11830::Chr3_A_fumigatus_Af293:3113883-3115685(+)	NA	green
Afu5g05680::Chr5_A_fumigatus_Af293:1322762-1324274(+)	NA	green
Afu5g14330::Chr5_A_fumigatus_Af293:3736231-3737853(+)	NA	green
Afu3g11860::Chr3_A_fumigatus_Af293:3123063-3124507(-)	NA	green
Afu1g10210::Chr1_A_fumigatus_Af293:2627793-2630502(+)	NA	green
Afu3g03320::Chr3_A_fumigatus_Af293:887387-889361(-)	NA	green
Afu5g03310::Chr5_A_fumigatus_Af293:893650-894116(-)	NA	green
Afu3g05600::Chr3_A_fumigatus_Af293:1361309-1362104(+)	NA	green
Afu7g05740::Chr7_A_fumigatus_Af293:1404391-1406384(+)	NA	green
Afu5g11040::Chr5_A_fumigatus_Af293:2828450-2830128(+)	NA	green
Afu6g04560::Chr6_A_fumigatus_Af293:1058195-1060588(-)	NA	green
Afu3g08265::Chr3_A_fumigatus_Af293:2127584-2128653(-)	NA	green
Afu6g04540::Chr6_A_fumigatus_Af293:1050445-1051820(+)	NA	green
Afu5g10780::Chr5_A_fumigatus_Af293:2756118-2757814(+)	NA	green
Afu4g07650::Chr4_A_fumigatus_Af293:1987775-1989910(+)	NA	green
Afu7g08575::Chr7_A_fumigatus_Af293:1997198-1999499(+)	NA	green
Afu6g05220::Chr6_A_fumigatus_Af293:1252750-1253619(-)	NA	green
MSTRG.439::Chr3_A_fumigatus_Af293:3418019-3419391(-)	NA	green
Afu4g07120::Chr4_A_fumigatus_Af293:1850500-1851364(-)	NA	green
Afu7g05600::Chr7_A_fumigatus_Af293:1357856-1360784(-)	NA	green
Afu6g09250::Chr6_A_fumigatus_Af293:2198311-2200929(+)	NA	green
Afu1g09970::Chr1_A_fumigatus_Af293:2578607-2579924(+)	NA	green
Afu1g16210::Chr1_A_fumigatus_Af293:4407957-4409565(+)	NA	green
Afu8g04340::Chr8_A_fumigatus_Af293:973855-975846(-)	NA	green
Afu6g05174::Chr6_A_fumigatus_Af293:1244588-1245486(-)	NA	green
Afu6g08710::Chr6_A_fumigatus_Af293:2063106-2065945(-)	NA	green
Afu7g02310::Chr7_A_fumigatus_Af293:627982-630651(-)	NA	green
Afu1g16635::Chr1_A_fumigatus_Af293:4520851-4521760(-)	NA	green
AfuMttR(UCU)2::mito_A_fumigatus_Af293:4544-4615(+)	NA	green
Afu6g02750::Chr6_A_fumigatus_Af293:558637-559767(-)	NA	green
Afu3g14380::Chr3_A_fumigatus_Af293:3816777-3818877(+)	NA	green
Afu2g11800::Chr2_A_fumigatus_Af293:3040252-3041928(+)	NA	green
Afu6g04620::Chr6_A_fumigatus_Af293:1075519-1076526(-)	NA	green
Afu2g16370::Chr2_A_fumigatus_Af293:4342696-4343499(-)	NA	green
Afu2g08130::Chr2_A_fumigatus_Af293:2108951-2111128(-)	NA	green
Afu2g13010::Chr2_A_fumigatus_Af293:3337992-3339050(+)	NA	green
AfuMt00001::mito_A_fumigatus_Af293:0-1158(+)	NA	green
Afu2g11940::Chr2_A_fumigatus_Af293:3078847-3080820(-)	NA	green
Afu3g06640::Chr3_A_fumigatus_Af293:1643673-1645146(-)	NA	green
Afu5g03870::Chr5_A_fumigatus_Af293:1038134-1039037(+)	NA	green
Afu2g04830::Chr2_A_fumigatus_Af293:1326255-1328679(+)	NA	green
Afu5g09380::Chr5_A_fumigatus_Af293:2412822-2413857(+)	NA	green
Afu5g10370::Chr5_A_fumigatus_Af293:2654607-2656059(-)	NA	green
Afu7g02620::Chr7_A_fumigatus_Af293:718286-718903(+)	NA	green
Afu5g05920::Chr5_A_fumigatus_Af293:1389861-1392015(-)	NA	green
Afu5g06600::Chr5_A_fumigatus_Af293:1612827-1618663(-)	NA	green
Afu3g09100::Chr3_A_fumigatus_Af293:2317407-2319074(-)	NA	green
Afu5g12820::Chr5_A_fumigatus_Af293:3358073-3358750(-)	NA	green
Afu1g08860::Chr1_A_fumigatus_Af293:2295735-2296535(+)	NA	green
Afu6g07960::Chr6_A_fumigatus_Af293:1843453-1845093(-)	NA	green
Afu1g07530::Chr1_A_fumigatus_Af293:2121253-2122230(-)	NA	green
Afu1g06960::Chr1_A_fumigatus_Af293:1985803-1987045(+)	NA	green
Afu2g08460::Chr2_A_fumigatus_Af293:2178998-2181238(+)	NA	green
Afu2g14910::Chr2_A_fumigatus_Af293:3927733-3929250(-)	NA	green
Afu3g11640::Chr3_A_fumigatus_Af293:3058486-3059789(+)	NA	green
Afu2g03630::Chr2_A_fumigatus_Af293:963318-964134(-)	NA	green
Afu7g01480::Chr7_A_fumigatus_Af293:382587-384205(+)	NA	green
Afu1g13570::Chr1_A_fumigatus_Af293:3608883-3610154(-)	NA	green
Afu4g04260::Chr4_A_fumigatus_Af293:1200914-1202337(+)	NA	green
Afu2g13330::Chr2_A_fumigatus_Af293:3440731-3441433(+)	NA	green
Afu2g01660::Chr2_A_fumigatus_Af293:399282-402357(+)	NA	green
Afu8g04320::Chr8_A_fumigatus_Af293:971189-971939(+)	NA	green
Afu4g13560::Chr4_A_fumigatus_Af293:3548473-3549469(+)	NA	green
Afu4g08590::Chr4_A_fumigatus_Af293:2223621-2225019(+)	NA	green
Afu1g05570::Chr1_A_fumigatus_Af293:1596969-1598266(+)	NA	green
Afu5g09680::Chr5_A_fumigatus_Af293:2501810-2502869(-)	NA	green
Afu6g10070::Chr6_A_fumigatus_Af293:2482938-2483822(+)	NA	green
MSTRG.415::Chr3_A_fumigatus_Af293:2826950-2827438(-)	NA	green
Afu2g04610::Chr2_A_fumigatus_Af293:1257610-1258234(+)	NA	green
Afu2g05800::Chr2_A_fumigatus_Af293:1629699-1632631(+)	NA	green
Afu2g04800::Chr2_A_fumigatus_Af293:1322850-1323459(+)	NA	green
Afu1g14200::Chr1_A_fumigatus_Af293:3794153-3795938(-)	NA	green
AfuMttC(GCA)4::mito_A_fumigatus_Af293:1239-1310(+)	NA	green
Afu5g09490::Chr5_A_fumigatus_Af293:2451410-2452886(-)	NA	green
Afu3g07330::Chr3_A_fumigatus_Af293:1838803-1840166(+)	NA	green
Afu3g01110::Chr3_A_fumigatus_Af293:258311-261270(-)	NA	green
Afu5g07890::Chr5_A_fumigatus_Af293:1978369-1979978(-)	NA	green
Afu3g00310::Chr3_A_fumigatus_Af293:63586-66679(+)	NA	green
Afu2g15510::Chr2_A_fumigatus_Af293:4090552-4091775(-)	NA	green
Afu2g01420::Chr2_A_fumigatus_Af293:339808-341479(+)	NA	green
Afu5g13450::Chr5_A_fumigatus_Af293:3535528-3536876(+)	NA	green
Afu6g13710::Chr6_A_fumigatus_Af293:3498702-3501079(-)	NA	green
Afu5g07480::Chr5_A_fumigatus_Af293:1871936-1872798(+)	NA	green
Afu3g11260::Chr3_A_fumigatus_Af293:2950888-2951715(+)	NA	green
MSTRG.85::Chr1_A_fumigatus_Af293:1834104-1834379(+)	NA	green
Afu6tG(GCC)10::Chr6_A_fumigatus_Af293:3477651-3477722(+)	NA	green
Afu1g10200::Chr1_A_fumigatus_Af293:2623223-2625674(+)	NA	green
Afu2g14890::Chr2_A_fumigatus_Af293:3923420-3924074(+)	NA	green
Afu6g07540::Chr6_A_fumigatus_Af293:1712460-1716006(-)	NA	green
Afu2g02590::Chr2_A_fumigatus_Af293:666483-668539(+)	NA	green
Afu3g04190::Chr3_A_fumigatus_Af293:1178758-1179825(+)	NA	green
Afu1g10510::Chr1_A_fumigatus_Af293:2736182-2737182(+)	NA	green
Afu1g03180::Chr1_A_fumigatus_Af293:917654-918660(-)	NA	green
MSTRG.230::Chr2_A_fumigatus_Af293:2146255-2146770(-)	NA	green
Afu5g09270::Chr5_A_fumigatus_Af293:2386748-2389747(-)	NA	green
Afu4g06240::Chr4_A_fumigatus_Af293:1609279-1609811(+)	NA	green
Afu2g10300::Chr2_A_fumigatus_Af293:2636569-2637526(+)	NA	green
Afu6g13110::Chr6_A_fumigatus_Af293:3312125-3312854(+)	NA	green
Afu1g03035::Chr1_A_fumigatus_Af293:875092-875824(-)	NA	green
Afu1g04510::Chr1_A_fumigatus_Af293:1278289-1279454(+)	NA	green
Afu2g13960::Chr2_A_fumigatus_Af293:3648120-3649682(+)	NA	green
Afu7g02420::Chr7_A_fumigatus_Af293:664651-666862(+)	NA	green
Afu1g06830::Chr1_A_fumigatus_Af293:1948068-1948863(+)	NA	green
Afu1g05700::Chr1_A_fumigatus_Af293:1643823-1644093(-)	NA	green
Afu1g12170::Chr1_A_fumigatus_Af293:3214633-3216597(+)	NA	green
Afu1g09850::Chr1_A_fumigatus_Af293:2554702-2555962(+)	NA	green
Afu5g06120::Chr5_A_fumigatus_Af293:1459629-1463574(-)	NA	green
Afu1tY(GUA)6::Chr1_A_fumigatus_Af293:3761707-3761792(-)	NA	green
Afu1g04660::Chr1_A_fumigatus_Af293:1317112-1319111(-)	NA	green
Afu1g05820::Chr1_A_fumigatus_Af293:1681469-1683171(+)	NA	green
Afu4g05970::Chr4_A_fumigatus_Af293:1517831-1519396(-)	NA	green
Afu6g04980::Chr6_A_fumigatus_Af293:1182727-1183873(-)	NA	green
Afu2g10855::Chr2_A_fumigatus_Af293:2793591-2795204(-)	NA	green
Afu5g06430::Chr5_A_fumigatus_Af293:1553331-1554913(-)	NA	green
Afu5g13470::Chr5_A_fumigatus_Af293:3538963-3539883(+)	NA	green
Afu5g11245::Chr5_A_fumigatus_Af293:2880457-2881313(+)	NA	green
Afu1g12380::Chr1_A_fumigatus_Af293:3267857-3269402(-)	NA	green
Afu5g02750::Chr5_A_fumigatus_Af293:719992-720857(-)	NA	green
Afu5g09880::Chr5_A_fumigatus_Af293:2559599-2559755(+)	NA	green
Afu3g11360::Chr3_A_fumigatus_Af293:2978195-2979671(-)	NA	green
Afu6tR(CCU)1::Chr6_A_fumigatus_Af293:596152-596224(-)	NA	green
MSTRG.565::Chr5_A_fumigatus_Af293:252454-253720(-)	NA	green
Afu3g06960::Chr3_A_fumigatus_Af293:1741542-1742990(-)	NA	green
Afu3g05360::Chr3_A_fumigatus_Af293:1291519-1292443(+)	NA	green
Afu2g01650::Chr2_A_fumigatus_Af293:398186-399032(-)	NA	green
Afu6g08810::Chr6_A_fumigatus_Af293:2087636-2088945(-)	NA	green
Afu8g03940::Chr8_A_fumigatus_Af293:842290-843203(+)	NA	green
Afu3g08950::Chr3_A_fumigatus_Af293:2287094-2288788(-)	NA	green
Afu5g09830::Chr5_A_fumigatus_Af293:2541624-2543861(+)	NA	green
Afu3g07920::Chr3_A_fumigatus_Af293:2010389-2011444(+)	NA	green
Afu6tS(GCU)4::Chr6_A_fumigatus_Af293:874332-874413(+)	NA	green
Afu6g12720::Chr6_A_fumigatus_Af293:3211176-3211760(-)	NA	green
Afu2g14670::Chr2_A_fumigatus_Af293:3849156-3851227(+)	NA	green
Afu7tR(UCU)1::Chr7_A_fumigatus_Af293:114030-114102(+)	NA	green
