nodeName	altName	nodeAttr[nodesPresent, ]
Afu1g01020::Chr1_A_fumigatus_Af293:370901-375565(-)	NA	grey60
Afu4g10120::Chr4_A_fumigatus_Af293:2637024-2639816(+)	NA	grey60
Afu7g01695::Chr7_A_fumigatus_Af293:452164-454008(-)	NA	grey60
Afu4g09910::Chr4_A_fumigatus_Af293:2570559-2573770(+)	NA	grey60
Afu4g03940::Chr4_A_fumigatus_Af293:1106151-1108233(+)	NA	grey60
Afu3g13110::Chr3_A_fumigatus_Af293:3480551-3484550(+)	NA	grey60
Afu6g02950::Chr6_A_fumigatus_Af293:613007-614662(+)	NA	grey60
Afu5g12040::Chr5_A_fumigatus_Af293:3115603-3117103(+)	NA	grey60
MSTRG.383::Chr3_A_fumigatus_Af293:1660920-1662944(+)	NA	grey60
Afu2g17900::Chr2_A_fumigatus_Af293:4757832-4758863(+)	NA	grey60
Afu1g15460::Chr1_A_fumigatus_Af293:4173213-4177257(-)	NA	grey60
Afu4g03410::Chr4_A_fumigatus_Af293:972645-973887(+)	NA	grey60
Afu8g01340::Chr8_A_fumigatus_Af293:329549-332640(+)	NA	grey60
Afu1g04570::Chr1_A_fumigatus_Af293:1292510-1295852(-)	NA	grey60
Afu7g01660::Chr7_A_fumigatus_Af293:441530-442164(+)	NA	grey60
Afu4g03450::Chr4_A_fumigatus_Af293:980422-981429(+)	NA	grey60
Afu6g14000::Chr6_A_fumigatus_Af293:3570152-3572598(+)	NA	grey60
Afu1g14550::Chr1_A_fumigatus_Af293:3886698-3888133(+)	NA	grey60
Afu1g11380::Chr1_A_fumigatus_Af293:2997360-3000449(-)	NA	grey60
Afu4g06020::Chr4_A_fumigatus_Af293:1527143-1532115(-)	NA	grey60
Afu2g03910::Chr2_A_fumigatus_Af293:1038257-1041661(+)	NA	grey60
Afu5g08990::Chr5_A_fumigatus_Af293:2307196-2308209(-)	NA	grey60
Afu3g00880::Chr3_A_fumigatus_Af293:200539-202711(+)	NA	grey60
MSTRG.480::Chr4_A_fumigatus_Af293:919543-920368(+)	NA	grey60
Afu4g08960::Chr4_A_fumigatus_Af293:2324337-2326597(+)	NA	grey60
Afu1g11740::Chr1_A_fumigatus_Af293:3088567-3089514(-)	NA	grey60
Afu7g04920::Chr7_A_fumigatus_Af293:1158082-1159108(-)	NA	grey60
Afu8g06010::Chr8_A_fumigatus_Af293:1425591-1428172(-)	NA	grey60
Afu8g01485::Chr8_A_fumigatus_Af293:377027-379419(+)	NA	grey60
Afu5g01405::Chr5_A_fumigatus_Af293:354291-358110(-)	NA	grey60
Afu1g11930::Chr1_A_fumigatus_Af293:3140539-3142474(+)	NA	grey60
Afu3g04040::Chr3_A_fumigatus_Af293:1146010-1149036(-)	NA	grey60
Afu5g12700::Chr5_A_fumigatus_Af293:3302653-3303537(+)	NA	grey60
MSTRG.41::Chr1_A_fumigatus_Af293:359416-359838(-)	NA	grey60
Afu3g13680::Chr3_A_fumigatus_Af293:3608486-3610184(-)	NA	grey60
MSTRG.878::Chr7_A_fumigatus_Af293:1806819-1807141(-)	NA	grey60
MSTRG.554::Chr5_A_fumigatus_Af293:56487-57430(+)	NA	grey60
Afu8g05590::Chr8_A_fumigatus_Af293:1311087-1311951(+)	NA	grey60
Afu3g00600::Chr3_A_fumigatus_Af293:131434-133958(+)	NA	grey60
Afu4g13850::Chr4_A_fumigatus_Af293:3615425-3618300(-)	NA	grey60
Afu2g11790::Chr2_A_fumigatus_Af293:3038178-3039652(+)	NA	grey60
Afu5g01930::Chr5_A_fumigatus_Af293:489699-491868(-)	NA	grey60
Afu3g06720::Chr3_A_fumigatus_Af293:1667615-1668702(-)	NA	grey60
Afu4g09960::Chr4_A_fumigatus_Af293:2579275-2582020(-)	NA	grey60
Afu3g14570::Chr3_A_fumigatus_Af293:3859197-3862305(-)	NA	grey60
Afu3g13700::Chr3_A_fumigatus_Af293:3612572-3615716(+)	NA	grey60
Afu8g06510::Chr8_A_fumigatus_Af293:1572571-1574802(-)	NA	grey60
Afu8g02290::Chr8_A_fumigatus_Af293:611981-613412(-)	NA	grey60
Afu3g00950::Chr3_A_fumigatus_Af293:224487-225500(-)	NA	grey60
Afu1g07220::Chr1_A_fumigatus_Af293:2049292-2051774(+)	NA	grey60
Afu8g00920::Chr8_A_fumigatus_Af293:211323-213115(+)	NA	grey60
Afu8g01310::Chr8_A_fumigatus_Af293:320268-322604(-)	NA	grey60
Afu1g16670::Chr1_A_fumigatus_Af293:4527898-4528924(-)	NA	grey60
Afu6g03390::Chr6_A_fumigatus_Af293:724735-726586(+)	NA	grey60
Afu4g00485::Chr4_A_fumigatus_Af293:122811-124301(-)	NA	grey60
Afu7g00730::Chr7_A_fumigatus_Af293:190247-192346(-)	NA	grey60
Afu5g09870::Chr5_A_fumigatus_Af293:2554305-2555051(-)	NA	grey60
Afu3g14600::Chr3_A_fumigatus_Af293:3870190-3872218(+)	NA	grey60
Afu8g07400::Chr8_A_fumigatus_Af293:1827032-1828611(-)	NA	grey60
Afu3g05575::Chr3_A_fumigatus_Af293:1351629-1352618(-)	NA	grey60
Afu7g04940::Chr7_A_fumigatus_Af293:1163428-1164283(-)	NA	grey60
MSTRG.589::Chr5_A_fumigatus_Af293:1347461-1348128(-)	NA	grey60
Afu8g01320::Chr8_A_fumigatus_Af293:322868-323972(-)	NA	grey60
Afu6g14360::Chr6_A_fumigatus_Af293:3655034-3656742(+)	NA	grey60
Afu2g14710::Chr2_A_fumigatus_Af293:3860637-3865137(-)	NA	grey60
Afu1g16250::Chr1_A_fumigatus_Af293:4418061-4421606(-)	NA	grey60
Afu3g12255::Chr3_A_fumigatus_Af293:3233117-3235518(+)	NA	grey60
Afu8g06000::Chr8_A_fumigatus_Af293:1424341-1425549(+)	NA	grey60
Afu2g04550::Chr2_A_fumigatus_Af293:1246491-1249584(-)	NA	grey60
Afu7g01290::Chr7_A_fumigatus_Af293:337210-339033(+)	NA	grey60
Afu8g00290::Chr8_A_fumigatus_Af293:49559-51611(-)	NA	grey60
Afu4g13630::Chr4_A_fumigatus_Af293:3566067-3572035(-)	NA	grey60
Afu4g03930::Chr4_A_fumigatus_Af293:1103789-1105578(+)	NA	grey60
Afu5g05640::Chr5_A_fumigatus_Af293:1315189-1316091(-)	NA	grey60
MSTRG.179::Chr2_A_fumigatus_Af293:818827-819867(+)	NA	grey60
Afu2g12910::Chr2_A_fumigatus_Af293:3308483-3313189(-)	NA	grey60
Afu1g09300::Chr1_A_fumigatus_Af293:2413387-2414540(-)	NA	grey60
Afu2g03730::Chr2_A_fumigatus_Af293:996601-997517(-)	NA	grey60
Afu7g01180::Chr7_A_fumigatus_Af293:311141-313320(-)	NA	grey60
Afu2g09230::Chr2_A_fumigatus_Af293:2364332-2367079(-)	NA	grey60
MSTRG.390::Chr3_A_fumigatus_Af293:1921005-1928676(+)	NA	grey60
Afu7g08370::Chr7_A_fumigatus_Af293:1898776-1899820(-)	NA	grey60
Afu7g00100::Chr7_A_fumigatus_Af293:16509-16833(+)	NA	grey60
Afu3g15010::Chr3_A_fumigatus_Af293:3958389-3959333(-)	NA	grey60
Afu3g00605::Chr3_A_fumigatus_Af293:135284-137491(-)	NA	grey60
Afu3g10530::Chr3_A_fumigatus_Af293:2725908-2728216(+)	NA	grey60
Afu1g13410::Chr1_A_fumigatus_Af293:3567281-3568533(+)	NA	grey60
Afu6g05120::Chr6_A_fumigatus_Af293:1218000-1224720(+)	NA	grey60
Afu8g07200::Chr8_A_fumigatus_Af293:1764751-1767036(+)	NA	grey60
Afu3g03330::Chr3_A_fumigatus_Af293:889930-891157(-)	NA	grey60
Afu7g03770::Chr7_A_fumigatus_Af293:817458-823713(-)	NA	grey60
Afu4g03615::Chr4_A_fumigatus_Af293:1020728-1021152(+)	NA	grey60
Afu3g13690::Chr3_A_fumigatus_Af293:3610431-3612376(+)	NA	grey60
Afu3g02570::Chr3_A_fumigatus_Af293:646905-653701(-)	NA	grey60
Afu3g13670::Chr3_A_fumigatus_Af293:3605729-3607727(+)	NA	grey60
Afu2g00520::Chr2_A_fumigatus_Af293:115044-116017(+)	NA	grey60
Afu3g09650::Chr3_A_fumigatus_Af293:2459263-2460772(-)	NA	grey60
MSTRG.905::Chr7_A_fumigatus_Af293:2040959-2044145(-)	NA	grey60
Afu2g14520::Chr2_A_fumigatus_Af293:3800310-3802513(+)	NA	grey60
Afu5g14740::Chr5_A_fumigatus_Af293:3810066-3811228(+)	NA	grey60
Afu7g06450::Chr7_A_fumigatus_Af293:1579867-1580590(-)	NA	grey60
Afu2g15930::Chr2_A_fumigatus_Af293:4213519-4214880(-)	NA	grey60
Afu6g02800::Chr6_A_fumigatus_Af293:569830-571308(-)	NA	grey60
Afu6g06720::Chr6_A_fumigatus_Af293:1461710-1465966(+)	NA	grey60
Afu3g07640::Chr3_A_fumigatus_Af293:1929978-1934508(+)	NA	grey60
Afu5g01200::Chr5_A_fumigatus_Af293:299898-301571(-)	NA	grey60
Afu4g07270::Chr4_A_fumigatus_Af293:1887030-1890751(-)	NA	grey60
Afu3g15050::Chr3_A_fumigatus_Af293:3965970-3967877(-)	NA	grey60
Afu1g14650::Chr1_A_fumigatus_Af293:3909352-3914474(-)	NA	grey60
Afu7g01260::Chr7_A_fumigatus_Af293:328302-330084(-)	NA	grey60
Afu5g11170::Chr5_A_fumigatus_Af293:2852444-2855608(+)	NA	grey60
Afu8g00830::Chr8_A_fumigatus_Af293:196574-197557(+)	NA	grey60
Afu5g01220::Chr5_A_fumigatus_Af293:305419-306622(+)	NA	grey60
Afu1g00310::Chr1_A_fumigatus_Af293:84230-85698(-)	NA	grey60
MSTRG.522::Chr4_A_fumigatus_Af293:2630970-2634893(-)	NA	grey60
Afu5g01210::Chr5_A_fumigatus_Af293:302632-304030(-)	NA	grey60
MSTRG.12::Chr1_A_fumigatus_Af293:112804-113135(-)	NA	grey60
Afu2g15040::Chr2_A_fumigatus_Af293:3970002-3972520(-)	NA	grey60
MSTRG.876::Chr7_A_fumigatus_Af293:1767194-1767482(-)	NA	grey60
Afu8g01480::Chr8_A_fumigatus_Af293:373556-376952(+)	NA	grey60
Afu5g10320::Chr5_A_fumigatus_Af293:2642780-2644083(-)	NA	grey60
Afu6g00412::Chr6_A_fumigatus_Af293:103790-107346(-)	NA	grey60
Afu6g09110::Chr6_A_fumigatus_Af293:2162763-2164458(-)	NA	grey60
Afu2g17895::Chr2_A_fumigatus_Af293:4755287-4757386(-)	NA	grey60
Afu7g06981::Chr7_A_fumigatus_Af293:1706050-1707088(+)	NA	grey60
Afu1g01040::Chr1_A_fumigatus_Af293:382399-383350(-)	NA	grey60
Afu3g09660::Chr3_A_fumigatus_Af293:2460900-2461277(-)	NA	grey60
Afu2g08280::Chr2_A_fumigatus_Af293:2132909-2136538(-)	NA	grey60
Afu1g03650::Chr1_A_fumigatus_Af293:1058989-1062721(-)	NA	grey60
Afu2g13140::Chr2_A_fumigatus_Af293:3372223-3376922(-)	NA	grey60
Afu2g00630::Chr2_A_fumigatus_Af293:135768-137097(-)	NA	grey60
Afu2g09220::Chr2_A_fumigatus_Af293:2361219-2364327(-)	NA	grey60
Afu5g13750::Chr5_A_fumigatus_Af293:3617375-3618452(+)	NA	grey60
Afu1g04575::Chr1_A_fumigatus_Af293:1296943-1297855(+)	NA	grey60
Afu3g13660::Chr3_A_fumigatus_Af293:3604237-3604947(-)	NA	grey60
Afu6g14620::Chr6_A_fumigatus_Af293:3733267-3734788(+)	NA	grey60
Afu2g13150::Chr2_A_fumigatus_Af293:3383180-3384784(+)	NA	grey60
Afu6g01905::Chr6_A_fumigatus_Af293:269631-270667(-)	NA	grey60
Afu3g15020::Chr3_A_fumigatus_Af293:3959768-3961567(-)	NA	grey60
Afu2g10550::Chr2_A_fumigatus_Af293:2695139-2699119(-)	NA	grey60
MSTRG.712::Chr6_A_fumigatus_Af293:532509-536035(+)	NA	grey60
Afu5g11190::Chr5_A_fumigatus_Af293:2859355-2861276(-)	NA	grey60
Afu1g14540::Chr1_A_fumigatus_Af293:3885520-3886533(-)	NA	grey60
Afu8g01330::Chr8_A_fumigatus_Af293:325986-327563(+)	NA	grey60
Afu4g10690::Chr4_A_fumigatus_Af293:2786769-2788628(+)	NA	grey60
Afu4g07280::Chr4_A_fumigatus_Af293:1891759-1895289(+)	NA	grey60
Afu1g13250::Chr1_A_fumigatus_Af293:3522984-3531985(+)	NA	grey60
Afu3g15055::Chr3_A_fumigatus_Af293:3968325-3969341(-)	NA	grey60
Afu5g11250::Chr5_A_fumigatus_Af293:2882072-2883299(+)	NA	grey60
Afu8g00300::Chr8_A_fumigatus_Af293:51727-53713(-)	NA	grey60
Afu3g13650::Chr3_A_fumigatus_Af293:3602838-3604008(+)	NA	grey60
Afu6g13980::Chr6_A_fumigatus_Af293:3567106-3568190(+)	NA	grey60
Afu7g07020::Chr7_A_fumigatus_Af293:1720678-1721091(-)	NA	grey60
MSTRG.102::Chr1_A_fumigatus_Af293:2783608-2784169(+)	NA	grey60
Afu8g06480::Chr8_A_fumigatus_Af293:1563258-1564399(+)	NA	grey60
Afu2g03860::Chr2_A_fumigatus_Af293:1029725-1031760(+)	NA	grey60
Afu3g00940::Chr3_A_fumigatus_Af293:222806-224357(+)	NA	grey60
Afu5g13740::Chr5_A_fumigatus_Af293:3615777-3616943(+)	NA	grey60
Afu4g13120::Chr4_A_fumigatus_Af293:3434331-3436853(-)	NA	grey60
Afu1g05850::Chr1_A_fumigatus_Af293:1692975-1694367(-)	NA	grey60
MSTRG.570::Chr5_A_fumigatus_Af293:335110-336666(+)	NA	grey60
Afu2g03850::Chr2_A_fumigatus_Af293:1025615-1029465(-)	NA	grey60
Afu2g03120::Chr2_A_fumigatus_Af293:814735-817797(-)	NA	grey60
Afu4g03420::Chr4_A_fumigatus_Af293:973983-974627(+)	NA	grey60
Afu5g13850::Chr5_A_fumigatus_Af293:3634852-3637276(+)	NA	grey60
MSTRG.510::Chr4_A_fumigatus_Af293:2228056-2229616(-)	NA	grey60
Afu5g01248::Chr5_A_fumigatus_Af293:316146-317731(+)	NA	grey60
Afu4g07440::Chr4_A_fumigatus_Af293:1932843-1934259(-)	NA	grey60
Afu4g03920::Chr4_A_fumigatus_Af293:1100892-1103024(-)	NA	grey60
Afu4g03400::Chr4_A_fumigatus_Af293:970400-971786(+)	NA	grey60
Afu2g13990::Chr2_A_fumigatus_Af293:3657737-3659380(+)	NA	grey60
MSTRG.592::Chr5_A_fumigatus_Af293:1496078-1497146(-)	NA	grey60
Afu5g10130::Chr5_A_fumigatus_Af293:2607559-2608369(+)	NA	grey60
Afu1g11500::Chr1_A_fumigatus_Af293:3036125-3038883(+)	NA	grey60
Afu6g14320::Chr6_A_fumigatus_Af293:3641452-3644345(-)	NA	grey60
Afu2g14525::Chr2_A_fumigatus_Af293:3803687-3805222(-)	NA	grey60
Afu4g01285::Chr4_A_fumigatus_Af293:341045-342241(+)	NA	grey60
Afu2g12510::Chr2_A_fumigatus_Af293:3212504-3213666(+)	NA	grey60
Afu8g06020::Chr8_A_fumigatus_Af293:1428320-1430884(+)	NA	grey60
Afu3g13140::Chr3_A_fumigatus_Af293:3487769-3488875(-)	NA	grey60
Afu3g00500::Chr3_A_fumigatus_Af293:109669-110366(+)	NA	grey60
Afu7g08300::Chr7_A_fumigatus_Af293:1870243-1870960(-)	NA	grey60
Afu2g10520::Chr2_A_fumigatus_Af293:2688974-2690003(-)	NA	grey60
