nodeName	altName	nodeAttr[nodesPresent, ]
Afu5g12325::Chr5_A_fumigatus_Af293:3196838-3198188(+)	NA	greenyellow
Afu8g04702::Chr8_A_fumigatus_Af293:1071125-1073215(+)	NA	greenyellow
Afu5g09050::Chr5_A_fumigatus_Af293:2327465-2329431(+)	NA	greenyellow
Afu8g01500::Chr8_A_fumigatus_Af293:384744-385890(+)	NA	greenyellow
Afu3g14500::Chr3_A_fumigatus_Af293:3845528-3848112(+)	NA	greenyellow
Afu4g11370::Chr4_A_fumigatus_Af293:2984890-2985565(-)	NA	greenyellow
Afu1g04062::Chr1_A_fumigatus_Af293:1158164-1160403(-)	NA	greenyellow
Afu8g02400::Chr8_A_fumigatus_Af293:643736-644970(+)	NA	greenyellow
Afu4g02830::Chr4_A_fumigatus_Af293:795244-796764(+)	NA	greenyellow
Afu6g03300::Chr6_A_fumigatus_Af293:702640-703534(+)	NA	greenyellow
Afu4g06590::Chr4_A_fumigatus_Af293:1695589-1699886(+)	NA	greenyellow
Afu2g14480::Chr2_A_fumigatus_Af293:3786766-3788485(+)	NA	greenyellow
Afu5g00435::Chr5_A_fumigatus_Af293:124090-125971(+)	NA	greenyellow
Afu2g14450::Chr2_A_fumigatus_Af293:3781449-3783293(+)	NA	greenyellow
Afu1g11290::Chr1_A_fumigatus_Af293:2976932-2978578(-)	NA	greenyellow
Afu2g00380::Chr2_A_fumigatus_Af293:76007-77500(+)	NA	greenyellow
Afu2g11780::Chr2_A_fumigatus_Af293:3034925-3037486(+)	NA	greenyellow
MSTRG.499::Chr4_A_fumigatus_Af293:1707958-1711161(+)	NA	greenyellow
MSTRG.690::Chr6_A_fumigatus_Af293:206858-207119(-)	NA	greenyellow
Afu4g13990::Chr4_A_fumigatus_Af293:3647904-3648674(-)	NA	greenyellow
Afu6g09960::Chr6_A_fumigatus_Af293:2450774-2452056(+)	NA	greenyellow
Afu4g04210::Chr4_A_fumigatus_Af293:1183204-1184726(-)	NA	greenyellow
Afu3g10220::Chr3_A_fumigatus_Af293:2637394-2640059(-)	NA	greenyellow
Afu2g16830::Chr2_A_fumigatus_Af293:4494266-4495486(+)	NA	greenyellow
Afu8g02610::Chr8_A_fumigatus_Af293:690918-693018(+)	NA	greenyellow
Afu3g08690::Chr3_A_fumigatus_Af293:2225385-2226921(+)	NA	greenyellow
Afu1g00410::Chr1_A_fumigatus_Af293:131309-134100(+)	NA	greenyellow
MSTRG.311::Chr2_A_fumigatus_Af293:4765204-4766635(-)	NA	greenyellow
Afu2g03990::Chr2_A_fumigatus_Af293:1083957-1085897(+)	NA	greenyellow
Afu2g03670::Chr2_A_fumigatus_Af293:974585-975832(+)	NA	greenyellow
Afu5g14530::Chr5_A_fumigatus_Af293:3768296-3770530(-)	NA	greenyellow
MSTRG.637::Chr5_A_fumigatus_Af293:2649562-2650540(+)	NA	greenyellow
Afu6g04890::Chr6_A_fumigatus_Af293:1151507-1154825(+)	NA	greenyellow
Afu1g07110::Chr1_A_fumigatus_Af293:2017331-2019922(-)	NA	greenyellow
Afu6g14590::Chr6_A_fumigatus_Af293:3721069-3722845(-)	NA	greenyellow
Afu2g17240::Chr2_A_fumigatus_Af293:4619001-4620146(+)	NA	greenyellow
MSTRG.941::Chr8_A_fumigatus_Af293:1274276-1278290(-)	NA	greenyellow
Afu8g00570::Chr8_A_fumigatus_Af293:132802-134016(-)	NA	greenyellow
Afu4g12030::Chr4_A_fumigatus_Af293:3163381-3163794(-)	NA	greenyellow
Afu3g06160::Chr3_A_fumigatus_Af293:1523104-1524006(-)	NA	greenyellow
Afu8g00390::Chr8_A_fumigatus_Af293:88491-89296(-)	NA	greenyellow
Afu3g00910::Chr3_A_fumigatus_Af293:208791-218006(+)	NA	greenyellow
MSTRG.290::Chr2_A_fumigatus_Af293:4067537-4068099(-)	NA	greenyellow
MSTRG.511::Chr4_A_fumigatus_Af293:2236414-2237493(-)	NA	greenyellow
MSTRG.955::Chr8_A_fumigatus_Af293:1528870-1530291(+)	NA	greenyellow
Afu8g05940::Chr8_A_fumigatus_Af293:1406762-1408308(+)	NA	greenyellow
Afu4g07950::Chr4_A_fumigatus_Af293:2071505-2072294(-)	NA	greenyellow
MSTRG.113::Chr1_A_fumigatus_Af293:3293464-3294051(+)	NA	greenyellow
Afu4g14010::Chr4_A_fumigatus_Af293:3653905-3655227(-)	NA	greenyellow
Afu4g09380::Chr4_A_fumigatus_Af293:2456291-2457330(-)	NA	greenyellow
Afu4g08550::Chr4_A_fumigatus_Af293:2210787-2213251(+)	NA	greenyellow
Afu1g06440::Chr1_A_fumigatus_Af293:1847872-1850861(-)	NA	greenyellow
Afu1g03300::Chr1_A_fumigatus_Af293:955979-958095(+)	NA	greenyellow
Afu4g05870::Chr4_A_fumigatus_Af293:1499958-1501998(-)	NA	greenyellow
Afu5g00690::Chr5_A_fumigatus_Af293:195383-196456(-)	NA	greenyellow
Afu1g05950::Chr1_A_fumigatus_Af293:1716229-1717426(+)	NA	greenyellow
Afu3g12990::Chr3_A_fumigatus_Af293:3450971-3453822(-)	NA	greenyellow
Afu2g13170::Chr2_A_fumigatus_Af293:3387679-3388898(-)	NA	greenyellow
Afu2g09630::Chr2_A_fumigatus_Af293:2460265-2463574(-)	NA	greenyellow
Afu4g08620::Chr4_A_fumigatus_Af293:2238456-2239935(+)	NA	greenyellow
MSTRG.593::Chr5_A_fumigatus_Af293:1475373-1481124(+)	NA	greenyellow
Afu5g04190::Chr5_A_fumigatus_Af293:1115737-1119098(+)	NA	greenyellow
Afu3g02150::Chr3_A_fumigatus_Af293:531410-532926(-)	NA	greenyellow
Afu8g05840::Chr8_A_fumigatus_Af293:1388895-1391428(-)	NA	greenyellow
Afu6g06480::Chr6_A_fumigatus_Af293:1394009-1398052(-)	NA	greenyellow
MSTRG.870::Chr7_A_fumigatus_Af293:1430248-1430754(+)	NA	greenyellow
Afu3g07380::Chr3_A_fumigatus_Af293:1852344-1854946(-)	NA	greenyellow
Afu5g15030::Chr5_A_fumigatus_Af293:3886789-3888430(-)	NA	greenyellow
Afu5g14610::Chr5_A_fumigatus_Af293:3788120-3789763(-)	NA	greenyellow
Afu3g03870::Chr3_A_fumigatus_Af293:1107283-1108419(-)	NA	greenyellow
Afu5g04300::Chr5_A_fumigatus_Af293:1150151-1154623(-)	NA	greenyellow
Afu1g03280::Chr1_A_fumigatus_Af293:953614-954865(-)	NA	greenyellow
Afu3g00460::Chr3_A_fumigatus_Af293:99332-100186(+)	NA	greenyellow
Afu3g02930::Chr3_A_fumigatus_Af293:783977-785442(-)	NA	greenyellow
Afu8g00490::Chr8_A_fumigatus_Af293:105037-107934(+)	NA	greenyellow
Afu8g02550::Chr8_A_fumigatus_Af293:680832-682989(+)	NA	greenyellow
Afu5g10090::Chr5_A_fumigatus_Af293:2598552-2599105(+)	NA	greenyellow
Afu3g14420::Chr3_A_fumigatus_Af293:3830452-3835246(+)	NA	greenyellow
Afu5g07520::Chr5_A_fumigatus_Af293:1880275-1882033(+)	NA	greenyellow
Afu1g10980::Chr1_A_fumigatus_Af293:2869560-2871491(+)	NA	greenyellow
Afu2g13985::Chr2_A_fumigatus_Af293:3654062-3656101(-)	NA	greenyellow
Afu1g02780::Chr1_A_fumigatus_Af293:801901-803819(+)	NA	greenyellow
Afu3g09800::Chr3_A_fumigatus_Af293:2506851-2507966(+)	NA	greenyellow
Afu7g07060::Chr7_A_fumigatus_Af293:1728875-1732992(-)	NA	greenyellow
Afu7g01150::Chr7_A_fumigatus_Af293:298642-303158(-)	NA	greenyellow
Afu5g12760::Chr5_A_fumigatus_Af293:3346706-3348654(-)	NA	greenyellow
Afu8g00440::Chr8_A_fumigatus_Af293:96098-100102(-)	NA	greenyellow
Afu2g15890::Chr2_A_fumigatus_Af293:4200426-4203738(-)	NA	greenyellow
Afu1g14840::Chr1_A_fumigatus_Af293:3978376-3979807(+)	NA	greenyellow
Afu1g07330::Chr1_A_fumigatus_Af293:2073943-2076071(-)	NA	greenyellow
Afu7g08570::Chr7_A_fumigatus_Af293:1995329-1996770(-)	NA	greenyellow
Afu3g02100::Chr3_A_fumigatus_Af293:515729-518881(-)	NA	greenyellow
Afu2g00540::Chr2_A_fumigatus_Af293:118226-119340(+)	NA	greenyellow
Afu2g05260::Chr2_A_fumigatus_Af293:1464655-1466072(+)	NA	greenyellow
Afu6g03180::Chr6_A_fumigatus_Af293:674777-677161(-)	NA	greenyellow
Afu7g03760::Chr7_A_fumigatus_Af293:810077-817372(+)	NA	greenyellow
Afu2g13180::Chr2_A_fumigatus_Af293:3392603-3393130(+)	NA	greenyellow
Afu2g11400::Chr2_A_fumigatus_Af293:2933527-2934647(-)	NA	greenyellow
Afu2g04790::Chr2_A_fumigatus_Af293:1316775-1322273(+)	NA	greenyellow
Afu4g13500::Chr4_A_fumigatus_Af293:3531609-3533900(-)	NA	greenyellow
Afu8g00370::Chr8_A_fumigatus_Af293:79284-86887(-)	NA	greenyellow
Afu6g03500::Chr6_A_fumigatus_Af293:756593-758955(+)	NA	greenyellow
Afu2g10760::Chr2_A_fumigatus_Af293:2756077-2758479(-)	NA	greenyellow
Afu1g10420::Chr1_A_fumigatus_Af293:2712470-2714671(-)	NA	greenyellow
Afu2g09190::Chr2_A_fumigatus_Af293:2354656-2358073(-)	NA	greenyellow
MSTRG.543::Chr4_A_fumigatus_Af293:3765175-3766082(-)	NA	greenyellow
Afu4g00240::Chr4_A_fumigatus_Af293:66687-68953(-)	NA	greenyellow
Afu1g17740::Chr1_A_fumigatus_Af293:4902296-4910256(+)	NA	greenyellow
Afu2g00260::Chr2_A_fumigatus_Af293:52188-54495(-)	NA	greenyellow
Afu4g00130::Chr4_A_fumigatus_Af293:29729-30109(-)	NA	greenyellow
Afu7g08310::Chr7_A_fumigatus_Af293:1873436-1877817(-)	NA	greenyellow
Afu6g09900::Chr6_A_fumigatus_Af293:2434185-2435906(+)	NA	greenyellow
Afu2g05700::Chr2_A_fumigatus_Af293:1605249-1607039(-)	NA	greenyellow
Afu3g07870::Chr3_A_fumigatus_Af293:1991027-1995331(+)	NA	greenyellow
Afu7g04660::Chr7_A_fumigatus_Af293:1072281-1074250(+)	NA	greenyellow
Afu4g09370::Chr4_A_fumigatus_Af293:2453278-2456184(+)	NA	greenyellow
MSTRG.444::Chr3_A_fumigatus_Af293:3663778-3665773(-)	NA	greenyellow
Afu8g06974::Chr8_A_fumigatus_Af293:1707988-1708225(-)	NA	greenyellow
MSTRG.898::Chr7_A_fumigatus_Af293:1959523-1959821(-)	NA	greenyellow
Afu4g07810::Chr4_A_fumigatus_Af293:2041996-2043590(-)	NA	greenyellow
Afu5g13250::Chr5_A_fumigatus_Af293:3485111-3487485(+)	NA	greenyellow
Afu3g03000::Chr3_A_fumigatus_Af293:801247-802144(+)	NA	greenyellow
Afu5g14890::Chr5_A_fumigatus_Af293:3849925-3851084(-)	NA	greenyellow
Afu3g13060::Chr3_A_fumigatus_Af293:3462963-3467043(+)	NA	greenyellow
Afu5g10950::Chr5_A_fumigatus_Af293:2804855-2806525(-)	NA	greenyellow
Afu2g14430::Chr2_A_fumigatus_Af293:3776226-3777836(-)	NA	greenyellow
Afu6g13150::Chr6_A_fumigatus_Af293:3322901-3325360(-)	NA	greenyellow
Afu1g12560::Chr1_A_fumigatus_Af293:3319190-3320368(+)	NA	greenyellow
Afu4g08790::Chr4_A_fumigatus_Af293:2281316-2285061(+)	NA	greenyellow
Afu3g13630::Chr3_A_fumigatus_Af293:3598335-3599296(+)	NA	greenyellow
Afu1g02320::Chr1_A_fumigatus_Af293:678244-679078(+)	NA	greenyellow
Afu3g09270::Chr3_A_fumigatus_Af293:2352626-2353910(-)	NA	greenyellow
Afu2g00530::Chr2_A_fumigatus_Af293:116068-117163(-)	NA	greenyellow
Afu6g11810::Chr6_A_fumigatus_Af293:2951206-2952200(+)	NA	greenyellow
Afu2g14440::Chr2_A_fumigatus_Af293:3778860-3780782(+)	NA	greenyellow
Afu4g08380::Chr4_A_fumigatus_Af293:2168785-2169592(-)	NA	greenyellow
MSTRG.773::Chr6_A_fumigatus_Af293:2501434-2502608(+)	NA	greenyellow
Afu6g05010::Chr6_A_fumigatus_Af293:1189519-1192928(-)	NA	greenyellow
Afu4g07300::Chr4_A_fumigatus_Af293:1896827-1898857(-)	NA	greenyellow
Afu5g06460::Chr5_A_fumigatus_Af293:1561742-1564604(-)	NA	greenyellow
Afu6g01860::Chr6_A_fumigatus_Af293:262423-264364(+)	NA	greenyellow
Afu3g00780::Chr3_A_fumigatus_Af293:173810-175070(+)	NA	greenyellow
Afu4g13050::Chr4_A_fumigatus_Af293:3417987-3419588(+)	NA	greenyellow
Afu4g00400::Chr4_A_fumigatus_Af293:105039-106159(+)	NA	greenyellow
Afu2g05180::Chr2_A_fumigatus_Af293:1437168-1442966(+)	NA	greenyellow
Afu3g03690::Chr3_A_fumigatus_Af293:996175-996856(+)	NA	greenyellow
Afu3g02160::Chr3_A_fumigatus_Af293:534042-536331(+)	NA	greenyellow
Afu3g07890::Chr3_A_fumigatus_Af293:1995570-1997647(+)	NA	greenyellow
Afu8g01490::Chr8_A_fumigatus_Af293:381180-383883(+)	NA	greenyellow
Afu6g08260::Chr6_A_fumigatus_Af293:1931092-1933111(-)	NA	greenyellow
Afu2g10470::Chr2_A_fumigatus_Af293:2680699-2683949(+)	NA	greenyellow
Afu6g02575::Chr6_A_fumigatus_Af293:491907-492991(+)	NA	greenyellow
MSTRG.245::Chr2_A_fumigatus_Af293:2699882-2702270(+)	NA	greenyellow
Afu2g10650::Chr2_A_fumigatus_Af293:2724730-2726006(+)	NA	greenyellow
Afu1g17530::Chr1_A_fumigatus_Af293:4793105-4795131(+)	NA	greenyellow
Afu3g01600::Chr3_A_fumigatus_Af293:402520-404032(-)	NA	greenyellow
Afu3g06940::Chr3_A_fumigatus_Af293:1730729-1734375(-)	NA	greenyellow
Afu1g15070::Chr1_A_fumigatus_Af293:4048847-4051002(-)	NA	greenyellow
Afu2g14010::Chr2_A_fumigatus_Af293:3665917-3667873(+)	NA	greenyellow
Afu5g11070::Chr5_A_fumigatus_Af293:2834386-2837226(-)	NA	greenyellow
Afu5g13670::Chr5_A_fumigatus_Af293:3590278-3591480(-)	NA	greenyellow
Afu2g17360::Chr2_A_fumigatus_Af293:4639840-4641492(+)	NA	greenyellow
Afu7g00540::Chr7_A_fumigatus_Af293:148741-150685(+)	NA	greenyellow
Afu2g06250::Chr2_A_fumigatus_Af293:1799950-1802480(+)	NA	greenyellow
Afu1g00340::Chr1_A_fumigatus_Af293:90834-91227(-)	NA	greenyellow
MSTRG.821::Chr7_A_fumigatus_Af293:135416-136831(-)	NA	greenyellow
Afu5g00730::Chr5_A_fumigatus_Af293:204709-208755(-)	NA	greenyellow
MSTRG.914::Chr8_A_fumigatus_Af293:347034-347677(-)	NA	greenyellow
Afu6g00690::Chr6_A_fumigatus_Af293:175565-176603(+)	NA	greenyellow
MSTRG.823::Chr7_A_fumigatus_Af293:231783-232065(+)	NA	greenyellow
Afu1g03310::Chr1_A_fumigatus_Af293:958403-958685(-)	NA	greenyellow
Afu5g13970::Chr5_A_fumigatus_Af293:3650127-3656167(+)	NA	greenyellow
Afu1g02370::Chr1_A_fumigatus_Af293:693007-694440(-)	NA	greenyellow
Afu1g03360::Chr1_A_fumigatus_Af293:973907-974791(+)	NA	greenyellow
Afu2g09420::Chr2_A_fumigatus_Af293:2408277-2409459(+)	NA	greenyellow
MSTRG.641::Chr5_A_fumigatus_Af293:2732027-2732669(-)	NA	greenyellow
Afu4g07400::Chr4_A_fumigatus_Af293:1921676-1925436(-)	NA	greenyellow
Afu1g00210::Chr1_A_fumigatus_Af293:42470-44125(+)	NA	greenyellow
Afu4g09730::Chr4_A_fumigatus_Af293:2532293-2536466(+)	NA	greenyellow
Afu4g14735::Chr4_A_fumigatus_Af293:3885670-3886397(+)	NA	greenyellow
Afu5g03195::Chr5_A_fumigatus_Af293:863906-868471(+)	NA	greenyellow
Afu2g03410::Chr2_A_fumigatus_Af293:898145-898985(-)	NA	greenyellow
Afu4g13660::Chr4_A_fumigatus_Af293:3573092-3575686(-)	NA	greenyellow
Afu4g03500::Chr4_A_fumigatus_Af293:995329-996185(+)	NA	greenyellow
Afu8g06470::Chr8_A_fumigatus_Af293:1559925-1562469(+)	NA	greenyellow
Afu8g02310::Chr8_A_fumigatus_Af293:615580-617592(+)	NA	greenyellow
Afu1g04930::Chr1_A_fumigatus_Af293:1402776-1408265(+)	NA	greenyellow
Afu8g04550::Chr8_A_fumigatus_Af293:1034371-1036447(-)	NA	greenyellow
Afu1g01900::Chr1_A_fumigatus_Af293:562329-563353(-)	NA	greenyellow
Afu4g07090::Chr4_A_fumigatus_Af293:1841829-1845671(+)	NA	greenyellow
Afu3g11450::Chr3_A_fumigatus_Af293:3003037-3004768(+)	NA	greenyellow
Afu3g01770::Chr3_A_fumigatus_Af293:440713-441359(-)	NA	greenyellow
Afu1g17480::Chr1_A_fumigatus_Af293:4784025-4785512(-)	NA	greenyellow
Afu7g08240::Chr7_A_fumigatus_Af293:1827635-1830036(+)	NA	greenyellow
Afu1g11830::Chr1_A_fumigatus_Af293:3113364-3116028(-)	NA	greenyellow
Afu4g09400::Chr4_A_fumigatus_Af293:2460645-2463172(+)	NA	greenyellow
Afu6g06650::Chr6_A_fumigatus_Af293:1444235-1445840(-)	NA	greenyellow
Afu7g04680::Chr7_A_fumigatus_Af293:1075665-1078746(-)	NA	greenyellow
MSTRG.249::Chr2_A_fumigatus_Af293:2791235-2792619(+)	NA	greenyellow
Afu1g11880::Chr1_A_fumigatus_Af293:3124829-3128519(-)	NA	greenyellow
MSTRG.291::Chr2_A_fumigatus_Af293:4230532-4231788(-)	NA	greenyellow
Afu2g00870::Chr2_A_fumigatus_Af293:196833-198228(+)	NA	greenyellow
Afu2g15255::Chr2_A_fumigatus_Af293:4042765-4046117(-)	NA	greenyellow
Afu5g03110::Chr5_A_fumigatus_Af293:840890-842244(-)	NA	greenyellow
Afu4g02680::Chr4_A_fumigatus_Af293:737919-740940(-)	NA	greenyellow
MSTRG.20::Chr1_A_fumigatus_Af293:174815-175188(+)	NA	greenyellow
Afu4g14050::Chr4_A_fumigatus_Af293:3665275-3667622(+)	NA	greenyellow
Afu3g01670::Chr3_A_fumigatus_Af293:420899-423288(-)	NA	greenyellow
Afu4g00370::Chr4_A_fumigatus_Af293:98267-100210(+)	NA	greenyellow
Afu5g00720::Chr5_A_fumigatus_Af293:203701-204704(-)	NA	greenyellow
MSTRG.630::Chr5_A_fumigatus_Af293:2517440-2517978(-)	NA	greenyellow
Afu8g01430::Chr8_A_fumigatus_Af293:362163-363485(-)	NA	greenyellow
Afu3g02400::Chr3_A_fumigatus_Af293:590865-593089(-)	NA	greenyellow
Afu3g08440::Chr3_A_fumigatus_Af293:2161116-2162210(+)	NA	greenyellow
Afu6g03680::Chr6_A_fumigatus_Af293:806516-808333(-)	NA	greenyellow
Afu8g05270::Chr8_A_fumigatus_Af293:1224215-1228358(-)	NA	greenyellow
Afu3g03820::Chr3_A_fumigatus_Af293:1099766-1101709(-)	NA	greenyellow
Afu3g01530::Chr3_A_fumigatus_Af293:387986-390053(+)	NA	greenyellow
Afu5g12930::Chr5_A_fumigatus_Af293:3391692-3393741(+)	NA	greenyellow
Afu6g05030::Chr6_A_fumigatus_Af293:1195845-1197067(+)	NA	greenyellow
Afu4g13930::Chr4_A_fumigatus_Af293:3634385-3635886(+)	NA	greenyellow
Afu3g02550::Chr3_A_fumigatus_Af293:639572-642088(+)	NA	greenyellow
Afu3g01030::Chr3_A_fumigatus_Af293:240059-240954(-)	NA	greenyellow
Afu2g07900::Chr2_A_fumigatus_Af293:2011211-2016118(-)	NA	greenyellow
Afu8g01360::Chr8_A_fumigatus_Af293:336288-338015(+)	NA	greenyellow
Afu1g00440::Chr1_A_fumigatus_Af293:138358-140093(-)	NA	greenyellow
Afu5g00390::Chr5_A_fumigatus_Af293:109418-112168(+)	NA	greenyellow
Afu3g14510::Chr3_A_fumigatus_Af293:3848303-3849119(-)	NA	greenyellow
Afu5g10180::Chr5_A_fumigatus_Af293:2616828-2618430(+)	NA	greenyellow
Afu6g03120::Chr6_A_fumigatus_Af293:660209-662655(+)	NA	greenyellow
Afu5g10080::Chr5_A_fumigatus_Af293:2596693-2597526(+)	NA	greenyellow
Afu2g14410::Chr2_A_fumigatus_Af293:3770427-3772810(+)	NA	greenyellow
Afu3g03790::Chr3_A_fumigatus_Af293:1094561-1096759(-)	NA	greenyellow
MSTRG.636::Chr5_A_fumigatus_Af293:2628691-2630480(+)	NA	greenyellow
Afu5g11130::Chr5_A_fumigatus_Af293:2845178-2846890(+)	NA	greenyellow
Afu8g04060::Chr8_A_fumigatus_Af293:876049-882386(-)	NA	greenyellow
Afu4g06900::Chr4_A_fumigatus_Af293:1787003-1789825(+)	NA	greenyellow
Afu7g02285::Chr7_A_fumigatus_Af293:617466-619605(+)	NA	greenyellow
Afu2g15950::Chr2_A_fumigatus_Af293:4217103-4219539(-)	NA	greenyellow
Afu8g03900::Chr8_A_fumigatus_Af293:830556-831931(+)	NA	greenyellow
Afu3g13990::Chr3_A_fumigatus_Af293:3716816-3719302(+)	NA	greenyellow
Afu3g01120::Chr3_A_fumigatus_Af293:261347-264106(+)	NA	greenyellow
Afu6g03540::Chr6_A_fumigatus_Af293:768596-770908(+)	NA	greenyellow
Afu6g05290::Chr6_A_fumigatus_Af293:1267137-1269890(+)	NA	greenyellow
Afu1g17260::Chr1_A_fumigatus_Af293:4718099-4719060(-)	NA	greenyellow
Afu1g08960::Chr1_A_fumigatus_Af293:2323886-2325907(+)	NA	greenyellow
Afu2g00780::Chr2_A_fumigatus_Af293:173346-175959(-)	NA	greenyellow
Afu3g08480::Chr3_A_fumigatus_Af293:2175237-2177628(+)	NA	greenyellow
Afu1g11040::Chr1_A_fumigatus_Af293:2888519-2889429(-)	NA	greenyellow
Afu5g09790::Chr5_A_fumigatus_Af293:2530139-2531291(+)	NA	greenyellow
Afu6g07020::Chr6_A_fumigatus_Af293:1566503-1569030(+)	NA	greenyellow
Afu1g00820::Chr1_A_fumigatus_Af293:307827-308409(-)	NA	greenyellow
Afu2g12340::Chr2_A_fumigatus_Af293:3170697-3171970(+)	NA	greenyellow
Afu7g05850::Chr7_A_fumigatus_Af293:1433709-1435739(-)	NA	greenyellow
Afu6g08130::Chr6_A_fumigatus_Af293:1887865-1889875(-)	NA	greenyellow
Afu1g05460::Chr1_A_fumigatus_Af293:1562405-1563286(+)	NA	greenyellow
Afu2g00740::Chr2_A_fumigatus_Af293:164579-165665(-)	NA	greenyellow
Afu5g00150::Chr5_A_fumigatus_Af293:17758-18612(+)	NA	greenyellow
Afu1g10110::Chr1_A_fumigatus_Af293:2607309-2608266(-)	NA	greenyellow
Afu2g08240::Chr2_A_fumigatus_Af293:2125942-2128494(+)	NA	greenyellow
Afu3g01155::Chr3_A_fumigatus_Af293:271736-274449(-)	NA	greenyellow
Afu6g05100::Chr6_A_fumigatus_Af293:1210922-1213715(-)	NA	greenyellow
Afu1g04700::Chr1_A_fumigatus_Af293:1333783-1337300(+)	NA	greenyellow
MSTRG.642::Chr5_A_fumigatus_Af293:2742706-2743823(+)	NA	greenyellow
Afu1g15470::Chr1_A_fumigatus_Af293:4177331-4181661(-)	NA	greenyellow
Afu7g08640::Chr7_A_fumigatus_Af293:2030887-2032016(-)	NA	greenyellow
Afu5g05990::Chr5_A_fumigatus_Af293:1412876-1417080(-)	NA	greenyellow
Afu4g01020::Chr4_A_fumigatus_Af293:275752-280061(+)	NA	greenyellow
Afu5g09430::Chr5_A_fumigatus_Af293:2425096-2429053(-)	NA	greenyellow
Afu2g05230::Chr2_A_fumigatus_Af293:1452391-1453989(+)	NA	greenyellow
Afu8g04850::Chr8_A_fumigatus_Af293:1116037-1118572(+)	NA	greenyellow
Afu6g08480::Chr6_A_fumigatus_Af293:1992925-1994255(+)	NA	greenyellow
Afu6g13350::Chr6_A_fumigatus_Af293:3388002-3390426(+)	NA	greenyellow
Afu6g13700::Chr6_A_fumigatus_Af293:3497452-3498569(+)	NA	greenyellow
Afu7g06910::Chr7_A_fumigatus_Af293:1686271-1688171(-)	NA	greenyellow
Afu4g01350::Chr4_A_fumigatus_Af293:353356-356355(-)	NA	greenyellow
Afu3g11780::Chr3_A_fumigatus_Af293:3093990-3096868(+)	NA	greenyellow
Afu3g01710::Chr3_A_fumigatus_Af293:430488-431824(-)	NA	greenyellow
Afu7g04600::Chr7_A_fumigatus_Af293:1053764-1061192(+)	NA	greenyellow
Afu5g14500::Chr5_A_fumigatus_Af293:3762798-3765108(-)	NA	greenyellow
Afu8g01420::Chr8_A_fumigatus_Af293:358300-359644(-)	NA	greenyellow
MSTRG.394::Chr3_A_fumigatus_Af293:2007455-2008586(+)	NA	greenyellow
Afu8g01950::Chr8_A_fumigatus_Af293:505321-506014(-)	NA	greenyellow
Afu5g03269::Chr5_A_fumigatus_Af293:887240-887704(+)	NA	greenyellow
Afu8g04370::Chr8_A_fumigatus_Af293:980449-982999(+)	NA	greenyellow
Afu5g06880::Chr5_A_fumigatus_Af293:1690153-1691640(-)	NA	greenyellow
Afu7g04580::Chr7_A_fumigatus_Af293:1042906-1045306(-)	NA	greenyellow
Afu4g01000::Chr4_A_fumigatus_Af293:268052-271235(-)	NA	greenyellow
MSTRG.832::Chr7_A_fumigatus_Af293:439150-439743(+)	NA	greenyellow
Afu3g08960::Chr3_A_fumigatus_Af293:2288902-2290414(+)	NA	greenyellow
Afu3g02890::Chr3_A_fumigatus_Af293:772318-774931(-)	NA	greenyellow
Afu3g02750::Chr3_A_fumigatus_Af293:712260-715319(-)	NA	greenyellow
Afu1g01240::Chr1_A_fumigatus_Af293:426186-428733(+)	NA	greenyellow
Afu1g00280::Chr1_A_fumigatus_Af293:74433-76331(+)	NA	greenyellow
Afu3g07860::Chr3_A_fumigatus_Af293:1979881-1988669(-)	NA	greenyellow
Afu5g07530::Chr5_A_fumigatus_Af293:1882165-1884449(-)	NA	greenyellow
MSTRG.816::Chr7_A_fumigatus_Af293:86638-87027(+)	NA	greenyellow
Afu7g08620::Chr7_A_fumigatus_Af293:2018563-2019808(-)	NA	greenyellow
Afu8g00500::Chr8_A_fumigatus_Af293:108296-110585(-)	NA	greenyellow
Afu6g07780::Chr6_A_fumigatus_Af293:1776584-1779597(-)	NA	greenyellow
Afu3g15260::Chr3_A_fumigatus_Af293:4009807-4010320(-)	NA	greenyellow
Afu3g13220::Chr3_A_fumigatus_Af293:3507959-3508842(-)	NA	greenyellow
Afu8g05510::Chr8_A_fumigatus_Af293:1286007-1287756(-)	NA	greenyellow
MSTRG.459::Chr4_A_fumigatus_Af293:50534-51405(+)	NA	greenyellow
Afu8g00510::Chr8_A_fumigatus_Af293:110812-112652(-)	NA	greenyellow
Afu7g00570::Chr7_A_fumigatus_Af293:159873-160740(+)	NA	greenyellow
Afu1g07625::Chr1_A_fumigatus_Af293:2150209-2152277(+)	NA	greenyellow
Afu4g04320::Chr4_A_fumigatus_Af293:1218860-1221680(-)	NA	greenyellow
MSTRG.217::Chr2_A_fumigatus_Af293:1880396-1881268(+)	NA	greenyellow
Afu6g02940::Chr6_A_fumigatus_Af293:608856-612934(+)	NA	greenyellow
Afu2g09620::Chr2_A_fumigatus_Af293:2458546-2460230(-)	NA	greenyellow
Afu6g05270::Chr6_A_fumigatus_Af293:1261298-1262314(-)	NA	greenyellow
Afu6g02000::Chr6_A_fumigatus_Af293:310418-312351(-)	NA	greenyellow
Afu1g16160::Chr1_A_fumigatus_Af293:4396141-4396734(+)	NA	greenyellow
Afu3g09210::Chr3_A_fumigatus_Af293:2335422-2337393(-)	NA	greenyellow
Afu7g03640::Chr7_A_fumigatus_Af293:776619-780527(-)	NA	greenyellow
Afu1g02280::Chr1_A_fumigatus_Af293:667287-669402(+)	NA	greenyellow
Afu6g12820::Chr6_A_fumigatus_Af293:3232649-3235395(-)	NA	greenyellow
Afu4g13830::Chr4_A_fumigatus_Af293:3613400-3615409(-)	NA	greenyellow
MSTRG.730::Chr6_A_fumigatus_Af293:1364149-1365258(+)	NA	greenyellow
Afu1g17710::Chr1_A_fumigatus_Af293:4894247-4895625(+)	NA	greenyellow
Afu5g00145::Chr5_A_fumigatus_Af293:15748-16327(-)	NA	greenyellow
Afu8g04110::Chr8_A_fumigatus_Af293:893507-897643(+)	NA	greenyellow
Afu8g00520::Chr8_A_fumigatus_Af293:113097-114669(+)	NA	greenyellow
Afu7g01160::Chr7_A_fumigatus_Af293:303732-305508(+)	NA	greenyellow
Afu1g00720::Chr1_A_fumigatus_Af293:246874-247620(-)	NA	greenyellow
Afu4g12410::Chr4_A_fumigatus_Af293:3257802-3260626(+)	NA	greenyellow
Afu1g00560::Chr1_A_fumigatus_Af293:180462-182160(+)	NA	greenyellow
Afu8g00380::Chr8_A_fumigatus_Af293:87369-88295(+)	NA	greenyellow
Afu6g11890::Chr6_A_fumigatus_Af293:2968306-2972392(-)	NA	greenyellow
MSTRG.254::Chr2_A_fumigatus_Af293:2936261-2939094(-)	NA	greenyellow
Afu4g12470::Chr4_A_fumigatus_Af293:3276089-3276899(+)	NA	greenyellow
Afu2g11420::Chr2_A_fumigatus_Af293:2939563-2941652(+)	NA	greenyellow
MSTRG.639::Chr5_A_fumigatus_Af293:2632143-2636018(-)	NA	greenyellow
Afu3g12070::Chr3_A_fumigatus_Af293:3174807-3175496(-)	NA	greenyellow
Afu3g02430::Chr3_A_fumigatus_Af293:598969-601584(-)	NA	greenyellow
Afu3g07460::Chr3_A_fumigatus_Af293:1870131-1875341(+)	NA	greenyellow
Afu6g06410::Chr6_A_fumigatus_Af293:1380164-1381262(+)	NA	greenyellow
MSTRG.279::Chr2_A_fumigatus_Af293:3663979-3664462(-)	NA	greenyellow
Afu3g07910::Chr3_A_fumigatus_Af293:2000296-2002786(+)	NA	greenyellow
Afu2g11730::Chr2_A_fumigatus_Af293:3009232-3011938(-)	NA	greenyellow
Afu1g07650::Chr1_A_fumigatus_Af293:2158474-2160029(+)	NA	greenyellow
Afu3g00765::Chr3_A_fumigatus_Af293:170024-170740(-)	NA	greenyellow
Afu2g00730::Chr2_A_fumigatus_Af293:162959-164147(-)	NA	greenyellow
Afu1g11050::Chr1_A_fumigatus_Af293:2889964-2894388(+)	NA	greenyellow
Afu6g00240::Chr6_A_fumigatus_Af293:73094-74693(+)	NA	greenyellow
Afu1g00780::Chr1_A_fumigatus_Af293:277012-277941(+)	NA	greenyellow
MSTRG.241::Chr2_A_fumigatus_Af293:2519412-2519895(+)	NA	greenyellow
Afu8g01770::Chr8_A_fumigatus_Af293:461653-462788(+)	NA	greenyellow
Afu2g04680::Chr2_A_fumigatus_Af293:1272197-1276766(-)	NA	greenyellow
Afu6g08550::Chr6_A_fumigatus_Af293:2020152-2022660(+)	NA	greenyellow
Afu7g04811::Chr7_A_fumigatus_Af293:1124258-1126477(+)	NA	greenyellow
Afu3g14410::Chr3_A_fumigatus_Af293:3823091-3829622(-)	NA	greenyellow
MSTRG.904::Chr7_A_fumigatus_Af293:2026123-2026965(+)	NA	greenyellow
Afu4g09850::Chr4_A_fumigatus_Af293:2559018-2560408(+)	NA	greenyellow
Afu1g14860::Chr1_A_fumigatus_Af293:3982267-3985537(-)	NA	greenyellow
Afu8g00430::Chr8_A_fumigatus_Af293:95276-95807(-)	NA	greenyellow
Afu6g07030::Chr6_A_fumigatus_Af293:1570561-1574405(+)	NA	greenyellow
Afu1g15260::Chr1_A_fumigatus_Af293:4107475-4109855(-)	NA	greenyellow
Afu3g01500::Chr3_A_fumigatus_Af293:380976-382195(+)	NA	greenyellow
MSTRG.14::Chr1_A_fumigatus_Af293:124428-124880(-)	NA	greenyellow
Afu7g05650::Chr7_A_fumigatus_Af293:1371430-1373458(+)	NA	greenyellow
MSTRG.781::Chr6_A_fumigatus_Af293:2738577-2739744(-)	NA	greenyellow
MSTRG.332::Chr3_A_fumigatus_Af293:560207-561960(-)	NA	greenyellow
Afu3g08920::Chr3_A_fumigatus_Af293:2277981-2282555(-)	NA	greenyellow
Afu4g14751::Chr4_A_fumigatus_Af293:3890667-3892870(+)	NA	greenyellow
Afu5g10380::Chr5_A_fumigatus_Af293:2658120-2659968(+)	NA	greenyellow
Afu2g13920::Chr2_A_fumigatus_Af293:3630754-3631621(+)	NA	greenyellow
Afu5g08790::Chr5_A_fumigatus_Af293:2253980-2254935(-)	NA	greenyellow
Afu2g17305::Chr2_A_fumigatus_Af293:4632317-4633203(+)	NA	greenyellow
Afu5g00430::Chr5_A_fumigatus_Af293:121698-123740(-)	NA	greenyellow
Afu4g14270::Chr4_A_fumigatus_Af293:3730250-3731118(+)	NA	greenyellow
Afu2g01230::Chr2_A_fumigatus_Af293:288905-290383(+)	NA	greenyellow
Afu3g01520::Chr3_A_fumigatus_Af293:385998-387805(+)	NA	greenyellow
Afu3g10470::Chr3_A_fumigatus_Af293:2709754-2711436(-)	NA	greenyellow
Afu3g09510::Chr3_A_fumigatus_Af293:2418353-2419931(+)	NA	greenyellow
MSTRG.357::Chr3_A_fumigatus_Af293:1023074-1023619(-)	NA	greenyellow
Afu3g12620::Chr3_A_fumigatus_Af293:3346986-3348023(+)	NA	greenyellow
Afu2g13550::Chr2_A_fumigatus_Af293:3524561-3525312(-)	NA	greenyellow
MSTRG.715::Chr6_A_fumigatus_Af293:617833-618387(+)	NA	greenyellow
Afu4g00195::Chr4_A_fumigatus_Af293:52511-53354(+)	NA	greenyellow
Afu4g06570::Chr4_A_fumigatus_Af293:1686919-1690724(-)	NA	greenyellow
MSTRG.9::Chr1_A_fumigatus_Af293:83095-83579(+)	NA	greenyellow
Afu6g05280::Chr6_A_fumigatus_Af293:1263008-1266791(-)	NA	greenyellow
Afu3g07020::Chr3_A_fumigatus_Af293:1756122-1760418(+)	NA	greenyellow
Afu8g01140::Chr8_A_fumigatus_Af293:267672-269776(-)	NA	greenyellow
MSTRG.144::Chr1_A_fumigatus_Af293:4357698-4357929(+)	NA	greenyellow
Afu1g14130::Chr1_A_fumigatus_Af293:3776749-3777829(-)	NA	greenyellow
Afu7g06030::Chr7_A_fumigatus_Af293:1477777-1480230(-)	NA	greenyellow
Afu7g00690::Chr7_A_fumigatus_Af293:182732-183908(+)	NA	greenyellow
Afu7g01190::Chr7_A_fumigatus_Af293:313955-316142(+)	NA	greenyellow
Afu1g09910::Chr1_A_fumigatus_Af293:2566088-2568421(+)	NA	greenyellow
Afu8g02230::Chr8_A_fumigatus_Af293:579642-580406(+)	NA	greenyellow
Afu1g03370::Chr1_A_fumigatus_Af293:975393-977406(+)	NA	greenyellow
Afu1g13270::Chr1_A_fumigatus_Af293:3533465-3535223(-)	NA	greenyellow
Afu6g06860::Chr6_A_fumigatus_Af293:1501463-1503107(-)	NA	greenyellow
Afu7g01450::Chr7_A_fumigatus_Af293:375816-378654(-)	NA	greenyellow
Afu6g13050::Chr6_A_fumigatus_Af293:3289751-3293409(+)	NA	greenyellow
Afu4g08390::Chr4_A_fumigatus_Af293:2172173-2172827(-)	NA	greenyellow
MSTRG.52::Chr1_A_fumigatus_Af293:670827-673064(+)	NA	greenyellow
Afu1g02530::Chr1_A_fumigatus_Af293:736824-739008(+)	NA	greenyellow
Afu3g14860::Chr3_A_fumigatus_Af293:3931205-3931874(+)	NA	greenyellow
Afu2g14790::Chr2_A_fumigatus_Af293:3896171-3900521(-)	NA	greenyellow
Afu3g02180::Chr3_A_fumigatus_Af293:541985-542612(+)	NA	greenyellow
MSTRG.455::Chr3_A_fumigatus_Af293:4062230-4062888(-)	NA	greenyellow
Afu2g15170::Chr2_A_fumigatus_Af293:4014903-4018385(-)	NA	greenyellow
Afu1g14890::Chr1_A_fumigatus_Af293:3990840-3993853(-)	NA	greenyellow
Afu3g11770::Chr3_A_fumigatus_Af293:3090998-3093412(-)	NA	greenyellow
Afu8g05860::Chr8_A_fumigatus_Af293:1393292-1395382(+)	NA	greenyellow
Afu3g02740::Chr3_A_fumigatus_Af293:710729-711976(-)	NA	greenyellow
Afu4g02350::Chr4_A_fumigatus_Af293:711271-716235(-)	NA	greenyellow
Afu4g06170::Chr4_A_fumigatus_Af293:1588351-1590771(+)	NA	greenyellow
Afu6g02070::Chr6_A_fumigatus_Af293:340402-348528(-)	NA	greenyellow
Afu4g01460::Chr4_A_fumigatus_Af293:379596-381765(+)	NA	greenyellow
MSTRG.134::Chr1_A_fumigatus_Af293:4073830-4074167(+)	NA	greenyellow
Afu4g00520::Chr4_A_fumigatus_Af293:136526-138977(+)	NA	greenyellow
Afu3g09690::Chr3_A_fumigatus_Af293:2476068-2476602(-)	NA	greenyellow
Afu1g00620::Chr1_A_fumigatus_Af293:197347-198658(-)	NA	greenyellow
Afu4g14360::Chr4_A_fumigatus_Af293:3777815-3779675(+)	NA	greenyellow
MSTRG.343::Chr3_A_fumigatus_Af293:722140-723612(+)	NA	greenyellow
MSTRG.135::Chr1_A_fumigatus_Af293:4074360-4075290(-)	NA	greenyellow
Afu2g17230::Chr2_A_fumigatus_Af293:4612644-4618635(-)	NA	greenyellow
Afu2g14650::Chr2_A_fumigatus_Af293:3837431-3840268(-)	NA	greenyellow
Afu8g01590::Chr8_A_fumigatus_Af293:407495-408806(-)	NA	greenyellow
Afu2g01600::Chr2_A_fumigatus_Af293:384641-388551(-)	NA	greenyellow
Afu8g00560::Chr8_A_fumigatus_Af293:130834-132714(+)	NA	greenyellow
Afu6g12580::Chr6_A_fumigatus_Af293:3178888-3181554(-)	NA	greenyellow
Afu1g07190::Chr1_A_fumigatus_Af293:2037615-2039719(+)	NA	greenyellow
Afu1g14695::Chr1_A_fumigatus_Af293:3932049-3933236(+)	NA	greenyellow
Afu8g06680::Chr8_A_fumigatus_Af293:1626718-1628069(+)	NA	greenyellow
Afu2g17860::Chr2_A_fumigatus_Af293:4747997-4750533(+)	NA	greenyellow
Afu4g05915::Chr4_A_fumigatus_Af293:1509037-1510545(-)	NA	greenyellow
Afu4g08760::Chr4_A_fumigatus_Af293:2272681-2274369(+)	NA	greenyellow
Afu2g13770::Chr2_A_fumigatus_Af293:3584677-3587549(+)	NA	greenyellow
Afu5g04360::Chr5_A_fumigatus_Af293:1176144-1178814(+)	NA	greenyellow
Afu8g05520::Chr8_A_fumigatus_Af293:1289741-1291658(+)	NA	greenyellow
Afu5g02650::Chr5_A_fumigatus_Af293:692296-693109(-)	NA	greenyellow
Afu6g03160::Chr6_A_fumigatus_Af293:669682-674067(-)	NA	greenyellow
Afu1g11080::Chr1_A_fumigatus_Af293:2913047-2917941(+)	NA	greenyellow
Afu3g13930::Chr3_A_fumigatus_Af293:3694682-3697798(+)	NA	greenyellow
Afu1g01460::Chr1_A_fumigatus_Af293:468860-470323(-)	NA	greenyellow
MSTRG.818::Chr7_A_fumigatus_Af293:163114-163799(+)	NA	greenyellow
Afu8g01350::Chr8_A_fumigatus_Af293:333949-336208(-)	NA	greenyellow
Afu6g14630::Chr6_A_fumigatus_Af293:3735381-3736710(-)	NA	greenyellow
Afu8g01190::Chr8_A_fumigatus_Af293:280029-282395(-)	NA	greenyellow
Afu4g08410::Chr4_A_fumigatus_Af293:2174969-2176353(-)	NA	greenyellow
Afu2g00120::Chr2_A_fumigatus_Af293:17340-18759(+)	NA	greenyellow
MSTRG.928::Chr8_A_fumigatus_Af293:678991-679451(-)	NA	greenyellow
Afu4g00160::Chr4_A_fumigatus_Af293:42989-44062(+)	NA	greenyellow
Afu6g01790::Chr6_A_fumigatus_Af293:244161-245683(+)	NA	greenyellow
Afu1g17150::Chr1_A_fumigatus_Af293:4675677-4678035(+)	NA	greenyellow
Afu5g14290::Chr5_A_fumigatus_Af293:3720487-3723757(-)	NA	greenyellow
Afu1g10930::Chr1_A_fumigatus_Af293:2852742-2855499(-)	NA	greenyellow
Afu7g03680::Chr7_A_fumigatus_Af293:786220-790580(-)	NA	greenyellow
Afu5g06905::Chr5_A_fumigatus_Af293:1696814-1697872(+)	NA	greenyellow
Afu2g10390::Chr2_A_fumigatus_Af293:2658385-2658825(-)	NA	greenyellow
Afu6g02170::Chr6_A_fumigatus_Af293:377444-379652(+)	NA	greenyellow
Afu5g01550::Chr5_A_fumigatus_Af293:399751-402216(+)	NA	greenyellow
Afu4g10860::Chr4_A_fumigatus_Af293:2841371-2843361(-)	NA	greenyellow
Afu1g16420::Chr1_A_fumigatus_Af293:4452133-4454546(+)	NA	greenyellow
Afu3g12950::Chr3_A_fumigatus_Af293:3442293-3443860(-)	NA	greenyellow
MSTRG.15::Chr1_A_fumigatus_Af293:118646-119023(-)	NA	greenyellow
Afu4g03700::Chr4_A_fumigatus_Af293:1038445-1039499(-)	NA	greenyellow
Afu4g00810::Chr4_A_fumigatus_Af293:215209-217144(+)	NA	greenyellow
Afu3g09500::Chr3_A_fumigatus_Af293:2414949-2416333(+)	NA	greenyellow
Afu2g02770::Chr2_A_fumigatus_Af293:711752-720479(+)	NA	greenyellow
Afu3g02175::Chr3_A_fumigatus_Af293:539780-541006(-)	NA	greenyellow
Afu4g13320::Chr4_A_fumigatus_Af293:3483161-3488129(-)	NA	greenyellow
Afu6g14720::Chr6_A_fumigatus_Af293:3773378-3778585(+)	NA	greenyellow
Afu6g02620::Chr6_A_fumigatus_Af293:500176-503690(-)	NA	greenyellow
Afu4g11630::Chr4_A_fumigatus_Af293:3071468-3075222(+)	NA	greenyellow
MSTRG.202::Chr2_A_fumigatus_Af293:1435153-1436137(-)	NA	greenyellow
Afu2g09430::Chr2_A_fumigatus_Af293:2410017-2410640(+)	NA	greenyellow
Afu1g01200::Chr1_A_fumigatus_Af293:419160-420433(+)	NA	greenyellow
Afu3g11850::Chr3_A_fumigatus_Af293:3117937-3121284(-)	NA	greenyellow
Afu4g10320::Chr4_A_fumigatus_Af293:2692590-2693316(-)	NA	greenyellow
Afu1g11010::Chr1_A_fumigatus_Af293:2881698-2882995(+)	NA	greenyellow
Afu4g06700::Chr4_A_fumigatus_Af293:1734333-1735654(-)	NA	greenyellow
Afu1g10390::Chr1_A_fumigatus_Af293:2697913-2705802(+)	NA	greenyellow
Afu1g01330::Chr1_A_fumigatus_Af293:446741-448029(-)	NA	greenyellow
Afu4g08560::Chr4_A_fumigatus_Af293:2213632-2215180(+)	NA	greenyellow
Afu4g00250::Chr4_A_fumigatus_Af293:69577-73261(+)	NA	greenyellow
Afu2g07460::Chr2_A_fumigatus_Af293:1908241-1909525(+)	NA	greenyellow
Afu6g11440::Chr6_A_fumigatus_Af293:2839402-2840190(-)	NA	greenyellow
MSTRG.283::Chr2_A_fumigatus_Af293:3843850-3844841(-)	NA	greenyellow
Afu2g02760::Chr2_A_fumigatus_Af293:707323-711141(-)	NA	greenyellow
Afu4g04250::Chr4_A_fumigatus_Af293:1196315-1200435(-)	NA	greenyellow
Afu8g00580::Chr8_A_fumigatus_Af293:134422-135764(-)	NA	greenyellow
Afu4g08840::Chr4_A_fumigatus_Af293:2300079-2300974(+)	NA	greenyellow
Afu3g00790::Chr3_A_fumigatus_Af293:175375-176905(+)	NA	greenyellow
Afu3g12910::Chr3_A_fumigatus_Af293:3428357-3429987(-)	NA	greenyellow
MSTRG.786::Chr6_A_fumigatus_Af293:2941653-2942168(+)	NA	greenyellow
Afu8g05290::Chr8_A_fumigatus_Af293:1233443-1235742(-)	NA	greenyellow
Afu2g11210::Chr2_A_fumigatus_Af293:2879197-2885032(-)	NA	greenyellow
MSTRG.548::Chr4_A_fumigatus_Af293:3815241-3815894(+)	NA	greenyellow
Afu6g09970::Chr6_A_fumigatus_Af293:2452275-2453747(+)	NA	greenyellow
MSTRG.618::Chr5_A_fumigatus_Af293:2309367-2309855(+)	NA	greenyellow
Afu5g13170::Chr5_A_fumigatus_Af293:3455725-3457692(+)	NA	greenyellow
Afu3g00860::Chr3_A_fumigatus_Af293:195081-195693(-)	NA	greenyellow
Afu6g08140::Chr6_A_fumigatus_Af293:1892339-1895316(-)	NA	greenyellow
Afu1g12510::Chr1_A_fumigatus_Af293:3295915-3297329(-)	NA	greenyellow
Afu2g13420::Chr2_A_fumigatus_Af293:3464450-3464951(-)	NA	greenyellow
Afu7g00230::Chr7_A_fumigatus_Af293:63737-65998(-)	NA	greenyellow
Afu7g03900::Chr7_A_fumigatus_Af293:873235-875548(-)	NA	greenyellow
Afu1g06540::Chr1_A_fumigatus_Af293:1873763-1876670(-)	NA	greenyellow
Afu6g07010::Chr6_A_fumigatus_Af293:1560627-1562774(-)	NA	greenyellow
Afu1g15910::Chr1_A_fumigatus_Af293:4311874-4315179(+)	NA	greenyellow
Afu3g12960::Chr3_A_fumigatus_Af293:3444045-3446440(-)	NA	greenyellow
Afu7g04380::Chr7_A_fumigatus_Af293:993387-994855(+)	NA	greenyellow
Afu4g02880::Chr4_A_fumigatus_Af293:807951-809198(+)	NA	greenyellow
Afu2g17430::Chr2_A_fumigatus_Af293:4653788-4655014(-)	NA	greenyellow
Afu5g12470::Chr5_A_fumigatus_Af293:3230408-3231972(+)	NA	greenyellow
Afu2g04810::Chr2_A_fumigatus_Af293:1322558-1323525(-)	NA	greenyellow
Afu8g06850::Chr8_A_fumigatus_Af293:1677257-1678763(+)	NA	greenyellow
Afu8g01620::Chr8_A_fumigatus_Af293:415779-416730(+)	NA	greenyellow
Afu3g12930::Chr3_A_fumigatus_Af293:3437616-3439088(+)	NA	greenyellow
Afu3g07420::Chr3_A_fumigatus_Af293:1864826-1866338(+)	NA	greenyellow
Afu2g03710::Chr2_A_fumigatus_Af293:990213-994237(+)	NA	greenyellow
Afu6g09050::Chr6_A_fumigatus_Af293:2151145-2153218(-)	NA	greenyellow
Afu1g01010::Chr1_A_fumigatus_Af293:352043-358955(+)	NA	greenyellow
Afu1g12050::Chr1_A_fumigatus_Af293:3193325-3194765(-)	NA	greenyellow
MSTRG.453::Chr3_A_fumigatus_Af293:3681408-3681763(-)	NA	greenyellow
Afu1g14460::Chr1_A_fumigatus_Af293:3864416-3866774(-)	NA	greenyellow
Afu1g04820::Chr1_A_fumigatus_Af293:1365842-1367487(-)	NA	greenyellow
Afu4g02780::Chr4_A_fumigatus_Af293:771452-773493(+)	NA	greenyellow
Afu8g01100::Chr8_A_fumigatus_Af293:257871-260223(-)	NA	greenyellow
Afu4g13670::Chr4_A_fumigatus_Af293:3577078-3579875(-)	NA	greenyellow
Afu6g06970::Chr6_A_fumigatus_Af293:1540087-1542151(-)	NA	greenyellow
Afu6g05020::Chr6_A_fumigatus_Af293:1192971-1195303(+)	NA	greenyellow
Afu1g16640::Chr1_A_fumigatus_Af293:4522120-4522917(-)	NA	greenyellow
Afu2g13175::Chr2_A_fumigatus_Af293:3389869-3390655(+)	NA	greenyellow
Afu4g14040::Chr4_A_fumigatus_Af293:3662191-3665099(-)	NA	greenyellow
MSTRG.854::Chr7_A_fumigatus_Af293:1121582-1123703(-)	NA	greenyellow
Afu2g10400::Chr2_A_fumigatus_Af293:2658874-2661224(-)	NA	greenyellow
Afu1g10940::Chr1_A_fumigatus_Af293:2857649-2861927(+)	NA	greenyellow
Afu4g11210::Chr4_A_fumigatus_Af293:2927062-2930232(+)	NA	greenyellow
Afu3g01140::Chr3_A_fumigatus_Af293:267092-267712(+)	NA	greenyellow
Afu1g00540::Chr1_A_fumigatus_Af293:168080-171287(+)	NA	greenyellow
Afu3g00760::Chr3_A_fumigatus_Af293:169510-169978(+)	NA	greenyellow
Afu3g03090::Chr3_A_fumigatus_Af293:832251-833403(-)	NA	greenyellow
Afu4g14060::Chr4_A_fumigatus_Af293:3667879-3672904(+)	NA	greenyellow
Afu4g13810::Chr4_A_fumigatus_Af293:3610210-3610893(-)	NA	greenyellow
Afu3g03210::Chr3_A_fumigatus_Af293:860463-861510(-)	NA	greenyellow
Afu4g00750::Chr4_A_fumigatus_Af293:201852-202864(-)	NA	greenyellow
Afu3g00330::Chr3_A_fumigatus_Af293:68085-70371(-)	NA	greenyellow
Afu1g13220::Chr1_A_fumigatus_Af293:3510663-3512251(+)	NA	greenyellow
Afu7g00480::Chr7_A_fumigatus_Af293:124738-129393(+)	NA	greenyellow
Afu7g04390::Chr7_A_fumigatus_Af293:995344-996720(-)	NA	greenyellow
Afu7g00580::Chr7_A_fumigatus_Af293:160899-162055(-)	NA	greenyellow
MSTRG.94::Chr1_A_fumigatus_Af293:2529717-2530415(+)	NA	greenyellow
Afu1g10830::Chr1_A_fumigatus_Af293:2823450-2826599(-)	NA	greenyellow
Afu1g04110::Chr1_A_fumigatus_Af293:1168056-1172313(-)	NA	greenyellow
Afu6g00650::Chr6_A_fumigatus_Af293:168436-169831(-)	NA	greenyellow
Afu8g02330::Chr8_A_fumigatus_Af293:622697-624497(+)	NA	greenyellow
Afu1g00970::Chr1_A_fumigatus_Af293:342452-344153(-)	NA	greenyellow
MSTRG.609::Chr5_A_fumigatus_Af293:2010588-2011142(-)	NA	greenyellow
Afu2g02380::Chr2_A_fumigatus_Af293:597769-602514(-)	NA	greenyellow
Afu3g07240::Chr3_A_fumigatus_Af293:1817950-1819957(-)	NA	greenyellow
Afu6g09850::Chr6_A_fumigatus_Af293:2416125-2418101(-)	NA	greenyellow
Afu6g08000::Chr6_A_fumigatus_Af293:1853359-1855526(+)	NA	greenyellow
Afu8g00400::Chr8_A_fumigatus_Af293:89382-89870(-)	NA	greenyellow
Afu6g02860::Chr6_A_fumigatus_Af293:588000-590407(+)	NA	greenyellow
Afu1g02000::Chr1_A_fumigatus_Af293:592337-595223(+)	NA	greenyellow
Afu3g14590::Chr3_A_fumigatus_Af293:3866573-3869579(+)	NA	greenyellow
Afu7g08645::Chr7_A_fumigatus_Af293:2034127-2038081(-)	NA	greenyellow
Afu7g06690::Chr7_A_fumigatus_Af293:1628972-1631359(+)	NA	greenyellow
Afu5g10455::Chr5_A_fumigatus_Af293:2670745-2674673(-)	NA	greenyellow
Afu4g14730::Chr4_A_fumigatus_Af293:3882177-3883197(+)	NA	greenyellow
Afu4g00830::Chr4_A_fumigatus_Af293:223150-225155(-)	NA	greenyellow
Afu5g00710::Chr5_A_fumigatus_Af293:201641-203579(+)	NA	greenyellow
Afu4g03590::Chr4_A_fumigatus_Af293:1011808-1013575(+)	NA	greenyellow
Afu3g05770::Chr3_A_fumigatus_Af293:1410422-1411663(-)	NA	greenyellow
Afu6g13346::Chr6_A_fumigatus_Af293:3385054-3385590(-)	NA	greenyellow
Afu8g02240::Chr8_A_fumigatus_Af293:577475-579083(-)	NA	greenyellow
Afu3g03160::Chr3_A_fumigatus_Af293:849554-851011(+)	NA	greenyellow
Afu2g00625::Chr2_A_fumigatus_Af293:134748-135526(-)	NA	greenyellow
Afu3g10860::Chr3_A_fumigatus_Af293:2828399-2829592(+)	NA	greenyellow
Afu5g06190::Chr5_A_fumigatus_Af293:1481652-1485707(+)	NA	greenyellow
Afu7g06935::Chr7_A_fumigatus_Af293:1696046-1696535(+)	NA	greenyellow
Afu5g06930::Chr5_A_fumigatus_Af293:1713308-1714835(-)	NA	greenyellow
Afu2g01240::Chr2_A_fumigatus_Af293:290277-293054(+)	NA	greenyellow
Afu6g07790::Chr6_A_fumigatus_Af293:1780017-1780514(+)	NA	greenyellow
Afu1g07270::Chr1_A_fumigatus_Af293:2063507-2064518(+)	NA	greenyellow
Afu2g04020::Chr2_A_fumigatus_Af293:1095753-1099169(+)	NA	greenyellow
Afu5g09810::Chr5_A_fumigatus_Af293:2534073-2535923(+)	NA	greenyellow
Afu4g10820::Chr4_A_fumigatus_Af293:2829000-2831175(+)	NA	greenyellow
Afu3g07200::Chr3_A_fumigatus_Af293:1808783-1811259(+)	NA	greenyellow
Afu2g15200::Chr2_A_fumigatus_Af293:4026207-4030353(+)	NA	greenyellow
Afu3g03650::Chr3_A_fumigatus_Af293:984523-985347(-)	NA	greenyellow
Afu1g13840::Chr1_A_fumigatus_Af293:3699132-3700612(+)	NA	greenyellow
Afu8g00540::Chr8_A_fumigatus_Af293:116892-129323(+)	NA	greenyellow
MSTRG.83::Chr1_A_fumigatus_Af293:1672048-1672769(+)	NA	greenyellow
Afu2g02990::Chr2_A_fumigatus_Af293:765754-767968(+)	NA	greenyellow
Afu1g00810::Chr1_A_fumigatus_Af293:306043-306847(-)	NA	greenyellow
Afu2g10450::Chr2_A_fumigatus_Af293:2672374-2675168(+)	NA	greenyellow
Afu1g05550::Chr1_A_fumigatus_Af293:1585734-1587966(-)	NA	greenyellow
Afu3g02760::Chr3_A_fumigatus_Af293:715590-720196(+)	NA	greenyellow
Afu5g08770::Chr5_A_fumigatus_Af293:2243827-2248802(+)	NA	greenyellow
Afu2g14320::Chr2_A_fumigatus_Af293:3751952-3753187(+)	NA	greenyellow
Afu4g00990::Chr4_A_fumigatus_Af293:265096-266923(-)	NA	greenyellow
Afu4g04650::Chr4_A_fumigatus_Af293:1305543-1308926(-)	NA	greenyellow
Afu1g01310::Chr1_A_fumigatus_Af293:443050-444743(-)	NA	greenyellow
Afu8g04560::Chr8_A_fumigatus_Af293:1038695-1041109(+)	NA	greenyellow
Afu4g06620::Chr4_A_fumigatus_Af293:1711766-1714021(+)	NA	greenyellow
Afu1g17700::Chr1_A_fumigatus_Af293:4852559-4853549(+)	NA	greenyellow
Afu1g12620::Chr1_A_fumigatus_Af293:3335456-3337298(+)	NA	greenyellow
Afu8g01270::Chr8_A_fumigatus_Af293:308958-310962(-)	NA	greenyellow
Afu7g08450::Chr7_A_fumigatus_Af293:1945247-1946699(-)	NA	greenyellow
Afu4g00890::Chr4_A_fumigatus_Af293:243456-246488(-)	NA	greenyellow
Afu6g03440::Chr6_A_fumigatus_Af293:736780-738413(-)	NA	greenyellow
Afu8g04540::Chr8_A_fumigatus_Af293:1031281-1034077(-)	NA	greenyellow
Afu2g01080::Chr2_A_fumigatus_Af293:249206-250871(-)	NA	greenyellow
Afu3g02010::Chr3_A_fumigatus_Af293:494406-496280(+)	NA	greenyellow
Afu1g16770::Chr1_A_fumigatus_Af293:4572939-4574898(-)	NA	greenyellow
Afu3g12920::Chr3_A_fumigatus_Af293:3430193-3436923(+)	NA	greenyellow
Afu3g08530::Chr3_A_fumigatus_Af293:2188279-2190717(-)	NA	greenyellow
Afu6g06850::Chr6_A_fumigatus_Af293:1497942-1501004(+)	NA	greenyellow
Afu5g09930::Chr5_A_fumigatus_Af293:2566834-2567737(+)	NA	greenyellow
MSTRG.731::Chr6_A_fumigatus_Af293:1379216-1379673(+)	NA	greenyellow
MSTRG.528::Chr4_A_fumigatus_Af293:3022788-3026044(-)	NA	greenyellow
Afu7g02000::Chr7_A_fumigatus_Af293:537422-539635(+)	NA	greenyellow
Afu5g00960::Chr5_A_fumigatus_Af293:247751-249860(-)	NA	greenyellow
Afu1g04880::Chr1_A_fumigatus_Af293:1382914-1385354(+)	NA	greenyellow
Afu3g00110::Chr3_A_fumigatus_Af293:2548-4431(+)	NA	greenyellow
Afu2g03950::Chr2_A_fumigatus_Af293:1066161-1071770(-)	NA	greenyellow
Afu1g03352::Chr1_A_fumigatus_Af293:968546-972745(-)	NA	greenyellow
Afu3g01872::Chr3_A_fumigatus_Af293:456771-459314(-)	NA	greenyellow
MSTRG.385::Chr3_A_fumigatus_Af293:1738275-1739045(-)	NA	greenyellow
Afu1g01000::Chr1_A_fumigatus_Af293:349731-351003(-)	NA	greenyellow
Afu2g00560::Chr2_A_fumigatus_Af293:120503-122008(-)	NA	greenyellow
Afu4g12020::Chr4_A_fumigatus_Af293:3160543-3163357(+)	NA	greenyellow
Afu7g08460::Chr7_A_fumigatus_Af293:1947114-1948688(+)	NA	greenyellow
MSTRG.619::Chr5_A_fumigatus_Af293:2236543-2242881(+)	NA	greenyellow
Afu1g01960::Chr1_A_fumigatus_Af293:578683-583140(-)	NA	greenyellow
Afu8g00230::Chr8_A_fumigatus_Af293:37405-39076(-)	NA	greenyellow
Afu3g03080::Chr3_A_fumigatus_Af293:824478-825702(+)	NA	greenyellow
Afu3g10540::Chr3_A_fumigatus_Af293:2729290-2730358(-)	NA	greenyellow
Afu1g15230::Chr1_A_fumigatus_Af293:4101068-4103721(+)	NA	greenyellow
Afu1g15150::Chr1_A_fumigatus_Af293:4075778-4079636(+)	NA	greenyellow
Afu3g02620::Chr3_A_fumigatus_Af293:664694-666282(-)	NA	greenyellow
Afu5g13060::Chr5_A_fumigatus_Af293:3421137-3422353(+)	NA	greenyellow
Afu3g00590::Chr3_A_fumigatus_Af293:128695-129800(-)	NA	greenyellow
Afu4g08310::Chr4_A_fumigatus_Af293:2153580-2154922(-)	NA	greenyellow
Afu8g04050::Chr8_A_fumigatus_Af293:870152-873284(-)	NA	greenyellow
Afu6g02242::Chr6_A_fumigatus_Af293:400255-401867(-)	NA	greenyellow
Afu4g08450::Chr4_A_fumigatus_Af293:2182780-2183782(-)	NA	greenyellow
Afu1g08767::Chr1_A_fumigatus_Af293:2253058-2256844(-)	NA	greenyellow
Afu8g02390::Chr8_A_fumigatus_Af293:642050-642838(-)	NA	greenyellow
Afu8g01370::Chr8_A_fumigatus_Af293:340261-341223(+)	NA	greenyellow
Afu5g02270::Chr5_A_fumigatus_Af293:583246-585836(+)	NA	greenyellow
Afu5g08250::Chr5_A_fumigatus_Af293:2092115-2094972(+)	NA	greenyellow
Afu1g14945::Chr1_A_fumigatus_Af293:4007283-4011539(-)	NA	greenyellow
Afu2g14540::Chr2_A_fumigatus_Af293:3806462-3809206(+)	NA	greenyellow
Afu6g13830::Chr6_A_fumigatus_Af293:3532891-3534823(-)	NA	greenyellow
Afu2g06100::Chr2_A_fumigatus_Af293:1726893-1729986(-)	NA	greenyellow
MSTRG.726::Chr6_A_fumigatus_Af293:1071793-1072566(+)	NA	greenyellow
Afu3g07440::Chr3_A_fumigatus_Af293:1868786-1869529(-)	NA	greenyellow
Afu5g00340::Chr5_A_fumigatus_Af293:93540-98243(-)	NA	greenyellow
Afu3g00290::Chr3_A_fumigatus_Af293:61075-62083(+)	NA	greenyellow
Afu3g01930::Chr3_A_fumigatus_Af293:477307-478250(+)	NA	greenyellow
Afu3g06080::Chr3_A_fumigatus_Af293:1496153-1501841(+)	NA	greenyellow
Afu4g13765::Chr4_A_fumigatus_Af293:3602859-3603543(+)	NA	greenyellow
Afu3g03810::Chr3_A_fumigatus_Af293:1097172-1098460(+)	NA	greenyellow
Afu4g13960::Chr4_A_fumigatus_Af293:3642322-3644879(-)	NA	greenyellow
Afu3g07130::Chr3_A_fumigatus_Af293:1785489-1790777(+)	NA	greenyellow
MSTRG.69::Chr1_A_fumigatus_Af293:1347840-1348586(+)	NA	greenyellow
Afu7g02380::Chr7_A_fumigatus_Af293:648471-649282(-)	NA	greenyellow
Afu8g01940::Chr8_A_fumigatus_Af293:502131-505032(+)	NA	greenyellow
Afu7g00890::Chr7_A_fumigatus_Af293:229588-231005(-)	NA	greenyellow
Afu8g02720::Chr8_A_fumigatus_Af293:727056-730044(-)	NA	greenyellow
Afu3g07015::Chr3_A_fumigatus_Af293:1752386-1755942(+)	NA	greenyellow
Afu4g06030::Chr4_A_fumigatus_Af293:1533030-1536084(-)	NA	greenyellow
Afu2g11610::Chr2_A_fumigatus_Af293:2987757-2990274(-)	NA	greenyellow
Afu7g06710::Chr7_A_fumigatus_Af293:1634300-1635548(+)	NA	greenyellow
Afu1g16680::Chr1_A_fumigatus_Af293:4535112-4540016(+)	NA	greenyellow
MSTRG.348::Chr3_A_fumigatus_Af293:818877-820445(+)	NA	greenyellow
Afu6g03450::Chr6_A_fumigatus_Af293:738675-740356(+)	NA	greenyellow
Afu7g08390::Chr7_A_fumigatus_Af293:1922355-1923295(+)	NA	greenyellow
MSTRG.732::Chr6_A_fumigatus_Af293:1381784-1382075(-)	NA	greenyellow
Afu7g01980::Chr7_A_fumigatus_Af293:533438-535029(-)	NA	greenyellow
Afu3g03852::Chr3_A_fumigatus_Af293:1102094-1105692(-)	NA	greenyellow
Afu4g09700::Chr4_A_fumigatus_Af293:2520593-2525658(-)	NA	greenyellow
Afu8g01580::Chr8_A_fumigatus_Af293:405564-407154(+)	NA	greenyellow
Afu4g00410::Chr4_A_fumigatus_Af293:106192-108306(-)	NA	greenyellow
Afu8g00530::Chr8_A_fumigatus_Af293:114936-116800(-)	NA	greenyellow
MSTRG.697::Chr6_A_fumigatus_Af293:300897-301392(-)	NA	greenyellow
MSTRG.713::Chr6_A_fumigatus_Af293:554688-556020(-)	NA	greenyellow
Afu4g13760::Chr4_A_fumigatus_Af293:3601249-3602674(+)	NA	greenyellow
MSTRG.802::Chr6_A_fumigatus_Af293:3352114-3352713(+)	NA	greenyellow
Afu6g01870::Chr6_A_fumigatus_Af293:264444-265856(-)	NA	greenyellow
Afu1g12040::Chr1_A_fumigatus_Af293:3183209-3191197(-)	NA	greenyellow
MSTRG.755::Chr6_A_fumigatus_Af293:2000627-2003016(+)	NA	greenyellow
Afu7g00420::Chr7_A_fumigatus_Af293:114829-116283(-)	NA	greenyellow
Afu5g00700::Chr5_A_fumigatus_Af293:198332-199209(-)	NA	greenyellow
Afu4g00510::Chr4_A_fumigatus_Af293:133476-135102(-)	NA	greenyellow
Afu3g13160::Chr3_A_fumigatus_Af293:3491425-3497482(-)	NA	greenyellow
Afu2g15110::Chr2_A_fumigatus_Af293:3993703-3995092(-)	NA	greenyellow
Afu3g01490::Chr3_A_fumigatus_Af293:378841-380558(-)	NA	greenyellow
Afu6g06960::Chr6_A_fumigatus_Af293:1536981-1538881(-)	NA	greenyellow
Afu6g09910::Chr6_A_fumigatus_Af293:2435922-2438505(+)	NA	greenyellow
Afu3g01740::Chr3_A_fumigatus_Af293:435493-436898(-)	NA	greenyellow
Afu5g14865::Chr5_A_fumigatus_Af293:3842372-3845049(+)	NA	greenyellow
Afu3g15060::Chr3_A_fumigatus_Af293:3972268-3972777(+)	NA	greenyellow
Afu3g02310::Chr3_A_fumigatus_Af293:575639-577129(-)	NA	greenyellow
Afu5g14582::Chr5_A_fumigatus_Af293:3781951-3785288(-)	NA	greenyellow
Afu5g11140::Chr5_A_fumigatus_Af293:2847015-2848315(+)	NA	greenyellow
MSTRG.203::Chr2_A_fumigatus_Af293:1455109-1455884(-)	NA	greenyellow
MSTRG.409::Chr3_A_fumigatus_Af293:2533794-2536393(-)	NA	greenyellow
Afu8g05700::Chr8_A_fumigatus_Af293:1354021-1355003(-)	NA	greenyellow
Afu2g00500::Chr2_A_fumigatus_Af293:108153-111594(-)	NA	greenyellow
Afu3g02880::Chr3_A_fumigatus_Af293:766563-771717(+)	NA	greenyellow
Afu2g09440::Chr2_A_fumigatus_Af293:2411338-2411691(+)	NA	greenyellow
Afu6g10580::Chr6_A_fumigatus_Af293:2617940-2618993(+)	NA	greenyellow
Afu6g06360::Chr6_A_fumigatus_Af293:1366022-1367281(-)	NA	greenyellow
Afu5g01650::Chr5_A_fumigatus_Af293:420066-420861(+)	NA	greenyellow
Afu2g04330::Chr2_A_fumigatus_Af293:1192331-1194519(-)	NA	greenyellow
Afu6g09450::Chr6_A_fumigatus_Af293:2281910-2285581(-)	NA	greenyellow
Afu8g01780::Chr8_A_fumigatus_Af293:465408-466965(-)	NA	greenyellow
Afu8g01470::Chr8_A_fumigatus_Af293:371223-372874(+)	NA	greenyellow
Afu3g13570::Chr3_A_fumigatus_Af293:3584353-3586332(-)	NA	greenyellow
Afu6g13560::Chr6_A_fumigatus_Af293:3450382-3454691(+)	NA	greenyellow
Afu1g03320::Chr1_A_fumigatus_Af293:959753-962027(+)	NA	greenyellow
Afu1g15970::Chr1_A_fumigatus_Af293:4338123-4339712(+)	NA	greenyellow
Afu1g05580::Chr1_A_fumigatus_Af293:1598283-1601833(-)	NA	greenyellow
Afu5g11690::Chr5_A_fumigatus_Af293:3003915-3009457(+)	NA	greenyellow
Afu5g03710::Chr5_A_fumigatus_Af293:991278-996023(-)	NA	greenyellow
Afu7g05300::Chr7_A_fumigatus_Af293:1263222-1265888(+)	NA	greenyellow
Afu6g10220::Chr6_A_fumigatus_Af293:2524621-2528084(-)	NA	greenyellow
Afu1g09900::Chr1_A_fumigatus_Af293:2563813-2565701(-)	NA	greenyellow
Afu4g03710::Chr4_A_fumigatus_Af293:1039558-1041533(+)	NA	greenyellow
Afu5g09890::Chr5_A_fumigatus_Af293:2559918-2561657(-)	NA	greenyellow
Afu4g13872::Chr4_A_fumigatus_Af293:3620559-3623005(+)	NA	greenyellow
MSTRG.900::Chr7_A_fumigatus_Af293:1986726-1987187(-)	NA	greenyellow
Afu6g08860::Chr6_A_fumigatus_Af293:2102987-2104972(+)	NA	greenyellow
Afu5g12860::Chr5_A_fumigatus_Af293:3365320-3367316(-)	NA	greenyellow
Afu4g08400::Chr4_A_fumigatus_Af293:2173563-2173949(-)	NA	greenyellow
Afu2g14490::Chr2_A_fumigatus_Af293:3788686-3790621(-)	NA	greenyellow
MSTRG.680::Chr6_A_fumigatus_Af293:3964-4716(+)	NA	greenyellow
Afu8g06630::Chr8_A_fumigatus_Af293:1609586-1610801(+)	NA	greenyellow
MSTRG.892::Chr7_A_fumigatus_Af293:1917094-1917943(+)	NA	greenyellow
Afu8g01385::Chr8_A_fumigatus_Af293:349615-350808(+)	NA	greenyellow
Afu5g09750::Chr5_A_fumigatus_Af293:2523279-2525983(-)	NA	greenyellow
Afu7g01930::Chr7_A_fumigatus_Af293:519575-521379(+)	NA	greenyellow
Afu4g08220::Chr4_A_fumigatus_Af293:2131599-2132107(-)	NA	greenyellow
Afu1g06140::Chr1_A_fumigatus_Af293:1772680-1774230(+)	NA	greenyellow
Afu8g02410::Chr8_A_fumigatus_Af293:646116-647316(+)	NA	greenyellow
Afu6g14540::Chr6_A_fumigatus_Af293:3701630-3703483(-)	NA	greenyellow
Afu2g03980::Chr2_A_fumigatus_Af293:1081852-1083935(+)	NA	greenyellow
Afu7g02550::Chr7_A_fumigatus_Af293:699491-701566(-)	NA	greenyellow
MSTRG.11::Chr1_A_fumigatus_Af293:110056-110652(+)	NA	greenyellow
Afu5g08030::Chr5_A_fumigatus_Af293:2031996-2033971(-)	NA	greenyellow
Afu1g05540::Chr1_A_fumigatus_Af293:1580626-1584699(+)	NA	greenyellow
Afu4g13540::Chr4_A_fumigatus_Af293:3543513-3545611(-)	NA	greenyellow
Afu2g17300::Chr2_A_fumigatus_Af293:4628629-4629784(-)	NA	greenyellow
Afu6g01970::Chr6_A_fumigatus_Af293:302022-306172(+)	NA	greenyellow
Afu5g10960::Chr5_A_fumigatus_Af293:2809673-2812038(-)	NA	greenyellow
MSTRG.852::Chr7_A_fumigatus_Af293:1051670-1052779(+)	NA	greenyellow
Afu1g00580::Chr1_A_fumigatus_Af293:184789-186475(+)	NA	greenyellow
Afu3g13550::Chr3_A_fumigatus_Af293:3579451-3580852(+)	NA	greenyellow
Afu8g00550::Chr8_A_fumigatus_Af293:129557-130624(-)	NA	greenyellow
Afu6g04880::Chr6_A_fumigatus_Af293:1148236-1151467(-)	NA	greenyellow
Afu1g01690::Chr1_A_fumigatus_Af293:521419-523981(-)	NA	greenyellow
Afu6g02030::Chr6_A_fumigatus_Af293:323984-325500(-)	NA	greenyellow
Afu5g04350::Chr5_A_fumigatus_Af293:1171853-1175631(-)	NA	greenyellow
Afu3g00190::Chr3_A_fumigatus_Af293:29314-30376(+)	NA	greenyellow
Afu2g14655::Chr2_A_fumigatus_Af293:3841212-3843349(-)	NA	greenyellow
Afu8g01930::Chr8_A_fumigatus_Af293:497879-501411(-)	NA	greenyellow
Afu4g00120::Chr4_A_fumigatus_Af293:27965-29627(-)	NA	greenyellow
Afu4g12700::Chr4_A_fumigatus_Af293:3332264-3333890(-)	NA	greenyellow
Afu7g00110::Chr7_A_fumigatus_Af293:19936-21346(-)	NA	greenyellow
Afu6g14530::Chr6_A_fumigatus_Af293:3699234-3700438(-)	NA	greenyellow
Afu1g17560::Chr1_A_fumigatus_Af293:4811005-4812946(+)	NA	greenyellow
MSTRG.353::Chr3_A_fumigatus_Af293:1013940-1014221(+)	NA	greenyellow
MSTRG.721::Chr6_A_fumigatus_Af293:972688-974657(-)	NA	greenyellow
Afu2g13500::Chr2_A_fumigatus_Af293:3501903-3504024(-)	NA	greenyellow
Afu1g06350::Chr1_A_fumigatus_Af293:1825085-1826608(+)	NA	greenyellow
Afu1g12130::Chr1_A_fumigatus_Af293:3208241-3209544(-)	NA	greenyellow
Afu1g00320::Chr1_A_fumigatus_Af293:87063-87900(+)	NA	greenyellow
Afu8g04500::Chr8_A_fumigatus_Af293:1018764-1021542(+)	NA	greenyellow
Afu4g12260::Chr4_A_fumigatus_Af293:3215069-3217384(-)	NA	greenyellow
Afu3g12610::Chr3_A_fumigatus_Af293:3345632-3346935(-)	NA	greenyellow
Afu7g06760::Chr7_A_fumigatus_Af293:1642253-1644206(-)	NA	greenyellow
Afu7g04360::Chr7_A_fumigatus_Af293:989871-991272(+)	NA	greenyellow
Afu5g12242::Chr5_A_fumigatus_Af293:3176974-3178446(-)	NA	greenyellow
Afu2g05630::Chr2_A_fumigatus_Af293:1569297-1573439(+)	NA	greenyellow
Afu1g14440::Chr1_A_fumigatus_Af293:3857865-3859484(+)	NA	greenyellow
Afu7g00970::Chr7_A_fumigatus_Af293:264094-265259(+)	NA	greenyellow
Afu3g14210::Chr3_A_fumigatus_Af293:3777265-3778143(-)	NA	greenyellow
Afu1g03290::Chr1_A_fumigatus_Af293:954897-955270(-)	NA	greenyellow
Afu2g01310::Chr2_A_fumigatus_Af293:316119-316971(-)	NA	greenyellow
Afu3g15200::Chr3_A_fumigatus_Af293:3995561-3998541(-)	NA	greenyellow
MSTRG.831::Chr7_A_fumigatus_Af293:420509-424061(+)	NA	greenyellow
Afu3g03460::Chr3_A_fumigatus_Af293:926975-928001(+)	NA	greenyellow
Afu3g01130::Chr3_A_fumigatus_Af293:264108-265105(-)	NA	greenyellow
Afu7g06750::Chr7_A_fumigatus_Af293:1640762-1641493(+)	NA	greenyellow
Afu5g01410::Chr5_A_fumigatus_Af293:369914-373565(+)	NA	greenyellow
Afu6g05320::Chr6_A_fumigatus_Af293:1273422-1275586(-)	NA	greenyellow
Afu2g17910::Chr2_A_fumigatus_Af293:4759878-4760453(+)	NA	greenyellow
Afu8g00420::Chr8_A_fumigatus_Af293:93112-95101(+)	NA	greenyellow
Afu8g05460::Chr8_A_fumigatus_Af293:1269549-1272928(-)	NA	greenyellow
Afu1g13210::Chr1_A_fumigatus_Af293:3507944-3509919(+)	NA	greenyellow
Afu5g03060::Chr5_A_fumigatus_Af293:828602-830127(+)	NA	greenyellow
MSTRG.842::Chr7_A_fumigatus_Af293:689979-690436(+)	NA	greenyellow
Afu6g07230::Chr6_A_fumigatus_Af293:1621063-1623368(-)	NA	greenyellow
Afu2g14360::Chr2_A_fumigatus_Af293:3760422-3762381(+)	NA	greenyellow
Afu6g14400::Chr6_A_fumigatus_Af293:3660019-3661430(-)	NA	greenyellow
Afu8g00410::Chr8_A_fumigatus_Af293:90298-92235(-)	NA	greenyellow
Afu2g05880::Chr2_A_fumigatus_Af293:1654973-1656856(+)	NA	greenyellow
Afu8g03970::Chr8_A_fumigatus_Af293:845020-850323(-)	NA	greenyellow
MSTRG.388::Chr3_A_fumigatus_Af293:1903933-1905146(+)	NA	greenyellow
Afu5g06940::Chr5_A_fumigatus_Af293:1717458-1719922(-)	NA	greenyellow
Afu3g02090::Chr3_A_fumigatus_Af293:512655-515725(+)	NA	greenyellow
Afu5g08420::Chr5_A_fumigatus_Af293:2136509-2140184(-)	NA	greenyellow
Afu6g08560::Chr6_A_fumigatus_Af293:2023129-2026507(+)	NA	greenyellow
MSTRG.216::Chr2_A_fumigatus_Af293:1751137-1751758(+)	NA	greenyellow
Afu7g00600::Chr7_A_fumigatus_Af293:167499-169381(+)	NA	greenyellow
Afu5g14570::Chr5_A_fumigatus_Af293:3778949-3780479(-)	NA	greenyellow
Afu6g02480::Chr6_A_fumigatus_Af293:467268-468508(-)	NA	greenyellow
MSTRG.616::Chr5_A_fumigatus_Af293:2182961-2183453(-)	NA	greenyellow
Afu8g05020::Chr8_A_fumigatus_Af293:1170626-1172429(-)	NA	greenyellow
Afu5g11950::Chr5_A_fumigatus_Af293:3090619-3091357(-)	NA	greenyellow
Afu5g09960::Chr5_A_fumigatus_Af293:2572462-2573860(-)	NA	greenyellow
Afu1g00590::Chr1_A_fumigatus_Af293:187843-192296(-)	NA	greenyellow
Afu6g14450::Chr6_A_fumigatus_Af293:3674139-3676286(-)	NA	greenyellow
Afu6g02900::Chr6_A_fumigatus_Af293:596807-599402(-)	NA	greenyellow
Afu1g14030::Chr1_A_fumigatus_Af293:3750021-3751785(+)	NA	greenyellow
Afu2g14470::Chr2_A_fumigatus_Af293:3784869-3786472(-)	NA	greenyellow
Afu8g06860::Chr8_A_fumigatus_Af293:1679128-1679983(-)	NA	greenyellow
Afu6g10670::Chr6_A_fumigatus_Af293:2638237-2640263(-)	NA	greenyellow
Afu2g12350::Chr2_A_fumigatus_Af293:3172667-3173770(+)	NA	greenyellow
Afu1g04420::Chr1_A_fumigatus_Af293:1257012-1257786(-)	NA	greenyellow
Afu3g00740::Chr3_A_fumigatus_Af293:166390-167794(-)	NA	greenyellow
Afu1g02760::Chr1_A_fumigatus_Af293:793138-798846(+)	NA	greenyellow
Afu1g01760::Chr1_A_fumigatus_Af293:541111-542746(-)	NA	greenyellow
MSTRG.13::Chr1_A_fumigatus_Af293:116344-116669(+)	NA	greenyellow
Afu1g00990::Chr1_A_fumigatus_Af293:347631-348512(-)	NA	greenyellow
Afu5g12990::Chr5_A_fumigatus_Af293:3406139-3408009(-)	NA	greenyellow
Afu3g07900::Chr3_A_fumigatus_Af293:1998413-2000090(-)	NA	greenyellow
Afu1g16400::Chr1_A_fumigatus_Af293:4448120-4449889(+)	NA	greenyellow
Afu1g12690::Chr1_A_fumigatus_Af293:3353252-3358100(-)	NA	greenyellow
Afu8g04160::Chr8_A_fumigatus_Af293:915463-920082(+)	NA	greenyellow
Afu8g00480::Chr8_A_fumigatus_Af293:103591-104850(+)	NA	greenyellow
Afu6g02780::Chr6_A_fumigatus_Af293:563854-567667(-)	NA	greenyellow
Afu5g06720::Chr5_A_fumigatus_Af293:1649087-1650863(-)	NA	greenyellow
Afu7g00440::Chr7_A_fumigatus_Af293:116883-118903(+)	NA	greenyellow
Afu8g02830::Chr8_A_fumigatus_Af293:766797-768418(+)	NA	greenyellow
Afu3g09900::Chr3_A_fumigatus_Af293:2537001-2541720(+)	NA	greenyellow
Afu5g08800::Chr5_A_fumigatus_Af293:2255185-2256928(+)	NA	greenyellow
Afu3g01460::Chr3_A_fumigatus_Af293:370332-372465(-)	NA	greenyellow
MSTRG.540::Chr4_A_fumigatus_Af293:3649182-3649854(+)	NA	greenyellow
MSTRG.744::Chr6_A_fumigatus_Af293:1565019-1565506(-)	NA	greenyellow
Afu2g14800::Chr2_A_fumigatus_Af293:3900662-3905542(-)	NA	greenyellow
Afu4g04090::Chr4_A_fumigatus_Af293:1150280-1152883(-)	NA	greenyellow
Afu2g08440::Chr2_A_fumigatus_Af293:2167645-2176342(+)	NA	greenyellow
Afu5g11310::Chr5_A_fumigatus_Af293:2895873-2900358(-)	NA	greenyellow
MSTRG.169::Chr2_A_fumigatus_Af293:269948-270724(-)	NA	greenyellow
Afu2g08830::Chr2_A_fumigatus_Af293:2269536-2271268(+)	NA	greenyellow
Afu4g10810::Chr4_A_fumigatus_Af293:2824926-2827686(+)	NA	greenyellow
Afu3g01880::Chr3_A_fumigatus_Af293:461395-463836(-)	NA	greenyellow
Afu2g09370::Chr2_A_fumigatus_Af293:2398201-2398747(-)	NA	greenyellow
Afu5g04400::Chr5_A_fumigatus_Af293:1190179-1192336(+)	NA	greenyellow
Afu3g03860::Chr3_A_fumigatus_Af293:1105930-1107240(+)	NA	greenyellow
MSTRG.200::Chr2_A_fumigatus_Af293:1414812-1416644(+)	NA	greenyellow
Afu3g13490::Chr3_A_fumigatus_Af293:3567261-3569736(+)	NA	greenyellow
Afu5g01005::Chr5_A_fumigatus_Af293:257648-265835(+)	NA	greenyellow
Afu1g16410::Chr1_A_fumigatus_Af293:4449941-4451945(-)	NA	greenyellow
Afu2g09950::Chr2_A_fumigatus_Af293:2552942-2553451(+)	NA	greenyellow
Afu2g05250::Chr2_A_fumigatus_Af293:1458287-1461192(-)	NA	greenyellow
Afu8g01090::Chr8_A_fumigatus_Af293:256753-257494(-)	NA	greenyellow
Afu5g13940::Chr5_A_fumigatus_Af293:3647367-3648558(-)	NA	greenyellow
Afu5g15040::Chr5_A_fumigatus_Af293:3891892-3895481(-)	NA	greenyellow
Afu1g17360::Chr1_A_fumigatus_Af293:4748848-4751591(+)	NA	greenyellow
Afu1g04870::Chr1_A_fumigatus_Af293:1377038-1380588(-)	NA	greenyellow
Afu1g00710::Chr1_A_fumigatus_Af293:243737-244896(-)	NA	greenyellow
Afu4g09710::Chr4_A_fumigatus_Af293:2527493-2532205(-)	NA	greenyellow
Afu2g17390::Chr2_A_fumigatus_Af293:4644391-4647386(+)	NA	greenyellow
Afu4g14080::Chr4_A_fumigatus_Af293:3682886-3684171(+)	NA	greenyellow
Afu1g10660::Chr1_A_fumigatus_Af293:2785175-2786900(-)	NA	greenyellow
Afu2g08820::Chr2_A_fumigatus_Af293:2267512-2268466(+)	NA	greenyellow
Afu6g09292::Chr6_A_fumigatus_Af293:2207443-2211883(-)	NA	greenyellow
Afu6g06930::Chr6_A_fumigatus_Af293:1530726-1532086(-)	NA	greenyellow
Afu4g11520::Chr4_A_fumigatus_Af293:3033903-3035732(-)	NA	greenyellow
Afu1g13990::Chr1_A_fumigatus_Af293:3741811-3743387(-)	NA	greenyellow
Afu3g14070::Chr3_A_fumigatus_Af293:3741652-3743632(-)	NA	greenyellow
Afu3g02130::Chr3_A_fumigatus_Af293:526401-527509(+)	NA	greenyellow
Afu4g00850::Chr4_A_fumigatus_Af293:228108-228584(-)	NA	greenyellow
Afu6g13590::Chr6_A_fumigatus_Af293:3457624-3458850(-)	NA	greenyellow
Afu5g00740::Chr5_A_fumigatus_Af293:208769-208994(-)	NA	greenyellow
Afu3g11440::Chr3_A_fumigatus_Af293:2999388-3002166(-)	NA	greenyellow
Afu5g08630::Chr5_A_fumigatus_Af293:2193883-2195908(-)	NA	greenyellow
Afu3g02220::Chr3_A_fumigatus_Af293:549906-550530(-)	NA	greenyellow
MSTRG.224::Chr2_A_fumigatus_Af293:2018203-2019770(+)	NA	greenyellow
Afu6g09040::Chr6_A_fumigatus_Af293:2148444-2150476(-)	NA	greenyellow
Afu2g17130::Chr2_A_fumigatus_Af293:4574217-4577133(+)	NA	greenyellow
Afu2g15380::Chr2_A_fumigatus_Af293:4067030-4069542(-)	NA	greenyellow
Afu1g17620::Chr1_A_fumigatus_Af293:4829038-4830043(-)	NA	greenyellow
Afu5g00490::Chr5_A_fumigatus_Af293:139560-141100(+)	NA	greenyellow
MSTRG.939::Chr8_A_fumigatus_Af293:1165550-1169984(+)	NA	greenyellow
Afu1g16030::Chr1_A_fumigatus_Af293:4358865-4360256(-)	NA	greenyellow
Afu4g01130::Chr4_A_fumigatus_Af293:305347-306179(+)	NA	greenyellow
Afu8g01960::Chr8_A_fumigatus_Af293:506870-509910(+)	NA	greenyellow
Afu6g06730::Chr6_A_fumigatus_Af293:1466654-1469248(-)	NA	greenyellow
MSTRG.342::Chr3_A_fumigatus_Af293:688537-689284(+)	NA	greenyellow
Afu1g00490::Chr1_A_fumigatus_Af293:153029-154648(+)	NA	greenyellow
MSTRG.344::Chr3_A_fumigatus_Af293:737514-738876(+)	NA	greenyellow
Afu1g04430::Chr1_A_fumigatus_Af293:1258606-1260266(+)	NA	greenyellow
Afu3g08570::Chr3_A_fumigatus_Af293:2196259-2199940(-)	NA	greenyellow
Afu6g09790::Chr6_A_fumigatus_Af293:2406651-2408006(+)	NA	greenyellow
Afu3g13200::Chr3_A_fumigatus_Af293:3500988-3503705(+)	NA	greenyellow
Afu3g01510::Chr3_A_fumigatus_Af293:383304-385921(-)	NA	greenyellow
MSTRG.789::Chr6_A_fumigatus_Af293:3054550-3054989(+)	NA	greenyellow
MSTRG.271::Chr2_A_fumigatus_Af293:3580351-3582225(-)	NA	greenyellow
Afu6g08470::Chr6_A_fumigatus_Af293:1988273-1991385(-)	NA	greenyellow
Afu3g04270::Chr3_A_fumigatus_Af293:1210790-1216049(+)	NA	greenyellow
Afu4g03520::Chr4_A_fumigatus_Af293:998518-999505(-)	NA	greenyellow
Afu1g14660::Chr1_A_fumigatus_Af293:3918020-3919287(+)	NA	greenyellow
