c(module, names(dataExprAfum)[moduleColors == module])
1	darkturquoise
2	Afu4g10460::Chr4_A_fumigatus_Af293:2741459-2743754(+)
3	Afu1g12190::Chr1_A_fumigatus_Af293:3220421-3221798(+)
4	Afu4g11340::Chr4_A_fumigatus_Af293:2976808-2978580(-)
5	Afu1g14570::Chr1_A_fumigatus_Af293:3892002-3895248(+)
6	Afu3g12400::Chr3_A_fumigatus_Af293:3265090-3268428(-)
7	Afu1g15790::Chr1_A_fumigatus_Af293:4265058-4267251(-)
8	Afu2g13380::Chr2_A_fumigatus_Af293:3453065-3455922(+)
9	Afu1g15720::Chr1_A_fumigatus_Af293:4249159-4253788(+)
10	Afu3g06010::Chr3_A_fumigatus_Af293:1475682-1477945(+)
11	Afu5g05590::Chr5_A_fumigatus_Af293:1302234-1305708(+)
12	Afu2g08480::Chr2_A_fumigatus_Af293:2187045-2189179(+)
13	Afu8g04940::Chr8_A_fumigatus_Af293:1138704-1141105(-)
14	Afu5g08950::Chr5_A_fumigatus_Af293:2296266-2299743(-)
15	Afu2g02160::Chr2_A_fumigatus_Af293:537409-539861(-)
16	Afu3g09330::Chr3_A_fumigatus_Af293:2361847-2363762(-)
17	Afu1g14510::Chr1_A_fumigatus_Af293:3877648-3880912(+)
18	Afu1g10460::Chr1_A_fumigatus_Af293:2725459-2727229(+)
19	Afu7g04410::Chr7_A_fumigatus_Af293:1003064-1005920(+)
20	Afu3g13070::Chr3_A_fumigatus_Af293:3467258-3468984(+)
21	Afu1g12000::Chr1_A_fumigatus_Af293:3168303-3171421(-)
22	Afu2g17170::Chr2_A_fumigatus_Af293:4586022-4590186(-)
23	Afu3g12490::Chr3_A_fumigatus_Af293:3299202-3301076(+)
24	Afu1g06730::Chr1_A_fumigatus_Af293:1925508-1927741(+)
25	Afu7g05470::Chr7_A_fumigatus_Af293:1320847-1322441(+)
26	Afu3g09070::Chr3_A_fumigatus_Af293:2310512-2312633(-)
27	Afu8g01840::Chr8_A_fumigatus_Af293:478320-479324(+)
28	Afu1g03740::Chr1_A_fumigatus_Af293:1082721-1085180(-)
29	Afu8g01830::Chr8_A_fumigatus_Af293:476325-477914(+)
30	Afu3g13350::Chr3_A_fumigatus_Af293:3536837-3538670(+)
31	Afu3g04160::Chr3_A_fumigatus_Af293:1173243-1175172(-)
32	Afu2g15700::Chr2_A_fumigatus_Af293:4144780-4147874(-)
33	Afu4g03950::Chr4_A_fumigatus_Af293:1109881-1111753(-)
34	Afu2g03340::Chr2_A_fumigatus_Af293:877955-879395(+)
35	Afu6g03580::Chr6_A_fumigatus_Af293:778533-782464(-)
36	Afu2g16750::Chr2_A_fumigatus_Af293:4468338-4470211(+)
37	Afu1g16270::Chr1_A_fumigatus_Af293:4422994-4424941(-)
38	Afu3g05320::Chr3_A_fumigatus_Af293:1283281-1285149(+)
39	Afu1g01140::Chr1_A_fumigatus_Af293:405927-406686(-)
40	Afu8g01450::Chr8_A_fumigatus_Af293:365684-367232(+)
41	Afu5g07680::Chr5_A_fumigatus_Af293:1916986-1919038(+)
42	Afu1g03750::Chr1_A_fumigatus_Af293:1085479-1087952(-)
43	Afu5g11860::Chr5_A_fumigatus_Af293:3059961-3061033(-)
44	Afu4g06360::Chr4_A_fumigatus_Af293:1630809-1632062(+)
45	Afu5g00260::Chr5_A_fumigatus_Af293:63858-64734(+)
46	Afu6g08790::Chr6_A_fumigatus_Af293:2082728-2085646(+)
47	Afu3g06070::Chr3_A_fumigatus_Af293:1492189-1496153(+)
48	Afu5g02120::Chr5_A_fumigatus_Af293:535309-538537(+)
49	Afu1g03440::Chr1_A_fumigatus_Af293:997178-998907(-)
50	Afu1g02680::Chr1_A_fumigatus_Af293:777141-780934(+)
51	Afu5g06510::Chr5_A_fumigatus_Af293:1588932-1590963(-)
52	Afu2g04080::Chr2_A_fumigatus_Af293:1117447-1119468(+)
53	Afu3g06830::Chr3_A_fumigatus_Af293:1701030-1702759(+)
54	Afu6g02980::Chr6_A_fumigatus_Af293:618874-620532(+)
55	Afu1g14970::Chr1_A_fumigatus_Af293:4020777-4022375(-)
56	Afu6g09990::Chr6_A_fumigatus_Af293:2458893-2463138(+)
57	Afu7g01710::Chr7_A_fumigatus_Af293:456848-459771(-)
58	Afu1g10295::Chr1_A_fumigatus_Af293:2649052-2655070(-)
59	Afu6g03040::Chr6_A_fumigatus_Af293:632564-635675(+)
60	Afu1g16230::Chr1_A_fumigatus_Af293:4413479-4415244(-)
61	Afu1g11960::Chr1_A_fumigatus_Af293:3157240-3161262(+)
62	Afu5g07800::Chr5_A_fumigatus_Af293:1954042-1956749(+)
63	Afu4g08820::Chr4_A_fumigatus_Af293:2291121-2293551(-)
64	Afu7g01800::Chr7_A_fumigatus_Af293:477653-480419(+)
65	Afu4g06160::Chr4_A_fumigatus_Af293:1580190-1583864(+)
66	Afu1g03540::Chr1_A_fumigatus_Af293:1021805-1025199(-)
67	Afu4g12140::Chr4_A_fumigatus_Af293:3186893-3188832(+)
68	Afu6g01910::Chr6_A_fumigatus_Af293:270944-272258(-)
69	Afu4g07690::Chr4_A_fumigatus_Af293:2000933-2003628(+)
70	Afu1g08820::Chr1_A_fumigatus_Af293:2286925-2288616(+)
71	Afu6g05170::Chr6_A_fumigatus_Af293:1243224-1244319(-)
72	Afu2g04310::Chr2_A_fumigatus_Af293:1188082-1189815(-)
73	Afu6g12170::Chr6_A_fumigatus_Af293:3059929-3061269(+)
74	Afu2g05610::Chr2_A_fumigatus_Af293:1558178-1563688(-)
75	Afu1g02600::Chr1_A_fumigatus_Af293:757553-760572(-)
76	Afu3g06530::Chr3_A_fumigatus_Af293:1616550-1619232(-)
77	Afu2g13530::Chr2_A_fumigatus_Af293:3517091-3521405(+)
78	Afu5g09640::Chr5_A_fumigatus_Af293:2490060-2492299(+)
79	Afu5g13150::Chr5_A_fumigatus_Af293:3447598-3450836(+)
80	Afu5g01940::Chr5_A_fumigatus_Af293:493698-498757(+)
81	Afu7g03690::Chr7_A_fumigatus_Af293:790921-792490(+)
82	Afu6g08360::Chr6_A_fumigatus_Af293:1957687-1959214(+)
83	Afu7g05220::Chr7_A_fumigatus_Af293:1232047-1234390(-)
84	Afu6g01900::Chr6_A_fumigatus_Af293:267597-269441(+)
85	Afu3g14000::Chr3_A_fumigatus_Af293:3719685-3721905(-)
86	Afu8g02315::Chr8_A_fumigatus_Af293:617742-619630(+)
87	Afu2g16600::Chr2_A_fumigatus_Af293:4430580-4436880(-)
88	Afu4g06970::Chr4_A_fumigatus_Af293:1801969-1804581(+)
89	Afu8g05280::Chr8_A_fumigatus_Af293:1229414-1232905(+)
90	Afu1g06090::Chr1_A_fumigatus_Af293:1761866-1765211(+)
91	Afu1g03410::Chr1_A_fumigatus_Af293:991798-993884(-)
92	Afu4g10750::Chr4_A_fumigatus_Af293:2797271-2798362(+)
93	Afu3g00210::Chr3_A_fumigatus_Af293:42123-44758(+)
94	Afu1g06360::Chr1_A_fumigatus_Af293:1826713-1828097(+)
95	Afu3g09020::Chr3_A_fumigatus_Af293:2299950-2301969(+)
96	Afu2g06080::Chr2_A_fumigatus_Af293:1718678-1722146(-)
97	Afu5g05820::Chr5_A_fumigatus_Af293:1353289-1355569(-)
98	Afu8g02730::Chr8_A_fumigatus_Af293:730898-733747(+)
99	Afu2g14510::Chr2_A_fumigatus_Af293:3792881-3797163(-)
100	Afu2g04430::Chr2_A_fumigatus_Af293:1217705-1220778(+)
101	Afu4g07230::Chr4_A_fumigatus_Af293:1875952-1878037(-)
102	Afu5g05705::Chr5_A_fumigatus_Af293:1328344-1330077(+)
103	Afu1g01980::Chr1_A_fumigatus_Af293:589023-590269(+)
104	Afu1g09770::Chr1_A_fumigatus_Af293:2531065-2536915(+)
105	Afu6g13290::Chr6_A_fumigatus_Af293:3371146-3375526(+)
106	Afu4g07710::Chr4_A_fumigatus_Af293:2013573-2018241(+)
107	Afu4g13230::Chr4_A_fumigatus_Af293:3465686-3467387(+)
108	Afu6g06680::Chr6_A_fumigatus_Af293:1453681-1455775(-)
109	Afu5g06750::Chr5_A_fumigatus_Af293:1659697-1665004(+)
110	Afu4g06670::Chr4_A_fumigatus_Af293:1726810-1728795(-)
111	Afu5g05670::Chr5_A_fumigatus_Af293:1319994-1322347(-)
112	Afu2g12390::Chr2_A_fumigatus_Af293:3183209-3185087(+)
113	Afu8g04170::Chr8_A_fumigatus_Af293:920883-923533(-)
114	Afu2g05490::Chr2_A_fumigatus_Af293:1534497-1535686(-)
115	Afu1g15620::Chr1_A_fumigatus_Af293:4219205-4221360(+)
116	Afu4g07040::Chr4_A_fumigatus_Af293:1825982-1827407(+)
117	Afu5g10890::Chr5_A_fumigatus_Af293:2785358-2788842(-)
118	Afu7g01220::Chr7_A_fumigatus_Af293:319426-321756(-)
119	Afu3g02340::Chr3_A_fumigatus_Af293:582564-583749(-)
120	Afu7g02100::Chr7_A_fumigatus_Af293:561909-564151(+)
121	Afu5g13610::Chr5_A_fumigatus_Af293:3571973-3572617(-)
122	Afu3g04250::Chr3_A_fumigatus_Af293:1206676-1208171(-)
123	Afu6g02550::Chr6_A_fumigatus_Af293:483779-485690(+)
124	Afu2g10010::Chr2_A_fumigatus_Af293:2564206-2567853(+)
125	Afu3g01190::Chr3_A_fumigatus_Af293:284005-285383(-)
126	Afu4g11480::Chr4_A_fumigatus_Af293:3019416-3021834(-)
127	Afu5g13360::Chr5_A_fumigatus_Af293:3514874-3517467(-)
128	Afu4g03370::Chr4_A_fumigatus_Af293:964445-967636(-)
129	Afu1g01130::Chr1_A_fumigatus_Af293:404755-405535(+)
130	Afu6g10810::Chr6_A_fumigatus_Af293:2669580-2672089(+)
131	Afu6g06870::Chr6_A_fumigatus_Af293:1511029-1514458(-)
132	Afu7g02500::Chr7_A_fumigatus_Af293:680931-683084(-)
133	Afu8g01380::Chr8_A_fumigatus_Af293:341506-345445(-)
134	Afu5g00155::Chr5_A_fumigatus_Af293:19083-21497(-)
135	Afu1g11450::Chr1_A_fumigatus_Af293:3016277-3025035(-)
136	Afu2g07570::Chr2_A_fumigatus_Af293:1934553-1936225(+)
137	Afu6g05250::Chr6_A_fumigatus_Af293:1256505-1257480(+)
138	Afu4g07260::Chr4_A_fumigatus_Af293:1882639-1886990(+)
139	Afu2g03330::Chr2_A_fumigatus_Af293:876740-877697(+)
140	Afu7g01470::Chr7_A_fumigatus_Af293:381033-382349(+)
141	Afu1g13200::Chr1_A_fumigatus_Af293:3502381-3507329(+)
142	Afu2g01860::Chr2_A_fumigatus_Af293:464010-465288(+)
143	Afu1g13940::Chr1_A_fumigatus_Af293:3727466-3730528(+)
144	Afu3g11710::Chr3_A_fumigatus_Af293:3075880-3077527(-)
