c(module, names(dataExprAfum)[moduleColors == module])
1	tan
2	Afu3g06320::Chr3_A_fumigatus_Af293:1565212-1566647(-)
3	Afu5g02340::Chr5_A_fumigatus_Af293:600036-603026(+)
4	Afu3g06950::Chr3_A_fumigatus_Af293:1739691-1741530(-)
5	Afu4g11850::Chr4_A_fumigatus_Af293:3127680-3131301(-)
6	Afu2g07440::Chr2_A_fumigatus_Af293:1903253-1904201(+)
7	Afu2g13290::Chr2_A_fumigatus_Af293:3427846-3433557(+)
8	Afu8g02660::Chr8_A_fumigatus_Af293:709713-711675(+)
9	Afu1g04370::Chr1_A_fumigatus_Af293:1245485-1247136(+)
10	Afu2g03740::Chr2_A_fumigatus_Af293:998251-999126(-)
11	Afu2g03155::Chr2_A_fumigatus_Af293:828316-829127(-)
12	Afu7g03980::Chr7_A_fumigatus_Af293:893751-895260(+)
13	Afu6g12530::Chr6_A_fumigatus_Af293:3161895-3164722(+)
14	Afu2g09490::Chr2_A_fumigatus_Af293:2422678-2427552(+)
15	Afu3g04260::Chr3_A_fumigatus_Af293:1208614-1210403(+)
16	Afu6g13600::Chr6_A_fumigatus_Af293:3459179-3461932(+)
17	Afu5g02420::Chr5_A_fumigatus_Af293:623487-625330(+)
18	Afu1g13880::Chr1_A_fumigatus_Af293:3707193-3709209(+)
19	Afu5g04000::Chr5_A_fumigatus_Af293:1066731-1068749(+)
20	Afu2g03930::Chr2_A_fumigatus_Af293:1060400-1063981(+)
21	Afu6g02740::Chr6_A_fumigatus_Af293:556545-558600(+)
22	Afu1g14220::Chr1_A_fumigatus_Af293:3798172-3799920(-)
23	Afu5g12310::Chr5_A_fumigatus_Af293:3189664-3191386(+)
24	Afu2g16090::Chr2_A_fumigatus_Af293:4259988-4262789(-)
25	Afu3g12870::Chr3_A_fumigatus_Af293:3420106-3422476(+)
26	Afu2g05550::Chr2_A_fumigatus_Af293:1549331-1550996(+)
27	Afu5g06590::Chr5_A_fumigatus_Af293:1609097-1612152(+)
28	Afu7g04500::Chr7_A_fumigatus_Af293:1025712-1027349(+)
29	Afu7g05240::Chr7_A_fumigatus_Af293:1241669-1243296(+)
30	Afu5g10670::Chr5_A_fumigatus_Af293:2733262-2734760(+)
31	Afu5g07560::Chr5_A_fumigatus_Af293:1889790-1891689(-)
32	Afu1g03950::Chr1_A_fumigatus_Af293:1139784-1142517(+)
33	Afu5g03470::Chr5_A_fumigatus_Af293:937658-939570(+)
34	Afu1g01990::Chr1_A_fumigatus_Af293:590273-592166(-)
35	Afu4g10000::Chr4_A_fumigatus_Af293:2590322-2593397(-)
36	Afu2g05930::Chr2_A_fumigatus_Af293:1666229-1668765(-)
37	Afu3g13100::Chr3_A_fumigatus_Af293:3476126-3479292(+)
38	Afu4g07140::Chr4_A_fumigatus_Af293:1853306-1857890(-)
39	Afu5g09560::Chr5_A_fumigatus_Af293:2467724-2468855(-)
40	Afu3g07810::Chr3_A_fumigatus_Af293:1967413-1970477(-)
41	Afu3g07945::Chr3_A_fumigatus_Af293:2019459-2020651(+)
42	Afu6g09130::Chr6_A_fumigatus_Af293:2167500-2168724(-)
43	Afu4g06350::Chr4_A_fumigatus_Af293:1628897-1630750(-)
44	Afu3g12710::Chr3_A_fumigatus_Af293:3374785-3376852(+)
45	Afu1g06230::Chr1_A_fumigatus_Af293:1795799-1797485(+)
46	Afu7g02060::Chr7_A_fumigatus_Af293:550306-554805(+)
47	Afu2g12880::Chr2_A_fumigatus_Af293:3302036-3304951(-)
48	Afu5g02840::Chr5_A_fumigatus_Af293:750812-753776(-)
49	Afu5g07270::Chr5_A_fumigatus_Af293:1810672-1811959(+)
50	Afu5g08280::Chr5_A_fumigatus_Af293:2102602-2104282(+)
51	Afu2g14180::Chr2_A_fumigatus_Af293:3708762-3714379(-)
52	Afu7g01850::Chr7_A_fumigatus_Af293:498447-501323(-)
53	Afu3g06310::Chr3_A_fumigatus_Af293:1563860-1565155(-)
54	Afu2g17200::Chr2_A_fumigatus_Af293:4598797-4601886(+)
55	Afu6g04730::Chr6_A_fumigatus_Af293:1109323-1112290(+)
56	Afu2g13980::Chr2_A_fumigatus_Af293:3651766-3653885(-)
57	MSTRG.600::Chr5_A_fumigatus_Af293:1711209-1712344(+)
58	Afu7g05210::Chr7_A_fumigatus_Af293:1229062-1231495(-)
59	Afu6g11380::Chr6_A_fumigatus_Af293:2821853-2823196(+)
60	Afu5g05710::Chr5_A_fumigatus_Af293:1330301-1332516(+)
61	Afu4g06250::Chr4_A_fumigatus_Af293:1610043-1612266(-)
62	Afu1g06790::Chr1_A_fumigatus_Af293:1936988-1941009(+)
63	Afu4g01010::Chr4_A_fumigatus_Af293:272134-275735(+)
64	Afu1g16940::Chr1_A_fumigatus_Af293:4628316-4631002(-)
65	Afu2g05950::Chr2_A_fumigatus_Af293:1670844-1671953(-)
66	Afu2g11810::Chr2_A_fumigatus_Af293:3041943-3046392(+)
67	Afu1g02630::Chr1_A_fumigatus_Af293:764136-766009(+)
68	Afu2g08040::Chr2_A_fumigatus_Af293:2064983-2068747(+)
69	Afu6g04590::Chr6_A_fumigatus_Af293:1065582-1066707(+)
70	Afu6g10460::Chr6_A_fumigatus_Af293:2591331-2592773(-)
71	Afu2g10690::Chr2_A_fumigatus_Af293:2734762-2737849(+)
72	Afu3g10800::Chr3_A_fumigatus_Af293:2806791-2811550(+)
73	Afu2g02210::Chr2_A_fumigatus_Af293:557511-558919(+)
74	Afu7g01300::Chr7_A_fumigatus_Af293:339473-341005(-)
75	Afu3g09340::Chr3_A_fumigatus_Af293:2363881-2365345(+)
76	Afu4g11230::Chr4_A_fumigatus_Af293:2935519-2938003(-)
77	Afu6g10320::Chr6_A_fumigatus_Af293:2550191-2552542(-)
78	Afu2g16040::Chr2_A_fumigatus_Af293:4243211-4249058(+)
79	Afu2g16400::Chr2_A_fumigatus_Af293:4347191-4350532(-)
80	Afu2g04780::Chr2_A_fumigatus_Af293:1314331-1316651(-)
81	Afu6g07530::Chr6_A_fumigatus_Af293:1709737-1711502(-)
82	Afu2g10790::Chr2_A_fumigatus_Af293:2769477-2771881(+)
83	Afu4g10550::Chr4_A_fumigatus_Af293:2761752-2764707(+)
84	Afu1g13900::Chr1_A_fumigatus_Af293:3711535-3717052(+)
85	Afu6g06770::Chr6_A_fumigatus_Af293:1478616-1481375(-)
86	Afu1g11150::Chr1_A_fumigatus_Af293:2936304-2937841(-)
87	Afu1g04240::Chr1_A_fumigatus_Af293:1204236-1207508(+)
88	Afu2g11380::Chr2_A_fumigatus_Af293:2930396-2931650(-)
89	Afu5g07810::Chr5_A_fumigatus_Af293:1957622-1960444(-)
90	Afu4g08320::Chr4_A_fumigatus_Af293:2155428-2157737(-)
91	MSTRG.875::Chr7_A_fumigatus_Af293:1754025-1755175(+)
92	Afu7g04130::Chr7_A_fumigatus_Af293:931444-933615(+)
93	Afu2g03610::Chr2_A_fumigatus_Af293:958856-961023(-)
94	Afu3g05860::Chr3_A_fumigatus_Af293:1430733-1432351(+)
95	Afu4g07220::Chr4_A_fumigatus_Af293:1873274-1875950(+)
96	Afu6g05330::Chr6_A_fumigatus_Af293:1275616-1276959(+)
97	Afu4g08110::Chr4_A_fumigatus_Af293:2106250-2109389(-)
98	Afu5g14050::Chr5_A_fumigatus_Af293:3672791-3675072(-)
99	Afu2g01480::Chr2_A_fumigatus_Af293:351233-352275(+)
100	Afu1g15500::Chr1_A_fumigatus_Af293:4188080-4196719(+)
101	Afu3g13810::Chr3_A_fumigatus_Af293:3644817-3646533(-)
102	Afu3g05840::Chr3_A_fumigatus_Af293:1427314-1428797(-)
103	Afu6g06430::Chr6_A_fumigatus_Af293:1385317-1386284(+)
104	Afu2g15590::Chr2_A_fumigatus_Af293:4110198-4115763(+)
105	Afu6g04330::Chr6_A_fumigatus_Af293:982263-986076(-)
106	Afu2g01980::Chr2_A_fumigatus_Af293:493916-496558(-)
107	Afu8g05630::Chr8_A_fumigatus_Af293:1329495-1334304(+)
108	Afu3g11310::Chr3_A_fumigatus_Af293:2959787-2961592(-)
109	Afu1g14180::Chr1_A_fumigatus_Af293:3788801-3791796(-)
110	Afu5g12270::Chr5_A_fumigatus_Af293:3185426-3186774(+)
111	Afu2g12890::Chr2_A_fumigatus_Af293:3305162-3306840(+)
112	Afu3g12700::Chr3_A_fumigatus_Af293:3371329-3374319(+)
113	Afu5g09940::Chr5_A_fumigatus_Af293:2568135-2569680(+)
114	Afu3g04200::Chr3_A_fumigatus_Af293:1180180-1182424(+)
115	Afu6g13640::Chr6_A_fumigatus_Af293:3467823-3470998(+)
116	Afu5g11050::Chr5_A_fumigatus_Af293:2830352-2832629(+)
117	Afu4g00650::Chr4_A_fumigatus_Af293:174497-177786(-)
118	Afu2g12120::Chr2_A_fumigatus_Af293:3113376-3115042(-)
119	Afu1g07140::Chr1_A_fumigatus_Af293:2022555-2025174(-)
120	Afu3g09320::Chr3_A_fumigatus_Af293:2359365-2361249(+)
121	Afu1g09200::Chr1_A_fumigatus_Af293:2388076-2390464(+)
122	Afu2g09100::Chr2_A_fumigatus_Af293:2331762-2332930(+)
123	Afu1g09210::Chr1_A_fumigatus_Af293:2390848-2393497(-)
124	MSTRG.725::Chr6_A_fumigatus_Af293:1039624-1040027(+)
125	Afu7g05520::Chr7_A_fumigatus_Af293:1333154-1336146(-)
126	Afu3g09880::Chr3_A_fumigatus_Af293:2530116-2532411(+)
127	Afu7g01550::Chr7_A_fumigatus_Af293:403539-406856(-)
128	Afu1g02010::Chr1_A_fumigatus_Af293:595469-598510(-)
129	Afu4g07240::Chr4_A_fumigatus_Af293:1878161-1881163(-)
130	Afu1g16010::Chr1_A_fumigatus_Af293:4354852-4356015(+)
131	Afu4g07570::Chr4_A_fumigatus_Af293:1967729-1969340(+)
132	Afu3g06400::Chr3_A_fumigatus_Af293:1576335-1578242(-)
133	Afu3g13380::Chr3_A_fumigatus_Af293:3541423-3542838(+)
134	Afu6g14690::Chr6_A_fumigatus_Af293:3771089-3772421(+)
135	Afu6g08580::Chr6_A_fumigatus_Af293:2030405-2032690(+)
136	Afu5g02720::Chr5_A_fumigatus_Af293:710323-714412(+)
137	Afu6g08300::Chr6_A_fumigatus_Af293:1940687-1944815(+)
138	Afu1g09840::Chr1_A_fumigatus_Af293:2552194-2554479(-)
139	Afu6g08170::Chr6_A_fumigatus_Af293:1900329-1903729(-)
140	Afu4g07500::Chr4_A_fumigatus_Af293:1947033-1949524(-)
141	Afu4g08930::Chr4_A_fumigatus_Af293:2318251-2320974(-)
142	Afu5g12850::Chr5_A_fumigatus_Af293:3363319-3364625(-)
143	Afu1g10990::Chr1_A_fumigatus_Af293:2871867-2873099(-)
144	Afu6g14260::Chr6_A_fumigatus_Af293:3628599-3630031(+)
145	Afu2g13020::Chr2_A_fumigatus_Af293:3339271-3341082(-)
146	Afu4g08190::Chr4_A_fumigatus_Af293:2125865-2128282(-)
147	Afu1g06880::Chr1_A_fumigatus_Af293:1958127-1959156(-)
148	Afu4g10440::Chr4_A_fumigatus_Af293:2737139-2738588(-)
149	Afu3g10890::Chr3_A_fumigatus_Af293:2834337-2835977(+)
150	Afu1g15140::Chr1_A_fumigatus_Af293:4069694-4073246(-)
151	Afu3g02370::Chr3_A_fumigatus_Af293:583872-585636(-)
152	Afu6g02730::Chr6_A_fumigatus_Af293:550586-552628(+)
153	Afu2g05420::Chr2_A_fumigatus_Af293:1518007-1520305(-)
154	Afu1g05150::Chr1_A_fumigatus_Af293:1475212-1477384(-)
155	Afu2g03420::Chr2_A_fumigatus_Af293:899466-901674(+)
156	Afu1g02210::Chr1_A_fumigatus_Af293:652437-653986(-)
157	Afu6g12320::Chr6_A_fumigatus_Af293:3099031-3100486(-)
158	Afu5g06280::Chr5_A_fumigatus_Af293:1507438-1509072(-)
159	Afu2g02275::Chr2_A_fumigatus_Af293:575130-576214(-)
160	Afu1g14990::Chr1_A_fumigatus_Af293:4025991-4028837(+)
161	Afu5g01760::Chr5_A_fumigatus_Af293:448245-450547(-)
162	Afu4g07360::Chr4_A_fumigatus_Af293:1911525-1914475(-)
163	Afu7g06020::Chr7_A_fumigatus_Af293:1472677-1477744(+)
164	Afu1g13500::Chr1_A_fumigatus_Af293:3588582-3592481(-)
165	Afu6g04720::Chr6_A_fumigatus_Af293:1105713-1108786(-)
166	Afu5g02290::Chr5_A_fumigatus_Af293:589448-592756(-)
167	Afu1g07630::Chr1_A_fumigatus_Af293:2152418-2154894(+)
168	Afu7g01420::Chr7_A_fumigatus_Af293:368084-371114(+)
169	Afu1g05940::Chr1_A_fumigatus_Af293:1713459-1714382(+)
170	Afu4g05880::Chr4_A_fumigatus_Af293:1502236-1504390(+)
171	Afu1g15030::Chr1_A_fumigatus_Af293:4040854-4043685(+)
172	Afu3g00770::Chr3_A_fumigatus_Af293:171266-172277(-)
173	Afu8g04640::Chr8_A_fumigatus_Af293:1060694-1061906(-)
174	Afu5g06560::Chr5_A_fumigatus_Af293:1600627-1603291(+)
175	Afu1g15900::Chr1_A_fumigatus_Af293:4301478-4307940(+)
176	Afu3g13280::Chr3_A_fumigatus_Af293:3523499-3525790(+)
177	Afu5g11730::Chr5_A_fumigatus_Af293:3019084-3020686(+)
178	Afu2g15915::Chr2_A_fumigatus_Af293:4210728-4211826(-)
179	Afu5g08350::Chr5_A_fumigatus_Af293:2122484-2123604(-)
180	Afu5g11670::Chr5_A_fumigatus_Af293:2996862-3000700(+)
181	Afu2g10070::Chr2_A_fumigatus_Af293:2576178-2580789(+)
182	Afu5g01430::Chr5_A_fumigatus_Af293:375181-376001(-)
183	Afu4g04480::Chr4_A_fumigatus_Af293:1266813-1267580(+)
184	Afu6g04610::Chr6_A_fumigatus_Af293:1074116-1075473(+)
185	Afu2g17050::Chr2_A_fumigatus_Af293:4555987-4558066(-)
186	Afu3g13260::Chr3_A_fumigatus_Af293:3518384-3521305(+)
187	Afu2g02320::Chr2_A_fumigatus_Af293:583816-586013(-)
188	Afu2g10850::Chr2_A_fumigatus_Af293:2786466-2790620(-)
189	Afu1g04460::Chr1_A_fumigatus_Af293:1267481-1270480(-)
190	Afu5g06010::Chr5_A_fumigatus_Af293:1424187-1425309(-)
191	Afu4g09120::Chr4_A_fumigatus_Af293:2381267-2384831(+)
192	Afu1g01830::Chr1_A_fumigatus_Af293:553141-554202(+)
193	Afu1g15840::Chr1_A_fumigatus_Af293:4281112-4282822(+)
194	Afu1g04400::Chr1_A_fumigatus_Af293:1252213-1253157(-)
195	Afu8g05430::Chr8_A_fumigatus_Af293:1263378-1265146(-)
196	Afu7g05460::Chr7_A_fumigatus_Af293:1319179-1320835(+)
197	Afu1g14110::Chr1_A_fumigatus_Af293:3772421-3774027(-)
198	Afu5g12210::Chr5_A_fumigatus_Af293:3164261-3167617(-)
199	Afu6g11070::Chr6_A_fumigatus_Af293:2727895-2730328(+)
200	Afu6g04260::Chr6_A_fumigatus_Af293:956884-958005(+)
201	Afu2g08340::Chr2_A_fumigatus_Af293:2144508-2145756(-)
202	Afu5g00210::Chr5_A_fumigatus_Af293:46425-46989(-)
203	Afu5g13090::Chr5_A_fumigatus_Af293:3437487-3438966(+)
204	Afu5g08880::Chr5_A_fumigatus_Af293:2278305-2279992(-)
205	Afu6g08240::Chr6_A_fumigatus_Af293:1920365-1928291(-)
206	Afu5g04220::Chr5_A_fumigatus_Af293:1124551-1126667(-)
207	Afu1g12530::Chr1_A_fumigatus_Af293:3300672-3302146(-)
208	Afu1g06220::Chr1_A_fumigatus_Af293:1794113-1795628(-)
209	Afu1g10860::Chr1_A_fumigatus_Af293:2830242-2833874(+)
210	Afu3g12460::Chr3_A_fumigatus_Af293:3288547-3292095(+)
211	Afu7g04250::Chr7_A_fumigatus_Af293:957621-959390(-)
212	Afu2g13570::Chr2_A_fumigatus_Af293:3528270-3532526(-)
213	Afu2g14030::Chr2_A_fumigatus_Af293:3672022-3674822(-)
214	Afu2g11290::Chr2_A_fumigatus_Af293:2909518-2910595(-)
215	Afu2g16760::Chr2_A_fumigatus_Af293:4470420-4471680(-)
216	Afu6g07360::Chr6_A_fumigatus_Af293:1659982-1661111(-)
217	MSTRG.761::Chr6_A_fumigatus_Af293:2193468-2193917(+)
218	Afu2g14950::Chr2_A_fumigatus_Af293:3938972-3941225(-)
219	Afu7g05390::Chr7_A_fumigatus_Af293:1295456-1297635(+)
220	Afu1g03660::Chr1_A_fumigatus_Af293:1063292-1065341(+)
221	Afu3g09600::Chr3_A_fumigatus_Af293:2440513-2442368(+)
222	Afu4g03970::Chr4_A_fumigatus_Af293:1118190-1121899(-)
223	Afu1g15740::Chr1_A_fumigatus_Af293:4255489-4256804(+)
224	Afu7g04860::Chr7_A_fumigatus_Af293:1138793-1140864(+)
225	Afu7g02610::Chr7_A_fumigatus_Af293:715564-717824(-)
226	Afu6g04440::Chr6_A_fumigatus_Af293:1013645-1016149(+)
227	Afu4g11500::Chr4_A_fumigatus_Af293:3029322-3030791(+)
228	Afu5g08500::Chr5_A_fumigatus_Af293:2158910-2160681(+)
229	Afu1g16330::Chr1_A_fumigatus_Af293:4435276-4437643(+)
230	Afu4g07540::Chr4_A_fumigatus_Af293:1956324-1959547(+)
231	Afu5g09190::Chr5_A_fumigatus_Af293:2355829-2360928(-)
232	Afu7g07050::Chr7_A_fumigatus_Af293:1725685-1726402(-)
233	Afu4g12110::Chr4_A_fumigatus_Af293:3183097-3184516(+)
234	Afu1g10440::Chr1_A_fumigatus_Af293:2718184-2720878(+)
235	Afu7g02210::Chr7_A_fumigatus_Af293:591243-592971(+)
236	Afu1g10560::Chr1_A_fumigatus_Af293:2746553-2748792(-)
237	Afu6g07330::Chr6_A_fumigatus_Af293:1651311-1652833(-)
238	Afu3g09040::Chr3_A_fumigatus_Af293:2303675-2304867(-)
239	Afu2g16650::Chr2_A_fumigatus_Af293:4449199-4451137(-)
240	Afu5g11590::Chr5_A_fumigatus_Af293:2971555-2975339(-)
241	Afu3g14350::Chr3_A_fumigatus_Af293:3808971-3811641(+)
242	Afu5g02070::Chr5_A_fumigatus_Af293:528781-529693(-)
243	Afu5g12790::Chr5_A_fumigatus_Af293:3353313-3355167(-)
244	Afu1g06190::Chr1_A_fumigatus_Af293:1787232-1789495(-)
245	Afu5g13520::Chr5_A_fumigatus_Af293:3547912-3551862(+)
246	Afu5g01850::Chr5_A_fumigatus_Af293:470726-472720(+)
247	Afu8g04220::Chr8_A_fumigatus_Af293:934243-937083(-)
248	Afu3g08990::Chr3_A_fumigatus_Af293:2296867-2299835(-)
249	Afu6g07290::Chr6_A_fumigatus_Af293:1641024-1642634(+)
250	Afu6g06700::Chr6_A_fumigatus_Af293:1458380-1459544(-)
251	Afu1g05410::Chr1_A_fumigatus_Af293:1550838-1553410(-)
252	Afu3g07700::Chr3_A_fumigatus_Af293:1942737-1944810(-)
253	Afu3g05490::Chr3_A_fumigatus_Af293:1322286-1325640(+)
254	Afu2g03140::Chr2_A_fumigatus_Af293:822506-823983(-)
255	Afu2g17060::Chr2_A_fumigatus_Af293:4558257-4558935(+)
256	Afu3g13400::Chr3_A_fumigatus_Af293:3545671-3548052(+)
257	Afu5g09320::Chr5_A_fumigatus_Af293:2397406-2401332(-)
258	Afu2g03000::Chr2_A_fumigatus_Af293:768004-771004(+)
259	Afu2g12250::Chr2_A_fumigatus_Af293:3154107-3155115(-)
260	Afu6g11120::Chr6_A_fumigatus_Af293:2740295-2746562(-)
261	Afu4g13330::Chr4_A_fumigatus_Af293:3490823-3493201(-)
262	Afu3g08030::Chr3_A_fumigatus_Af293:2054490-2055930(+)
263	Afu1g13070::Chr1_A_fumigatus_Af293:3467302-3468490(+)
264	Afu3g10790::Chr3_A_fumigatus_Af293:2803742-2805943(-)
265	Afu2g10770::Chr2_A_fumigatus_Af293:2763540-2768472(+)
266	Afu6g12090::Chr6_A_fumigatus_Af293:3038290-3040403(+)
267	Afu8g05260::Chr8_A_fumigatus_Af293:1222805-1224139(-)
268	Afu5g02790::Chr5_A_fumigatus_Af293:739719-742121(+)
269	Afu8g04400::Chr8_A_fumigatus_Af293:988181-989855(-)
270	Afu7g02230::Chr7_A_fumigatus_Af293:597646-601932(+)
271	Afu1g11160::Chr1_A_fumigatus_Af293:2937985-2940303(+)
272	Afu4g10390::Chr4_A_fumigatus_Af293:2718885-2721455(-)
273	Afu1g06290::Chr1_A_fumigatus_Af293:1806711-1808254(-)
274	Afu1g10760::Chr1_A_fumigatus_Af293:2806323-2810505(+)
275	Afu6g08900::Chr6_A_fumigatus_Af293:2118311-2120809(-)
276	Afu3g06540::Chr3_A_fumigatus_Af293:1621013-1622980(-)
277	Afu2g06230::Chr2_A_fumigatus_Af293:1794668-1796803(-)
278	Afu2g02710::Chr2_A_fumigatus_Af293:695693-696371(+)
279	Afu1g14580::Chr1_A_fumigatus_Af293:3895508-3896567(-)
280	Afu1g03970::Chr1_A_fumigatus_Af293:1144164-1148276(-)
281	Afu2g05560::Chr2_A_fumigatus_Af293:1551102-1552239(+)
282	Afu5g10840::Chr5_A_fumigatus_Af293:2770855-2775013(+)
283	Afu5g02760::Chr5_A_fumigatus_Af293:722122-724776(+)
284	Afu1g06600::Chr1_A_fumigatus_Af293:1889425-1891374(+)
285	Afu2g09080::Chr2_A_fumigatus_Af293:2328247-2329907(-)
286	Afu3g11110::Chr3_A_fumigatus_Af293:2903981-2906441(+)
287	Afu2g15610::Chr2_A_fumigatus_Af293:4117693-4123583(+)
288	Afu3g05700::Chr3_A_fumigatus_Af293:1386762-1392622(+)
289	Afu2g15600::Chr2_A_fumigatus_Af293:4115771-4117585(+)
290	Afu4g14610::Chr4_A_fumigatus_Af293:3854533-3856744(+)
291	Afu6g09820::Chr6_A_fumigatus_Af293:2412181-2414075(+)
292	Afu3g14370::Chr3_A_fumigatus_Af293:3811986-3816751(+)
293	Afu2g08320::Chr2_A_fumigatus_Af293:2143343-2144160(+)
294	Afu4g08010::Chr4_A_fumigatus_Af293:2079331-2081665(-)
295	Afu1g14770::Chr1_A_fumigatus_Af293:3955076-3957710(+)
296	Afu4g11440::Chr4_A_fumigatus_Af293:2998116-3002170(-)
297	Afu6g13630::Chr6_A_fumigatus_Af293:3464487-3466226(-)
298	Afu1g09320::Chr1_A_fumigatus_Af293:2417468-2420158(-)
299	Afu4g06480::Chr4_A_fumigatus_Af293:1654166-1658353(-)
300	Afu5g06520::Chr5_A_fumigatus_Af293:1591288-1593037(+)
301	Afu1g07195::Chr1_A_fumigatus_Af293:2042460-2043699(+)
302	Afu1g16290::Chr1_A_fumigatus_Af293:4429149-4431369(+)
303	Afu1g12200::Chr1_A_fumigatus_Af293:3221855-3223910(+)
304	MSTRG.313::Chr3_A_fumigatus_Af293:27928-28137(-)
305	Afu8g01040::Chr8_A_fumigatus_Af293:238139-243451(+)
306	Afu4g03760::Chr4_A_fumigatus_Af293:1054335-1058133(+)
307	Afu1g03640::Chr1_A_fumigatus_Af293:1058230-1058966(+)
308	Afu1g09370::Chr1_A_fumigatus_Af293:2429051-2431544(-)
309	Afu1g02460::Chr1_A_fumigatus_Af293:711800-715716(-)
310	Afu1g04190::Chr1_A_fumigatus_Af293:1195507-1198564(-)
311	Afu3g06120::Chr3_A_fumigatus_Af293:1509985-1512396(+)
312	Afu3g06580::Chr3_A_fumigatus_Af293:1630591-1632936(+)
313	Afu5g13530::Chr5_A_fumigatus_Af293:3551871-3553268(-)
314	Afu4g04740::Chr4_A_fumigatus_Af293:1336094-1337835(+)
315	Afu6g07820::Chr6_A_fumigatus_Af293:1796161-1798637(+)
316	Afu5g03030::Chr5_A_fumigatus_Af293:814228-819740(+)
317	Afu7g04070::Chr7_A_fumigatus_Af293:915015-916318(-)
318	Afu1g16750::Chr1_A_fumigatus_Af293:4570438-4571980(+)
319	Afu3g14830::Chr3_A_fumigatus_Af293:3925085-3927534(-)
320	Afu2g02340::Chr2_A_fumigatus_Af293:586502-587555(+)
321	Afu2g16290::Chr2_A_fumigatus_Af293:4321206-4323238(+)
322	Afu7g08270::Chr7_A_fumigatus_Af293:1859210-1859522(-)
323	Afu4g10220::Chr4_A_fumigatus_Af293:2673520-2677808(+)
324	Afu4g10790::Chr4_A_fumigatus_Af293:2819679-2821193(+)
325	Afu1g02610::Chr1_A_fumigatus_Af293:761829-763190(+)
326	MSTRG.130::Chr1_A_fumigatus_Af293:3787586-3788296(-)
327	Afu6g05110::Chr6_A_fumigatus_Af293:1213820-1217616(+)
328	Afu5g06170::Chr5_A_fumigatus_Af293:1471457-1472509(+)
329	Afu5g09850::Chr5_A_fumigatus_Af293:2546567-2550579(+)
330	Afu1g05650::Chr1_A_fumigatus_Af293:1620524-1623437(-)
331	Afu1g05310::Chr1_A_fumigatus_Af293:1529453-1532946(+)
332	Afu6g13370::Chr6_A_fumigatus_Af293:3394598-3400387(+)
333	Afu5g12100::Chr5_A_fumigatus_Af293:3135808-3138500(+)
334	Afu5g11620::Chr5_A_fumigatus_Af293:2986535-2989242(+)
335	Afu4g07630::Chr4_A_fumigatus_Af293:1984953-1986487(+)
336	Afu2g11510::Chr2_A_fumigatus_Af293:2966087-2968230(+)
337	Afu8g04790::Chr8_A_fumigatus_Af293:1096731-1098210(-)
338	Afu5g10620::Chr5_A_fumigatus_Af293:2715687-2716912(-)
339	Afu3g08090::Chr3_A_fumigatus_Af293:2068659-2070044(+)
340	Afu2g01000::Chr2_A_fumigatus_Af293:228698-231513(-)
341	Afu5g03090::Chr5_A_fumigatus_Af293:835182-838382(+)
342	Afu3g04110::Chr3_A_fumigatus_Af293:1163997-1166245(-)
343	MSTRG.44::Chr1_A_fumigatus_Af293:364103-364619(-)
344	Afu2g14190::Chr2_A_fumigatus_Af293:3714507-3716524(+)
345	Afu6g04630::Chr6_A_fumigatus_Af293:1076552-1077632(+)
