c(module, names(dataExprAfum)[moduleColors == module])
1	turquoise
2	Afu4g13680::Chr4_A_fumigatus_Af293:3583365-3584393(-)
3	Afu4g08800::Chr4_A_fumigatus_Af293:2285094-2288897(-)
4	Afu7g01020::Chr7_A_fumigatus_Af293:271778-272156(+)
5	MSTRG.539::Chr4_A_fumigatus_Af293:3630817-3631345(+)
6	Afu5g14140::Chr5_A_fumigatus_Af293:3690997-3693368(+)
7	Afu7g04470::Chr7_A_fumigatus_Af293:1017674-1019693(+)
8	Afu1g01820::Chr1_A_fumigatus_Af293:550559-552319(-)
9	Afu4g03800::Chr4_A_fumigatus_Af293:1067042-1069349(+)
10	Afu3g09680::Chr3_A_fumigatus_Af293:2470623-2475203(+)
11	Afu6g03900::Chr6_A_fumigatus_Af293:859670-863454(-)
12	Afu1g16860::Chr1_A_fumigatus_Af293:4598910-4600377(-)
13	Afu5g14190::Chr5_A_fumigatus_Af293:3701408-3703309(+)
14	Afu2g15620::Chr2_A_fumigatus_Af293:4125089-4128673(+)
15	Afu6g13070::Chr6_A_fumigatus_Af293:3299891-3302464(+)
16	Afu6g02930::Chr6_A_fumigatus_Af293:605755-607737(-)
17	Afu1g02970::Chr1_A_fumigatus_Af293:846760-849608(-)
18	Afu1g03380::Chr1_A_fumigatus_Af293:977968-986167(-)
19	Afu8g04390::Chr8_A_fumigatus_Af293:986430-987412(-)
20	Afu3g05580::Chr3_A_fumigatus_Af293:1353139-1356661(-)
21	Afu2g14460::Chr2_A_fumigatus_Af293:3783832-3784853(+)
22	Afu4g00360::Chr4_A_fumigatus_Af293:96145-97564(+)
23	Afu2g12860::Chr2_A_fumigatus_Af293:3297228-3300329(-)
24	Afu4g14030::Chr4_A_fumigatus_Af293:3658120-3659718(-)
25	Afu5g02660::Chr5_A_fumigatus_Af293:696500-699185(-)
26	MSTRG.598::Chr5_A_fumigatus_Af293:1633868-1634146(+)
27	Afu2g15230::Chr2_A_fumigatus_Af293:4035038-4037434(+)
28	Afu6g03025::Chr6_A_fumigatus_Af293:629030-629639(+)
29	Afu8g01900::Chr8_A_fumigatus_Af293:492875-493778(+)
30	MSTRG.89::Chr1_A_fumigatus_Af293:2129849-2130915(-)
31	Afu3g07580::Chr3_A_fumigatus_Af293:1902430-1903468(+)
32	Afu8g05730::Chr8_A_fumigatus_Af293:1365111-1366013(+)
33	Afu4g01400::Chr4_A_fumigatus_Af293:369122-369965(-)
34	Afu2g15960::Chr2_A_fumigatus_Af293:4219683-4221253(-)
35	Afu1g07560::Chr1_A_fumigatus_Af293:2135470-2136290(+)
36	Afu5g14720::Chr5_A_fumigatus_Af293:3804391-3805903(-)
37	Afu5g07470::Chr5_A_fumigatus_Af293:1869517-1871150(-)
38	Afu5g08265::Chr5_A_fumigatus_Af293:2098467-2098583(-)
39	Afu1g15010::Chr1_A_fumigatus_Af293:4031938-4038777(-)
40	Afu4g08080::Chr4_A_fumigatus_Af293:2098954-2101013(+)
41	Afu7g02510::Chr7_A_fumigatus_Af293:691042-693022(-)
42	Afu8g07230::Chr8_A_fumigatus_Af293:1774820-1776661(-)
43	Afu6g00250::Chr6_A_fumigatus_Af293:75193-76288(+)
44	Afu2g14640::Chr2_A_fumigatus_Af293:3835086-3837426(-)
45	Afu3g13730::Chr3_A_fumigatus_Af293:3619025-3623193(+)
46	Afu2g15020::Chr2_A_fumigatus_Af293:3965042-3967141(-)
47	Afu2g09150::Chr2_A_fumigatus_Af293:2345815-2347439(-)
48	Afu1g13600::Chr1_A_fumigatus_Af293:3616735-3619502(+)
49	Afu4g09500::Chr4_A_fumigatus_Af293:2484638-2486476(+)
50	Afu4g04370::Chr4_A_fumigatus_Af293:1239512-1241402(-)
51	Afu6g09356::Chr6_A_fumigatus_Af293:2239215-2239681(-)
52	Afu2g15090::Chr2_A_fumigatus_Af293:3985225-3989278(-)
53	Afu8g02110::Chr8_A_fumigatus_Af293:544393-545496(-)
54	Afu1g15690::Chr1_A_fumigatus_Af293:4237192-4239160(+)
55	Afu3g01810::Chr3_A_fumigatus_Af293:447465-448887(-)
56	Afu2g00490::Chr2_A_fumigatus_Af293:107481-108077(+)
57	MSTRG.170::Chr2_A_fumigatus_Af293:406852-407259(+)
58	Afu3g01270::Chr3_A_fumigatus_Af293:310154-311394(+)
59	MSTRG.857::Chr7_A_fumigatus_Af293:1141452-1142243(-)
60	Afu4g11150::Chr4_A_fumigatus_Af293:2910491-2914211(+)
61	Afu2g12810::Chr2_A_fumigatus_Af293:3283640-3286239(+)
62	Afu2g13630::Chr2_A_fumigatus_Af293:3545633-3548422(+)
63	Afu5g08060::Chr5_A_fumigatus_Af293:2043286-2046532(+)
64	Afu6g05350::Chr6_A_fumigatus_Af293:1279457-1282083(+)
65	Afu5g07330::Chr5_A_fumigatus_Af293:1825082-1826968(+)
66	Afu8g04680::Chr8_A_fumigatus_Af293:1068779-1070059(+)
67	Afu2g03540::Chr2_A_fumigatus_Af293:940953-942954(+)
68	MSTRG.948::Chr8_A_fumigatus_Af293:1398561-1399313(+)
69	Afu7g00590::Chr7_A_fumigatus_Af293:164534-167093(-)
70	Afu5g09090::Chr5_A_fumigatus_Af293:2335908-2339729(+)
71	Afu7g01500::Chr7_A_fumigatus_Af293:392168-392756(-)
72	Afu4g08440::Chr4_A_fumigatus_Af293:2178883-2182158(-)
73	MSTRG.742::Chr6_A_fumigatus_Af293:1522408-1522851(+)
74	MSTRG.379::Chr3_A_fumigatus_Af293:1474014-1475109(-)
75	Afu1g12400::Chr1_A_fumigatus_Af293:3272382-3274443(+)
76	Afu8g05010::Chr8_A_fumigatus_Af293:1156389-1159535(-)
77	Afu1g14490::Chr1_A_fumigatus_Af293:3869365-3872898(-)
78	Afu6g13060::Chr6_A_fumigatus_Af293:3295983-3299610(+)
79	Afu2g01670::Chr2_A_fumigatus_Af293:402522-405735(+)
80	Afu2g00600::Chr2_A_fumigatus_Af293:127895-128492(+)
81	Afu5g02640::Chr5_A_fumigatus_Af293:690251-692134(+)
82	Afu1g09750::Chr1_A_fumigatus_Af293:2520896-2522013(-)
83	Afu1g10230::Chr1_A_fumigatus_Af293:2634227-2634845(-)
84	Afu3g01390::Chr3_A_fumigatus_Af293:344084-344659(-)
85	Afu3g02685::Chr3_A_fumigatus_Af293:700038-700805(-)
86	Afu6g08280::Chr6_A_fumigatus_Af293:1935368-1937701(+)
87	Afu4g01150::Chr4_A_fumigatus_Af293:310033-311845(+)
88	Afu4g00760::Chr4_A_fumigatus_Af293:203501-204973(-)
89	Afu2g10190::Chr2_A_fumigatus_Af293:2605726-2610549(+)
90	Afu8g01540::Chr8_A_fumigatus_Af293:397236-398548(-)
91	Afu4g01380::Chr4_A_fumigatus_Af293:363626-364727(+)
92	Afu1g04340::Chr1_A_fumigatus_Af293:1228299-1235632(-)
93	Afu2g10130::Chr2_A_fumigatus_Af293:2589762-2590911(+)
94	Afu7g02050::Chr7_A_fumigatus_Af293:547601-549636(+)
95	Afu3g10680::Chr3_A_fumigatus_Af293:2766548-2768521(+)
96	Afu5g10440::Chr5_A_fumigatus_Af293:2670187-2670480(-)
97	Afu1g17545::Chr1_A_fumigatus_Af293:4802920-4803036(+)
98	Afu4g10200::Chr4_A_fumigatus_Af293:2660286-2663905(+)
99	Afu5g02870::Chr5_A_fumigatus_Af293:760728-762034(+)
100	Afu4g04080::Chr4_A_fumigatus_Af293:1148436-1150135(+)
101	Afu2g02540::Chr2_A_fumigatus_Af293:656344-657417(+)
102	Afu8g01530::Chr8_A_fumigatus_Af293:395001-395937(-)
103	Afu6g09860::Chr6_A_fumigatus_Af293:2419754-2420423(+)
104	Afu1g01160::Chr1_A_fumigatus_Af293:406881-408853(-)
105	Afu4g01520::Chr4_A_fumigatus_Af293:401249-402465(-)
106	Afu7g01600::Chr7_A_fumigatus_Af293:415184-418851(-)
107	Afu6g07970::Chr6_A_fumigatus_Af293:1845375-1848408(-)
108	Afu8g06300::Chr8_A_fumigatus_Af293:1505555-1507908(+)
109	Afu3g14770::Chr3_A_fumigatus_Af293:3919129-3920263(+)
110	Afu2g05660::Chr2_A_fumigatus_Af293:1583514-1583824(+)
111	Afu6g06340::Chr6_A_fumigatus_Af293:1343243-1347372(+)
112	Afu7g04890::Chr7_A_fumigatus_Af293:1148470-1150582(+)
113	MSTRG.509::Chr4_A_fumigatus_Af293:2221189-2223140(+)
114	Afu8g02350::Chr8_A_fumigatus_Af293:631459-637026(+)
115	Afu6g03210::Chr6_A_fumigatus_Af293:682648-683798(-)
116	Afu2g07650::Chr2_A_fumigatus_Af293:1950348-1951506(+)
117	MSTRG.488::Chr4_A_fumigatus_Af293:1144478-1144959(-)
118	Afu4g14680::Chr4_A_fumigatus_Af293:3871005-3872454(-)
119	Afu3g00930::Chr3_A_fumigatus_Af293:219703-222734(-)
120	Afu1tD(GUC)1::Chr1_A_fumigatus_Af293:766125-766213(+)
121	Afu4g01160::Chr4_A_fumigatus_Af293:312141-315330(-)
122	Afu1g16580::Chr1_A_fumigatus_Af293:4492019-4495003(+)
123	Afu2g15160::Chr2_A_fumigatus_Af293:4009012-4011287(-)
124	Afu6g11520::Chr6_A_fumigatus_Af293:2862364-2863886(+)
125	Afu3g14630::Chr3_A_fumigatus_Af293:3879386-3880815(+)
126	MSTRG.309::Chr2_A_fumigatus_Af293:4802090-4802512(-)
127	Afu2g02820::Chr2_A_fumigatus_Af293:725496-725902(-)
128	Afu5g08410::Chr5_A_fumigatus_Af293:2134541-2135780(-)
129	Afu8g07310::Chr8_A_fumigatus_Af293:1793274-1794196(-)
130	Afu7g04900::Chr7_A_fumigatus_Af293:1151074-1152620(+)
131	Afu7g00170::Chr7_A_fumigatus_Af293:41956-43783(+)
132	Afu3g02540::Chr3_A_fumigatus_Af293:635137-635727(+)
133	Afu2g10270::Chr2_A_fumigatus_Af293:2624170-2631609(-)
134	Afu4g11620::Chr4_A_fumigatus_Af293:3068220-3069704(-)
135	Afu2g04220::Chr2_A_fumigatus_Af293:1172524-1174388(-)
136	Afu8g02300::Chr8_A_fumigatus_Af293:613795-615261(+)
137	Afu4g10570::Chr4_A_fumigatus_Af293:2766133-2769050(-)
138	MSTRG.951::Chr8_A_fumigatus_Af293:1508639-1509397(-)
139	MSTRG.110::Chr1_A_fumigatus_Af293:3152302-3152966(+)
140	MSTRG.771::Chr6_A_fumigatus_Af293:2418743-2419240(-)
141	Afu5g00790::Chr5_A_fumigatus_Af293:214504-219590(-)
142	Afu7g06330::Chr7_A_fumigatus_Af293:1550134-1550590(+)
143	Afu2g13230::Chr2_A_fumigatus_Af293:3399056-3402421(+)
144	Afu1g13660::Chr1_A_fumigatus_Af293:3631258-3633586(-)
145	Afu1g10250::Chr1_A_fumigatus_Af293:2643008-2643450(+)
146	MSTRG.464::Chr4_A_fumigatus_Af293:303417-303824(+)
147	MSTRG.561::Chr5_A_fumigatus_Af293:233419-234065(-)
148	Afu7g08490::Chr7_A_fumigatus_Af293:1965199-1966906(+)
149	Afu2g16190::Chr2_A_fumigatus_Af293:4289749-4290137(+)
150	Afu3g13510::Chr3_A_fumigatus_Af293:3573692-3576002(+)
151	Afu8g06260::Chr8_A_fumigatus_Af293:1490665-1492132(+)
152	Afu7g01760::Chr7_A_fumigatus_Af293:470208-470611(-)
153	Afu2g16570::Chr2_A_fumigatus_Af293:4424242-4425510(-)
154	Afu2g00800::Chr2_A_fumigatus_Af293:178080-179459(-)
155	Afu4g11100::Chr4_A_fumigatus_Af293:2897085-2898731(-)
156	Afu4g02700::Chr4_A_fumigatus_Af293:744519-746075(-)
157	Afu4g03790::Chr4_A_fumigatus_Af293:1065004-1066945(+)
158	Afu6g08490::Chr6_A_fumigatus_Af293:1995165-1996376(+)
159	Afu2g03450::Chr2_A_fumigatus_Af293:908787-911146(-)
160	MSTRG.926::Chr8_A_fumigatus_Af293:627054-627819(-)
161	Afu7g08245::Chr7_A_fumigatus_Af293:1836156-1840155(+)
162	Afu2g08180::Chr2_A_fumigatus_Af293:2115969-2117671(-)
163	Afu2g12150::Chr2_A_fumigatus_Af293:3120051-3134829(+)
164	Afu6g04020::Chr6_A_fumigatus_Af293:905148-905849(-)
165	MSTRG.281::Chr2_A_fumigatus_Af293:3833895-3834382(-)
166	Afu4g01170::Chr4_A_fumigatus_Af293:315608-317107(+)
167	Afu1g10240::Chr1_A_fumigatus_Af293:2634976-2635237(+)
168	Afu2g15150::Chr2_A_fumigatus_Af293:4006519-4008901(+)
169	Afu3g14520::Chr3_A_fumigatus_Af293:3849412-3851142(-)
170	Afu3g07560::Chr3_A_fumigatus_Af293:1898660-1900139(+)
171	Afu2g13490::Chr2_A_fumigatus_Af293:3497663-3500981(+)
172	Afu8g01585::Chr8_A_fumigatus_Af293:407427-407543(+)
173	Afu2g03270::Chr2_A_fumigatus_Af293:854976-857525(+)
174	Afu2g16070::Chr2_A_fumigatus_Af293:4253656-4254724(-)
175	Afu1g14830::Chr1_A_fumigatus_Af293:3975615-3977917(-)
176	Afu6g13280::Chr6_A_fumigatus_Af293:3368624-3370173(-)
177	Afu3g15150::Chr3_A_fumigatus_Af293:3985940-3986978(+)
178	Afu5g14080::Chr5_A_fumigatus_Af293:3679539-3680694(-)
179	Afu1g04640::Chr1_A_fumigatus_Af293:1311089-1314799(-)
180	Afu2g08850::Chr2_A_fumigatus_Af293:2274219-2279157(-)
181	Afu8g06310::Chr8_A_fumigatus_Af293:1511161-1513425(+)
182	Afu1g16556::Chr1_A_fumigatus_Af293:4485576-4486559(-)
183	Afu2g02940::Chr2_A_fumigatus_Af293:754690-755228(+)
184	Afu2g03600::Chr2_A_fumigatus_Af293:957116-958790(-)
185	Afu2g11620::Chr2_A_fumigatus_Af293:2990498-2992839(+)
186	Afu4g00460::Chr4_A_fumigatus_Af293:118051-120070(-)
187	Afu4g00800::Chr4_A_fumigatus_Af293:213385-214894(+)
188	Afu3g12360::Chr3_A_fumigatus_Af293:3258153-3259972(+)
189	Afu4g07850::Chr4_A_fumigatus_Af293:2050926-2052959(+)
190	Afu3g09960::Chr3_A_fumigatus_Af293:2553567-2557007(-)
191	Afu7g01070::Chr7_A_fumigatus_Af293:283814-285337(+)
192	Afu2g10920::Chr2_A_fumigatus_Af293:2812854-2814100(-)
193	Afu4g03322::Chr4_A_fumigatus_Af293:943267-945792(-)
194	Afu2g07760::Chr2_A_fumigatus_Af293:1986237-1986700(+)
195	Afu6g00470::Chr6_A_fumigatus_Af293:118981-120868(-)
196	Afu6g00570::Chr6_A_fumigatus_Af293:142142-143403(-)
197	Afu2tV(CAC)2::Chr2_A_fumigatus_Af293:3631729-3631828(-)
198	Afu5g12980::Chr5_A_fumigatus_Af293:3403145-3404152(-)
199	Afu4g08420::Chr4_A_fumigatus_Af293:2177180-2178179(-)
200	Afu1g14850::Chr1_A_fumigatus_Af293:3979876-3981944(+)
201	Afu3g10040::Chr3_A_fumigatus_Af293:2581825-2584907(+)
202	Afu3g09620::Chr3_A_fumigatus_Af293:2444570-2447761(+)
203	MSTRG.253::Chr2_A_fumigatus_Af293:2870470-2870897(+)
204	Afu4g14175::Chr4_A_fumigatus_Af293:3705609-3706062(-)
205	Afu6g04710::Chr6_A_fumigatus_Af293:1099772-1105632(+)
206	Afu6g12940::Chr6_A_fumigatus_Af293:3266235-3267678(+)
207	Afu3g01640::Chr3_A_fumigatus_Af293:410922-412871(+)
208	Afu8g02510::Chr8_A_fumigatus_Af293:668316-670791(+)
209	Afu3g01950::Chr3_A_fumigatus_Af293:480363-481557(-)
210	Afu3g01080::Chr3_A_fumigatus_Af293:251367-253483(+)
211	Afu2g10205::Chr2_A_fumigatus_Af293:2611072-2613502(+)
212	Afu4g10400::Chr4_A_fumigatus_Af293:2722028-2728092(-)
213	Afu4g01430::Chr4_A_fumigatus_Af293:374979-375326(+)
214	Afu2g16490::Chr2_A_fumigatus_Af293:4376171-4378751(-)
215	Afu2g13660::Chr2_A_fumigatus_Af293:3553902-3555148(+)
216	Afu1g07570::Chr1_A_fumigatus_Af293:2136804-2138468(-)
217	Afu4g08990::Chr4_A_fumigatus_Af293:2332544-2335140(+)
218	Afu1g01660::Chr1_A_fumigatus_Af293:515888-517971(+)
219	Afu8g06240::Chr8_A_fumigatus_Af293:1489031-1489446(+)
220	Afu3g01340::Chr3_A_fumigatus_Af293:326251-327667(-)
221	Afu1g12920::Chr1_A_fumigatus_Af293:3417593-3420644(-)
222	MSTRG.576::Chr5_A_fumigatus_Af293:768211-768567(-)
223	Afu6g10780::Chr6_A_fumigatus_Af293:2662481-2664851(+)
224	Afu5g07690::Chr5_A_fumigatus_Af293:1919169-1920030(-)
225	Afu8g02850::Chr8_A_fumigatus_Af293:771742-775133(-)
226	Afu1g12550::Chr1_A_fumigatus_Af293:3309806-3318347(-)
227	Afu4g14590::Chr4_A_fumigatus_Af293:3849652-3851905(-)
228	Afu4g07800::Chr4_A_fumigatus_Af293:2039860-2041581(+)
229	MSTRG.829::Chr7_A_fumigatus_Af293:393862-394921(-)
230	Afu5g11160::Chr5_A_fumigatus_Af293:2850523-2852007(+)
231	Afu7g00120::Chr7_A_fumigatus_Af293:27792-28833(-)
232	Afu1g15170::Chr1_A_fumigatus_Af293:4081992-4083476(+)
233	Afu3g00850::Chr3_A_fumigatus_Af293:194214-195732(+)
234	Afu2g00830::Chr2_A_fumigatus_Af293:185576-187814(+)
235	Afu7g06310::Chr7_A_fumigatus_Af293:1544426-1545383(-)
236	Afu3g09970::Chr3_A_fumigatus_Af293:2559938-2561392(-)
237	Afu4g10210::Chr4_A_fumigatus_Af293:2665018-2670979(+)
238	Afu8g05450::Chr8_A_fumigatus_Af293:1266929-1269440(+)
239	Afu1g15420::Chr1_A_fumigatus_Af293:4155429-4156571(+)
240	Afu4g11220::Chr4_A_fumigatus_Af293:2930485-2935241(-)
241	Afu1g02685::Chr1_A_fumigatus_Af293:780577-780707(+)
242	Afu6g09430::Chr6_A_fumigatus_Af293:2275646-2276801(+)
243	Afu6g12570::Chr6_A_fumigatus_Af293:3175585-3177557(-)
244	Afu3g00490::Chr3_A_fumigatus_Af293:105684-108359(+)
245	Afu2g16530::Chr2_A_fumigatus_Af293:4415141-4416721(+)
246	Afu1g16730::Chr1_A_fumigatus_Af293:4554978-4559631(-)
247	Afu4g04010::Chr4_A_fumigatus_Af293:1129423-1131785(+)
248	Afu8g07140::Chr8_A_fumigatus_Af293:1748130-1751203(+)
249	Afu7g06320::Chr7_A_fumigatus_Af293:1547095-1549109(-)
250	Afu4g07870::Chr4_A_fumigatus_Af293:2054055-2055033(-)
251	Afu4g14180::Chr4_A_fumigatus_Af293:3706362-3707067(-)
252	Afu8g01720::Chr8_A_fumigatus_Af293:451085-452479(-)
253	Afu3g10650::Chr3_A_fumigatus_Af293:2754976-2758188(-)
254	Afu2g15520::Chr2_A_fumigatus_Af293:4091802-4094480(-)
255	Afu1g15980::Chr1_A_fumigatus_Af293:4340062-4340818(-)
256	Afu1g05710::Chr1_A_fumigatus_Af293:1644237-1646008(+)
257	Afu5g01480::Chr5_A_fumigatus_Af293:383965-385567(+)
258	MSTRG.825::Chr7_A_fumigatus_Af293:344798-346244(+)
259	Afu6g08840::Chr6_A_fumigatus_Af293:2097292-2101265(+)
260	Afu1g15950::Chr1_A_fumigatus_Af293:4327903-4330995(+)
261	Afu2g02040::Chr2_A_fumigatus_Af293:506033-508119(+)
262	Afu6g13730::Chr6_A_fumigatus_Af293:3507984-3508152(+)
263	Afu7g03910::Chr7_A_fumigatus_Af293:877471-880573(+)
264	Afu8g07390::Chr8_A_fumigatus_Af293:1818488-1818641(+)
265	Afu4g12870::Chr4_A_fumigatus_Af293:3368444-3370387(+)
266	Afu5g00460::Chr5_A_fumigatus_Af293:129098-130723(-)
267	Afu4g01420::Chr4_A_fumigatus_Af293:373173-374814(-)
268	Afu7g00530::Chr7_A_fumigatus_Af293:142655-146891(-)
269	Afu4g13610::Chr4_A_fumigatus_Af293:3560441-3561244(-)
270	Afu7g01340::Chr7_A_fumigatus_Af293:352276-352892(-)
271	MSTRG.105::Chr1_A_fumigatus_Af293:2952905-2953938(-)
272	Afu3g10175::Chr3_A_fumigatus_Af293:2627220-2627582(-)
273	Afu6g04960::Chr6_A_fumigatus_Af293:1175882-1179907(-)
274	Afu2g07640::Chr2_A_fumigatus_Af293:1946953-1949311(+)
275	Afu4g13340::Chr4_A_fumigatus_Af293:3495354-3499837(+)
276	Afu6g03310::Chr6_A_fumigatus_Af293:704041-704680(+)
277	Afu6g11010::Chr6_A_fumigatus_Af293:2710857-2718778(+)
278	Afu2g16580::Chr2_A_fumigatus_Af293:4425829-4427058(+)
279	MSTRG.95::Chr1_A_fumigatus_Af293:2507745-2509913(+)
280	Afu2g08060::Chr2_A_fumigatus_Af293:2071818-2089682(+)
281	Afu4g01480::Chr4_A_fumigatus_Af293:390085-391753(-)
282	Afu1g11210::Chr1_A_fumigatus_Af293:2950881-2951599(+)
283	MSTRG.569::Chr5_A_fumigatus_Af293:359733-360206(+)
284	Afu8g06500::Chr8_A_fumigatus_Af293:1571947-1572430(-)
285	Afu6g08700::Chr6_A_fumigatus_Af293:2059160-2061877(-)
286	Afu5g01910::Chr5_A_fumigatus_Af293:485996-487013(-)
287	Afu3g10420::Chr3_A_fumigatus_Af293:2698153-2700283(-)
288	Afu6g03260::Chr6_A_fumigatus_Af293:692478-694022(+)
289	Afu1g06970::Chr1_A_fumigatus_Af293:1987355-1989167(-)
290	Afu3g02030::Chr3_A_fumigatus_Af293:498579-500210(+)
291	Afu5g13420::Chr5_A_fumigatus_Af293:3529174-3531137(-)
292	Afu3g01040::Chr3_A_fumigatus_Af293:241534-242771(+)
293	Afu2g14630::Chr2_A_fumigatus_Af293:3830921-3832179(+)
294	Afu2g00820::Chr2_A_fumigatus_Af293:183372-185262(-)
295	Afu6g07240::Chr6_A_fumigatus_Af293:1624745-1625815(+)
296	Afu4g08490::Chr4_A_fumigatus_Af293:2195740-2197560(+)
297	Afu3g03880::Chr3_A_fumigatus_Af293:1110220-1111101(-)
298	Afu1g06580::Chr1_A_fumigatus_Af293:1884652-1886283(-)
299	Afu1g13825::Chr1_A_fumigatus_Af293:3693891-3694007(-)
300	Afu2g00100::Chr2_A_fumigatus_Af293:11671-14600(-)
301	Afu5g12710::Chr5_A_fumigatus_Af293:3304250-3307195(+)
302	MSTRG.452::Chr3_A_fumigatus_Af293:3947413-3947907(+)
303	Afu2g09282::Chr2_A_fumigatus_Af293:2372125-2376226(+)
304	Afu4g12940::Chr4_A_fumigatus_Af293:3389121-3389716(+)
305	Afu2g05085::Chr2_A_fumigatus_Af293:1399546-1400461(-)
306	Afu6g02990::Chr6_A_fumigatus_Af293:620893-621913(+)
307	Afu1g12205::Chr1_A_fumigatus_Af293:3223931-3224124(+)
308	Afu4g01220::Chr4_A_fumigatus_Af293:325258-325877(-)
309	Afu5g09040::Chr5_A_fumigatus_Af293:2326835-2327141(-)
310	Afu2g15650::Chr2_A_fumigatus_Af293:4132754-4136813(+)
311	Afu1g03030::Chr1_A_fumigatus_Af293:870606-874638(+)
312	Afu3g09980::Chr3_A_fumigatus_Af293:2562033-2563685(-)
313	Afu6g03240::Chr6_A_fumigatus_Af293:686543-688265(-)
314	Afu8g06810::Chr8_A_fumigatus_Af293:1663620-1666193(+)
315	MSTRG.64::Chr1_A_fumigatus_Af293:1092725-1093313(-)
316	Afu4g02720::Chr4_A_fumigatus_Af293:754439-756224(-)
317	MSTRG.384::Chr3_A_fumigatus_Af293:1715950-1716633(-)
318	Afu1g15550::Chr1_A_fumigatus_Af293:4206661-4209274(+)
319	Afu3g01060::Chr3_A_fumigatus_Af293:244683-245476(+)
320	Afu8g07320::Chr8_A_fumigatus_Af293:1795805-1796768(-)
321	Afu2g10640::Chr2_A_fumigatus_Af293:2722871-2724719(+)
322	Afu1g06762::Chr1_A_fumigatus_Af293:1928866-1932488(+)
323	Afu2g03570::Chr2_A_fumigatus_Af293:949872-951610(-)
324	MSTRG.18::Chr1_A_fumigatus_Af293:166128-167268(+)
325	Afu4g00330::Chr4_A_fumigatus_Af293:87462-89240(-)
326	Afu6g14140::Chr6_A_fumigatus_Af293:3600660-3602558(-)
327	Afu3g00720::Chr3_A_fumigatus_Af293:163866-165288(+)
328	Afu2g02220::Chr2_A_fumigatus_Af293:559347-564199(+)
329	Afu5g08910::Chr5_A_fumigatus_Af293:2288000-2290432(-)
330	Afu2g00620::Chr2_A_fumigatus_Af293:128866-130691(+)
331	Afu6g07130::Chr6_A_fumigatus_Af293:1601416-1602964(+)
332	Afu8g05920::Chr8_A_fumigatus_Af293:1403176-1404093(+)
333	Afu6g00490::Chr6_A_fumigatus_Af293:121679-123618(+)
334	Afu4g02790::Chr4_A_fumigatus_Af293:773504-775212(-)
335	Afu2g13390::Chr2_A_fumigatus_Af293:3456025-3458578(-)
336	Afu3g10690::Chr3_A_fumigatus_Af293:2768985-2774283(+)
337	Afu3g15170::Chr3_A_fumigatus_Af293:3987949-3989479(-)
338	Afu3g08000::Chr3_A_fumigatus_Af293:2035848-2041718(-)
339	Afu5g14390::Chr5_A_fumigatus_Af293:3747370-3749191(-)
340	Afu3g02040::Chr3_A_fumigatus_Af293:500883-502712(+)
341	Afu1g13000::Chr1_A_fumigatus_Af293:3447629-3448657(+)
342	Afu3g03890::Chr3_A_fumigatus_Af293:1111928-1113320(+)
343	Afu3g07090::Chr3_A_fumigatus_Af293:1777151-1777504(-)
344	Afu7g01940::Chr7_A_fumigatus_Af293:522082-529069(-)
345	Afu8g05800::Chr8_A_fumigatus_Af293:1378344-1379890(+)
346	Afu8g01410::Chr8_A_fumigatus_Af293:355244-357006(-)
347	Afu5g12120::Chr5_A_fumigatus_Af293:3141302-3142258(-)
348	Afu6g00600::Chr6_A_fumigatus_Af293:150404-151162(-)
349	Afu6g00730::Chr6_A_fumigatus_Af293:182791-183912(-)
350	Afu7g05840::Chr7_A_fumigatus_Af293:1431242-1432880(+)
351	Afu1g11110::Chr1_A_fumigatus_Af293:2923094-2930423(-)
352	Afu3g01480::Chr3_A_fumigatus_Af293:373920-376404(-)
353	Afu1g07555::Chr1_A_fumigatus_Af293:2125767-2126931(-)
354	Afu1g15520::Chr1_A_fumigatus_Af293:4198913-4202958(-)
355	Afu5g01600::Chr5_A_fumigatus_Af293:409992-411503(+)
356	Afu3g15190::Chr3_A_fumigatus_Af293:3989873-3992875(+)
357	Afu5g01320::Chr5_A_fumigatus_Af293:331690-333834(-)
358	MSTRG.98::Chr1_A_fumigatus_Af293:2639501-2641038(-)
359	Afu3g13460::Chr3_A_fumigatus_Af293:3558736-3560229(+)
360	Afu1g01700::Chr1_A_fumigatus_Af293:524154-527369(-)
361	Afu2g17440::Chr2_A_fumigatus_Af293:4655192-4656574(-)
362	Afu8g06132::Chr8_A_fumigatus_Af293:1456004-1458419(+)
363	Afu4g13970::Chr4_A_fumigatus_Af293:3645231-3645875(+)
364	Afu3g01660::Chr3_A_fumigatus_Af293:418267-419464(-)
365	Afu3g15140::Chr3_A_fumigatus_Af293:3984043-3985721(-)
366	Afu3g11800::Chr3_A_fumigatus_Af293:3107367-3108940(+)
367	MSTRG.475::Chr4_A_fumigatus_Af293:897561-898216(+)
368	Afu1g16020::Chr1_A_fumigatus_Af293:4356085-4356929(+)
369	Afu6g03200::Chr6_A_fumigatus_Af293:679417-681513(-)
370	Afu5g01190::Chr5_A_fumigatus_Af293:296876-299567(-)
371	Afu6g03252::Chr6_A_fumigatus_Af293:688397-692348(+)
372	Afu7g01030::Chr7_A_fumigatus_Af293:274212-277768(-)
373	Afu3g13450::Chr3_A_fumigatus_Af293:3556792-3558088(-)
374	Afu2g02080::Chr2_A_fumigatus_Af293:516261-517008(+)
375	Afu5g07510::Chr5_A_fumigatus_Af293:1876786-1880138(+)
376	Afu3g06890::Chr3_A_fumigatus_Af293:1717584-1720301(-)
377	Afu5g04290::Chr5_A_fumigatus_Af293:1148839-1149781(-)
378	Afu7g05570::Chr7_A_fumigatus_Af293:1351623-1352039(+)
379	Afu1g15200::Chr1_A_fumigatus_Af293:4088536-4092064(-)
380	Afu4g00770::Chr4_A_fumigatus_Af293:205319-208571(+)
381	Afu2g15100::Chr2_A_fumigatus_Af293:3989463-3992953(+)
382	Afu1g01860::Chr1_A_fumigatus_Af293:557856-559394(+)
383	Afu6g07480::Chr6_A_fumigatus_Af293:1696300-1697694(-)
384	Afu4g11307::Chr4_A_fumigatus_Af293:2968105-2968193(+)
385	Afu5g00810::Chr5_A_fumigatus_Af293:223384-224504(+)
386	Afu5g01610::Chr5_A_fumigatus_Af293:411932-412139(-)
387	Afu2g13760::Chr2_A_fumigatus_Af293:3571985-3575279(+)
388	Afu4g01410::Chr4_A_fumigatus_Af293:371596-372460(+)
389	Afu2g17460::Chr2_A_fumigatus_Af293:4657456-4659153(+)
390	Afu3g01620::Chr3_A_fumigatus_Af293:406738-409302(+)
391	Afu3g12810::Chr3_A_fumigatus_Af293:3403439-3409733(+)
392	Afu3g02420::Chr3_A_fumigatus_Af293:597475-598286(+)
393	Afu8g01400::Chr8_A_fumigatus_Af293:353933-354927(-)
394	Afu1g05780::Chr1_A_fumigatus_Af293:1667582-1669096(-)
395	MSTRG.195::Chr2_A_fumigatus_Af293:1339554-1341065(-)
396	Afu7g08530::Chr7_A_fumigatus_Af293:1978331-1981785(+)
397	Afu2g10620::Chr2_A_fumigatus_Af293:2718540-2722216(-)
398	Afu3g01700::Chr3_A_fumigatus_Af293:426828-430464(-)
399	Afu7g01170::Chr7_A_fumigatus_Af293:308376-309698(-)
400	Afu5g13440::Chr5_A_fumigatus_Af293:3532441-3535491(+)
401	Afu6g09300::Chr6_A_fumigatus_Af293:2214427-2217547(+)
402	Afu5g06620::Chr5_A_fumigatus_Af293:1620833-1621806(-)
403	Afu4g00480::Chr4_A_fumigatus_Af293:121633-122616(+)
404	Afu5g13820::Chr5_A_fumigatus_Af293:3629929-3630945(+)
405	Afu1g06690::Chr1_A_fumigatus_Af293:1915972-1917228(+)
406	Afu4g13600::Chr4_A_fumigatus_Af293:3556659-3558686(-)
407	Afu5g08930::Chr5_A_fumigatus_Af293:2292254-2293971(-)
408	Afu2g13750::Chr2_A_fumigatus_Af293:3569222-3571824(-)
409	Afu2g17610::Chr2_A_fumigatus_Af293:4695773-4699704(+)
410	Afu7g04300::Chr7_A_fumigatus_Af293:970917-974391(+)
411	Afu2g07840::Chr2_A_fumigatus_Af293:2002910-2003663(+)
412	Afu5g14310::Chr5_A_fumigatus_Af293:3730661-3731858(+)
413	MSTRG.328::Chr3_A_fumigatus_Af293:345535-347456(-)
414	Afu1g00350::Chr1_A_fumigatus_Af293:94947-96601(-)
415	Afu4g06430::Chr4_A_fumigatus_Af293:1647246-1647828(-)
416	Afu2g00130::Chr2_A_fumigatus_Af293:20451-21843(+)
417	Afu3g12330::Chr3_A_fumigatus_Af293:3248670-3250068(-)
418	Afu3g01410::Chr3_A_fumigatus_Af293:352855-360985(-)
419	MSTRG.351::Chr3_A_fumigatus_Af293:965986-968161(-)
420	Afu1g10170::Chr1_A_fumigatus_Af293:2618341-2619539(-)
421	MSTRG.571::Chr5_A_fumigatus_Af293:360699-361532(+)
422	Afu1g17600::Chr1_A_fumigatus_Af293:4824943-4825508(-)
423	MSTRG.932::Chr8_A_fumigatus_Af293:875030-875344(+)
424	MSTRG.434::Chr3_A_fumigatus_Af293:3250530-3251555(+)
425	Afu7g00160::Chr7_A_fumigatus_Af293:35944-41589(-)
426	Afu2g16480::Chr2_A_fumigatus_Af293:4374014-4375738(-)
427	MSTRG.121::Chr1_A_fumigatus_Af293:3518467-3520085(+)
428	Afu6g02330::Chr6_A_fumigatus_Af293:418134-422487(-)
429	Afu1g14050::Chr1_A_fumigatus_Af293:3754256-3754733(-)
430	Afu5g14130::Chr5_A_fumigatus_Af293:3689497-3690581(+)
431	Afu1g16910::Chr1_A_fumigatus_Af293:4617551-4619374(+)
432	Afu8g05805::Chr8_A_fumigatus_Af293:1381033-1382309(+)
433	Afu4g10780::Chr4_A_fumigatus_Af293:2806010-2819654(+)
434	MSTRG.952::Chr8_A_fumigatus_Af293:1509668-1510334(+)
435	Afu3g00690::Chr3_A_fumigatus_Af293:156237-158721(+)
436	Afu1g04860::Chr1_A_fumigatus_Af293:1375956-1376885(+)
437	Afu4g09890::Chr4_A_fumigatus_Af293:2568039-2569262(+)
438	Afu5g07080::Chr5_A_fumigatus_Af293:1753511-1756500(+)
439	Afu1g02040::Chr1_A_fumigatus_Af293:603586-604435(-)
440	Afu2g16320::Chr2_A_fumigatus_Af293:4329675-4331879(+)
441	Afu3g15080::Chr3_A_fumigatus_Af293:3975044-3977373(+)
442	Afu4g12880::Chr4_A_fumigatus_Af293:3370922-3372270(-)
443	Afu4g08630::Chr4_A_fumigatus_Af293:2241378-2242932(+)
444	MSTRG.496::Chr4_A_fumigatus_Af293:1658991-1660839(+)
445	Afu1g03140::Chr1_A_fumigatus_Af293:901723-905291(+)
446	Afu6g03030::Chr6_A_fumigatus_Af293:630207-632430(+)
447	Afu1g05490::Chr1_A_fumigatus_Af293:1568505-1572348(+)
448	Afu1g16890::Chr1_A_fumigatus_Af293:4608534-4609830(+)
449	Afu4g01200::Chr4_A_fumigatus_Af293:320407-321419(-)
450	Afu6g00540::Chr6_A_fumigatus_Af293:134965-136534(+)
451	Afu3g15210::Chr3_A_fumigatus_Af293:3999319-4000535(+)
452	Afu3g01280::Chr3_A_fumigatus_Af293:311957-313172(+)
453	Afu2g17720::Chr2_A_fumigatus_Af293:4719689-4721078(+)
454	Afu4g13570::Chr4_A_fumigatus_Af293:3549604-3550739(-)
455	Afu5g03650::Chr5_A_fumigatus_Af293:976731-978583(-)
456	Afu2g12800::Chr2_A_fumigatus_Af293:3282198-3283096(+)
457	Afu8g05950::Chr8_A_fumigatus_Af293:1409553-1411141(+)
458	Afu8g02130::Chr8_A_fumigatus_Af293:548483-551225(+)
459	Afu2g13650::Chr2_A_fumigatus_Af293:3552194-3553450(-)
460	Afu8g06880::Chr8_A_fumigatus_Af293:1687499-1690053(-)
461	Afu2g04240::Chr2_A_fumigatus_Af293:1176180-1176876(-)
462	Afu6g11950::Chr6_A_fumigatus_Af293:2988180-2988832(+)
463	Afu4g01115::Chr4_A_fumigatus_Af293:300595-301528(-)
464	Afu8g04920::Chr8_A_fumigatus_Af293:1134818-1138588(+)
465	Afu7g04980::Chr7_A_fumigatus_Af293:1173748-1174571(+)
466	MSTRG.147::Chr1_A_fumigatus_Af293:4463237-4463661(-)
467	MSTRG.306::Chr2_A_fumigatus_Af293:4730233-4730953(+)
468	Afu3g11660::Chr3_A_fumigatus_Af293:3062697-3066288(-)
469	MSTRG.406::Chr3_A_fumigatus_Af293:2452473-2455254(+)
470	Afu2g15450::Chr2_A_fumigatus_Af293:4081072-4082032(+)
471	Afu4g13550::Chr4_A_fumigatus_Af293:3546752-3548106(-)
472	Afu2g01290::Chr2_A_fumigatus_Af293:306144-314706(-)
473	Afu4g00350::Chr4_A_fumigatus_Af293:94738-95754(-)
474	Afu5g02780::Chr5_A_fumigatus_Af293:732987-737296(+)
475	Afu3g14230::Chr3_A_fumigatus_Af293:3780363-3783313(-)
476	Afu5g01620::Chr5_A_fumigatus_Af293:412959-413808(+)
477	Afu4g06950::Chr4_A_fumigatus_Af293:1797997-1799592(-)
478	Afu2g17710::Chr2_A_fumigatus_Af293:4717578-4719099(-)
479	Afu4g13940::Chr4_A_fumigatus_Af293:3637493-3641144(+)
480	Afu6g10290::Chr6_A_fumigatus_Af293:2544505-2546016(-)
481	Afu5g02380::Chr5_A_fumigatus_Af293:612704-614436(+)
482	Afu1g00100::Chr1_A_fumigatus_Af293:215-871(+)
483	MSTRG.171::Chr2_A_fumigatus_Af293:392167-392627(-)
484	Afu1tD(GUC)3::Chr1_A_fumigatus_Af293:767267-767355(-)
485	Afu5g01300::Chr5_A_fumigatus_Af293:326044-327838(-)
486	Afu6g09440::Chr6_A_fumigatus_Af293:2279925-2281603(-)
487	Afu8g02600::Chr8_A_fumigatus_Af293:689204-690309(-)
488	Afu4g13625::Chr4_A_fumigatus_Af293:3562896-3563840(-)
489	Afu4g06660::Chr4_A_fumigatus_Af293:1725434-1726346(-)
490	Afu5g00100::Chr5_A_fumigatus_Af293:1473-2924(-)
491	Afu4g11130::Chr4_A_fumigatus_Af293:2904252-2906938(-)
492	Afu1g12570::Chr1_A_fumigatus_Af293:3321343-3323449(+)
493	Afu7g06300::Chr7_A_fumigatus_Af293:1543963-1544350(-)
494	Afu3g00550::Chr3_A_fumigatus_Af293:118034-118546(-)
495	Afu2g10820::Chr2_A_fumigatus_Af293:2776875-2780496(+)
496	Afu2g04480::Chr2_A_fumigatus_Af293:1232731-1233966(-)
497	Afu8g06540::Chr8_A_fumigatus_Af293:1581222-1582923(+)
498	Afu2g00200::Chr2_A_fumigatus_Af293:39330-41446(-)
499	Afu4g03320::Chr4_A_fumigatus_Af293:945890-949484(-)
500	Afu8g02335::Chr8_A_fumigatus_Af293:624576-625055(-)
501	Afu2g02830::Chr2_A_fumigatus_Af293:726946-728323(-)
502	Afu1g03150::Chr1_A_fumigatus_Af293:905492-907651(+)
503	Afu4g14130::Chr4_A_fumigatus_Af293:3691626-3695766(-)
504	Afu3g11160::Chr3_A_fumigatus_Af293:2917692-2924610(+)
505	Afu5g02620::Chr5_A_fumigatus_Af293:687329-689013(-)
506	Afu5g06640::Chr5_A_fumigatus_Af293:1626049-1628034(-)
507	MSTRG.437::Chr3_A_fumigatus_Af293:3379850-3380181(-)
508	Afu7g04020::Chr7_A_fumigatus_Af293:902259-904853(-)
509	Afu3g01540::Chr3_A_fumigatus_Af293:391332-392842(+)
510	Afu3g11890::Chr3_A_fumigatus_Af293:3129395-3130501(+)
511	Afu2g04230::Chr2_A_fumigatus_Af293:1174674-1175970(+)
512	Afu3g07740::Chr3_A_fumigatus_Af293:1954134-1955251(+)
513	Afu7g01102::Chr7_A_fumigatus_Af293:290476-290978(+)
514	Afu3g02800::Chr3_A_fumigatus_Af293:742039-742971(-)
515	Afu6g08420::Chr6_A_fumigatus_Af293:1971540-1978057(-)
516	Afu7g08231::Chr7_A_fumigatus_Af293:1814335-1815636(-)
517	Afu3g05810::Chr3_A_fumigatus_Af293:1419106-1419896(-)
518	Afu5g14360::Chr5_A_fumigatus_Af293:3741299-3743416(-)
519	Afu1g13970::Chr1_A_fumigatus_Af293:3734490-3736716(-)
520	Afu7g00830::Chr7_A_fumigatus_Af293:217378-218464(+)
521	Afu6g10380::Chr6_A_fumigatus_Af293:2565346-2569720(+)
522	Afu6g06900::Chr6_A_fumigatus_Af293:1523354-1525957(+)
523	Afu5g01310::Chr5_A_fumigatus_Af293:329184-330744(-)
524	Afu1g14330::Chr1_A_fumigatus_Af293:3832066-3836990(+)
525	Afu5g06970::Chr5_A_fumigatus_Af293:1724720-1726878(-)
526	Afu6g00230::Chr6_A_fumigatus_Af293:70841-72118(+)
527	MSTRG.259::Chr2_A_fumigatus_Af293:3054183-3054447(-)
528	Afu8g01550::Chr8_A_fumigatus_Af293:399523-400635(-)
529	Afu5g10220::Chr5_A_fumigatus_Af293:2622555-2623995(+)
530	Afu5g02570::Chr5_A_fumigatus_Af293:665116-677364(+)
531	Afu6g04300::Chr6_A_fumigatus_Af293:969624-971760(-)
532	Afu5g04340::Chr5_A_fumigatus_Af293:1168529-1171412(-)
533	Afu1g14710::Chr1_A_fumigatus_Af293:3935939-3938122(-)
534	Afu2g14620::Chr2_A_fumigatus_Af293:3829198-3830172(-)
535	Afu4g14160::Chr4_A_fumigatus_Af293:3701695-3703174(-)
536	Afu1g09120::Chr1_A_fumigatus_Af293:2367388-2369546(-)
537	Afu7g06220::Chr7_A_fumigatus_Af293:1522300-1524313(+)
538	Afu2g08030::Chr2_A_fumigatus_Af293:2057635-2058365(+)
539	Afu2g02500::Chr2_A_fumigatus_Af293:636056-637335(-)
540	Afu7g04990::Chr7_A_fumigatus_Af293:1174643-1175158(-)
541	Afu7g06200::Chr7_A_fumigatus_Af293:1517765-1519473(-)
542	Afu8g01760::Chr8_A_fumigatus_Af293:460268-461250(+)
543	Afu1g13450::Chr1_A_fumigatus_Af293:3577153-3581504(+)
544	Afu7g00180::Chr7_A_fumigatus_Af293:43963-45029(-)
545	Afu5g00760::Chr5_A_fumigatus_Af293:209980-213818(+)
546	Afu1g00450::Chr1_A_fumigatus_Af293:143116-144466(+)
547	Afu2g17480::Chr2_A_fumigatus_Af293:4664276-4666751(+)
548	Afu4g01210::Chr4_A_fumigatus_Af293:322039-322992(+)
549	Afu6g07470::Chr6_A_fumigatus_Af293:1693739-1695855(-)
550	Afu7g00470::Chr7_A_fumigatus_Af293:122688-124182(-)
551	Afu6g04600::Chr6_A_fumigatus_Af293:1067198-1070680(-)
552	Afu4g00320::Chr4_A_fumigatus_Af293:83370-87284(+)
553	Afu6g02210::Chr6_A_fumigatus_Af293:386416-388438(+)
554	Afu7g05000::Chr7_A_fumigatus_Af293:1175632-1177102(+)
555	Afu3g14690::Chr3_A_fumigatus_Af293:3895395-3897111(-)
556	Afu4g13980::Chr4_A_fumigatus_Af293:3647374-3647840(+)
557	Afu3g07570::Chr3_A_fumigatus_Af293:1900377-1901695(+)
558	Afu8g05740::Chr8_A_fumigatus_Af293:1366106-1367520(+)
559	Afu8g01460::Chr8_A_fumigatus_Af293:367338-367503(-)
560	Afu4g10770::Chr4_A_fumigatus_Af293:2800948-2805764(+)
561	Afu1g03570::Chr1_A_fumigatus_Af293:1031445-1033247(+)
562	Afu1g11650::Chr1_A_fumigatus_Af293:3069323-3071410(+)
563	Afu6g12400::Chr6_A_fumigatus_Af293:3126262-3133108(-)
564	Afu5g09130::Chr5_A_fumigatus_Af293:2345635-2347047(-)
565	Afu1g00160::Chr1_A_fumigatus_Af293:29597-29981(+)
566	Afu1g17670::Chr1_A_fumigatus_Af293:4844738-4847059(+)
567	Afu8g06700::Chr8_A_fumigatus_Af293:1635102-1637013(-)
568	Afu2g05140::Chr2_A_fumigatus_Af293:1419849-1423454(+)
569	Afu2g15165::Chr2_A_fumigatus_Af293:4013019-4013590(-)
570	Afu7g04870::Chr7_A_fumigatus_Af293:1142714-1145073(+)
571	Afu2g08780::Chr2_A_fumigatus_Af293:2253334-2257746(-)
572	Afu1g01480::Chr1_A_fumigatus_Af293:471046-474848(-)
573	MSTRG.79::Chr1_A_fumigatus_Af293:1630876-1634116(-)
574	MSTRG.907::Chr8_A_fumigatus_Af293:145624-147212(-)
575	Afu1g06280::Chr1_A_fumigatus_Af293:1805032-1806529(+)
576	MSTRG.370::Chr3_A_fumigatus_Af293:1121726-1122010(-)
577	Afu5g01110::Chr5_A_fumigatus_Af293:282981-283083(-)
578	Afu2g03440::Chr2_A_fumigatus_Af293:904921-908572(+)
579	Afu1g04010::Chr1_A_fumigatus_Af293:1153524-1155396(+)
580	MSTRG.635::Chr5_A_fumigatus_Af293:2624474-2624817(-)
581	Afu8g00350::Chr8_A_fumigatus_Af293:74123-77388(+)
582	Afu6g11760::Chr6_A_fumigatus_Af293:2925441-2925774(+)
583	Afu1g16360::Chr1_A_fumigatus_Af293:4442329-4442584(-)
584	Afu5g05580::Chr5_A_fumigatus_Af293:1300406-1302182(-)
585	Afu2g00370::Chr2_A_fumigatus_Af293:69753-73441(-)
586	Afu4g01590::Chr4_A_fumigatus_Af293:430009-430891(+)
587	Afu1g12420::Chr1_A_fumigatus_Af293:3278441-3279132(-)
588	Afu2g09640::Chr2_A_fumigatus_Af293:2474430-2478381(+)
589	Afu4g13620::Chr4_A_fumigatus_Af293:3561811-3562273(+)
590	MSTRG.159::Chr1_A_fumigatus_Af293:4728008-4728366(+)
591	Afu3g14670::Chr3_A_fumigatus_Af293:3891233-3892834(+)
592	Afu7g06950::Chr7_A_fumigatus_Af293:1699104-1700882(-)
593	Afu3g15160::Chr3_A_fumigatus_Af293:3987231-3987802(+)
594	Afu2g02510::Chr2_A_fumigatus_Af293:637756-642884(-)
595	Afu5g06660::Chr5_A_fumigatus_Af293:1631095-1633247(-)
596	MSTRG.937::Chr8_A_fumigatus_Af293:1160402-1161282(-)
597	MSTRG.809::Chr6_A_fumigatus_Af293:3704894-3705212(+)
598	Afu1g10080::Chr1_A_fumigatus_Af293:2602218-2604886(+)
599	MSTRG.208::Chr2_A_fumigatus_Af293:1502360-1503695(+)
600	Afu2g12630::Chr2_A_fumigatus_Af293:3247152-3247611(-)
601	Afu1g10575::Chr1_A_fumigatus_Af293:2751955-2753824(-)
602	Afu8g01440::Chr8_A_fumigatus_Af293:363551-365031(-)
603	Afu1g16460::Chr1_A_fumigatus_Af293:4464369-4467214(+)
604	Afu5g02655::Chr5_A_fumigatus_Af293:693141-696385(+)
605	Afu1g04730::Chr1_A_fumigatus_Af293:1341013-1343352(+)
606	Afu1g01560::Chr1_A_fumigatus_Af293:492222-494504(+)
607	Afu3g03300::Chr3_A_fumigatus_Af293:882541-884161(-)
608	Afu5g12450::Chr5_A_fumigatus_Af293:3226805-3228539(+)
609	Afu6g09090::Chr6_A_fumigatus_Af293:2159086-2159707(+)
610	Afu7g02570::Chr7_A_fumigatus_Af293:704158-707278(-)
611	Afu6g10790::Chr6_A_fumigatus_Af293:2665014-2667089(+)
612	Afu3g13640::Chr3_A_fumigatus_Af293:3600771-3602181(-)
613	Afu5g03430::Chr5_A_fumigatus_Af293:927629-933873(-)
614	Afu1g03790::Chr1_A_fumigatus_Af293:1102483-1104865(+)
615	Afu3g03150::Chr3_A_fumigatus_Af293:847571-848244(-)
616	Afu5g00550::Chr5_A_fumigatus_Af293:157166-158726(-)
617	Afu3tD(GUC)5::Chr3_A_fumigatus_Af293:979209-979297(-)
618	Afu8g00650::Chr8_A_fumigatus_Af293:155916-157260(+)
619	Afu5g08780::Chr5_A_fumigatus_Af293:2250277-2253914(+)
620	Afu7g01610::Chr7_A_fumigatus_Af293:424776-428259(+)
621	Afu5g01840::Chr5_A_fumigatus_Af293:466590-470453(-)
622	Afu6g14560::Chr6_A_fumigatus_Af293:3714240-3715950(+)
623	Afu6g07600::Chr6_A_fumigatus_Af293:1725299-1727999(-)
624	Afu7g02180::Chr7_A_fumigatus_Af293:584568-586235(+)
625	MSTRG.239::Chr2_A_fumigatus_Af293:2435080-2435866(+)
626	Afu3g14940::Chr3_A_fumigatus_Af293:3946318-3946689(-)
627	Afu1g01920::Chr1_A_fumigatus_Af293:568119-569945(+)
628	Afu4g08634::Chr4_A_fumigatus_Af293:2243109-2244180(+)
629	Afu5g01920::Chr5_A_fumigatus_Af293:487905-489695(+)
630	Afu4g03780::Chr4_A_fumigatus_Af293:1060447-1063030(-)
631	Afu2g14840::Chr2_A_fumigatus_Af293:3915246-3917282(-)
632	Afu5g14630::Chr5_A_fumigatus_Af293:3790986-3791391(+)
633	MSTRG.463::Chr4_A_fumigatus_Af293:236387-237588(+)
634	Afu8g07330::Chr8_A_fumigatus_Af293:1797058-1798170(+)
635	MSTRG.431::Chr3_A_fumigatus_Af293:3187165-3187441(-)
636	Afu2g05750::Chr2_A_fumigatus_Af293:1619717-1621557(-)
637	Afu5g08940::Chr5_A_fumigatus_Af293:2293986-2296089(+)
638	Afu4g14500::Chr4_A_fumigatus_Af293:3831122-3832460(+)
639	MSTRG.199::Chr2_A_fumigatus_Af293:1411761-1412051(-)
640	Afu3g01050::Chr3_A_fumigatus_Af293:242857-244210(-)
641	Afu2g01160::Chr2_A_fumigatus_Af293:268556-269294(+)
642	Afu1g04260::Chr1_A_fumigatus_Af293:1208617-1212529(+)
643	Afu3g08310::Chr3_A_fumigatus_Af293:2139193-2140328(+)
644	Afu5g02930::Chr5_A_fumigatus_Af293:778619-780409(-)
645	Afu7g04370::Chr7_A_fumigatus_Af293:991336-992115(-)
646	Afu6g09380::Chr6_A_fumigatus_Af293:2257116-2258041(+)
647	Afu5g07670::Chr5_A_fumigatus_Af293:1914863-1916599(-)
648	Afu5g09120::Chr5_A_fumigatus_Af293:2343529-2345475(-)
649	Afu3g01180::Chr3_A_fumigatus_Af293:281404-283021(+)
650	Afu2g01880::Chr2_A_fumigatus_Af293:469719-471144(+)
651	Afu1g12520::Chr1_A_fumigatus_Af293:3297457-3300137(+)
652	Afu8g01570::Chr8_A_fumigatus_Af293:403740-405229(+)
653	Afu8g06570::Chr8_A_fumigatus_Af293:1592940-1594435(+)
654	Afu3g03310::Chr3_A_fumigatus_Af293:884899-885849(+)
655	Afu4g12010::Chr4_A_fumigatus_Af293:3158662-3160543(+)
656	Afu2g07930::Chr2_A_fumigatus_Af293:2030797-2031136(+)
657	Afu8g05050::Chr8_A_fumigatus_Af293:1175993-1176694(+)
658	Afu3g14130::Chr3_A_fumigatus_Af293:3754992-3756803(-)
659	Afu2g00110::Chr2_A_fumigatus_Af293:14881-17000(-)
660	Afu2g00967::Chr2_A_fumigatus_Af293:221955-222546(+)
661	Afu2g01760::Chr2_A_fumigatus_Af293:430225-438215(+)
662	Afu6g00720::Chr6_A_fumigatus_Af293:181628-181926(-)
663	MSTRG.775::Chr6_A_fumigatus_Af293:2593352-2594894(+)
664	Afu6g04350::Chr6_A_fumigatus_Af293:988443-991140(+)
665	Afu1g17500::Chr1_A_fumigatus_Af293:4788538-4788798(-)
666	Afu1g06550::Chr1_A_fumigatus_Af293:1876959-1879807(-)
667	Afu4g12750::Chr4_A_fumigatus_Af293:3342179-3345467(-)
668	Afu1g09630::Chr1_A_fumigatus_Af293:2487014-2494107(-)
669	Afu3g02820::Chr3_A_fumigatus_Af293:744127-746166(+)
670	Afu5g07430::Chr5_A_fumigatus_Af293:1854639-1860890(+)
671	Afu7g01060::Chr7_A_fumigatus_Af293:282411-283521(+)
672	Afu5g01100::Chr5_A_fumigatus_Af293:281248-282903(+)
673	Afu8g05720::Chr8_A_fumigatus_Af293:1362438-1364174(+)
674	Afu3g02680::Chr3_A_fumigatus_Af293:698028-699806(+)
675	Afu6g14500::Chr6_A_fumigatus_Af293:3687107-3689007(+)
676	Afu3g00920::Chr3_A_fumigatus_Af293:218496-219629(+)
677	Afu6g09800::Chr6_A_fumigatus_Af293:2408262-2410006(+)
678	Afu1g10995::Chr1_A_fumigatus_Af293:2875273-2876690(+)
679	Afu3g01330::Chr3_A_fumigatus_Af293:325056-326161(-)
680	Afu8g04380::Chr8_A_fumigatus_Af293:983585-986359(-)
681	Afu7g04010::Chr7_A_fumigatus_Af293:899358-902205(-)
682	MSTRG.153::Chr1_A_fumigatus_Af293:4530620-4534197(-)
683	Afu1g13760::Chr1_A_fumigatus_Af293:3673368-3677277(-)
684	Afu6g03720::Chr6_A_fumigatus_Af293:819896-821585(+)
685	Afu3g14310::Chr3_A_fumigatus_Af293:3795678-3801519(-)
686	Afu2g00220::Chr2_A_fumigatus_Af293:44732-46367(-)
687	MSTRG.118::Chr1_A_fumigatus_Af293:3458423-3459136(+)
688	Afu1g02985::Chr1_A_fumigatus_Af293:856245-858170(+)
689	Afu2g16520::Chr2_A_fumigatus_Af293:4409911-4415062(-)
690	Afu4g01600::Chr4_A_fumigatus_Af293:430982-437947(+)
691	Afu5g02890::Chr5_A_fumigatus_Af293:764920-767461(-)
692	MSTRG.735::Chr6_A_fumigatus_Af293:1505036-1506380(+)
693	MSTRG.222::Chr2_A_fumigatus_Af293:1987543-1987834(-)
694	MSTRG.884::Chr7_A_fumigatus_Af293:1841298-1841675(+)
695	Afu6g08510::Chr6_A_fumigatus_Af293:1997826-2000155(-)
696	Afu8g05980::Chr8_A_fumigatus_Af293:1418938-1420591(+)
697	Afu2g00990::Chr2_A_fumigatus_Af293:227005-228365(+)
698	Afu2g17070::Chr2_A_fumigatus_Af293:4561025-4561659(+)
699	Afu6g13720::Chr6_A_fumigatus_Af293:3501773-3506234(+)
700	Afu8g00885::Chr8_A_fumigatus_Af293:204608-207585(+)
701	MSTRG.493::Chr4_A_fumigatus_Af293:1551259-1551785(-)
702	Afu4g12480::Chr4_A_fumigatus_Af293:3278059-3279951(-)
703	AfuMt00110::mito_A_fumigatus_Af293:25348-25756(+)
704	Afu1g17290::Chr1_A_fumigatus_Af293:4724612-4726019(-)
705	Afu5g09730::Chr5_A_fumigatus_Af293:2518516-2519424(+)
706	Afu1g12460::Chr1_A_fumigatus_Af293:3283331-3284642(+)
707	Afu1g12360::Chr1_A_fumigatus_Af293:3262693-3262867(+)
708	Afu3g14680::Chr3_A_fumigatus_Af293:3893245-3895238(+)
709	Afu3g01400::Chr3_A_fumigatus_Af293:348052-352621(+)
710	Afu6g10940::Chr6_A_fumigatus_Af293:2697013-2698455(-)
711	Afu1g13670::Chr1_A_fumigatus_Af293:3633588-3636253(+)
712	MSTRG.189::Chr2_A_fumigatus_Af293:1058608-1058945(-)
713	Afu4g14570::Chr4_A_fumigatus_Af293:3846108-3847374(+)
714	Afu1g15650::Chr1_A_fumigatus_Af293:4225161-4229090(+)
715	Afu1g09730::Chr1_A_fumigatus_Af293:2519275-2520477(-)
716	Afu1g02180::Chr1_A_fumigatus_Af293:643800-648235(-)
717	Afu4g14220::Chr4_A_fumigatus_Af293:3715716-3718101(+)
718	Afu3g08240::Chr3_A_fumigatus_Af293:2112684-2114430(-)
719	Afu5g13680::Chr5_A_fumigatus_Af293:3591556-3592103(-)
720	Afu4g03260::Chr4_A_fumigatus_Af293:926176-926895(+)
721	Afu5g02880::Chr5_A_fumigatus_Af293:762082-764748(-)
722	Afu1g02260::Chr1_A_fumigatus_Af293:662921-663500(+)
723	Afu3g10770::Chr3_A_fumigatus_Af293:2800437-2802027(+)
724	Afu6g11600::Chr6_A_fumigatus_Af293:2875451-2876848(-)
725	Afu5g09480::Chr5_A_fumigatus_Af293:2445263-2451366(-)
726	Afu4g01180::Chr4_A_fumigatus_Af293:318406-318892(-)
727	Afu1g01620::Chr1_A_fumigatus_Af293:506340-509276(+)
728	Afu4g00870::Chr4_A_fumigatus_Af293:240516-241483(-)
729	MSTRG.489::Chr4_A_fumigatus_Af293:1145139-1146726(+)
730	MSTRG.805::Chr6_A_fumigatus_Af293:3584785-3585211(+)
731	MSTRG.119::Chr1_A_fumigatus_Af293:3444547-3446750(+)
732	Afu5g10200::Chr5_A_fumigatus_Af293:2620327-2621479(-)
733	MSTRG.428::Chr3_A_fumigatus_Af293:3121839-3122535(+)
734	Afu7g06110::Chr7_A_fumigatus_Af293:1499882-1502459(+)
735	Afu1g12410::Chr1_A_fumigatus_Af293:3275092-3276966(+)
736	Afu6g07910::Chr6_A_fumigatus_Af293:1832002-1833789(+)
737	Afu5g02630::Chr5_A_fumigatus_Af293:689238-689978(+)
738	Afu6g13840::Chr6_A_fumigatus_Af293:3534931-3535452(+)
739	Afu2g00250::Chr2_A_fumigatus_Af293:50744-51623(-)
740	Afu7g06940::Chr7_A_fumigatus_Af293:1696983-1698635(+)
741	Afu7g05830::Chr7_A_fumigatus_Af293:1427444-1429544(-)
742	Afu4g01392::Chr4_A_fumigatus_Af293:365616-368901(+)
743	MSTRG.919::Chr8_A_fumigatus_Af293:491097-491953(+)
744	Afu5g06340::Chr5_A_fumigatus_Af293:1525270-1527934(-)
745	Afu2g17380::Chr2_A_fumigatus_Af293:4643650-4644157(+)
746	Afu2g13260::Chr2_A_fumigatus_Af293:3408134-3413423(-)
747	Afu8g01060::Chr8_A_fumigatus_Af293:247548-249328(-)
748	Afu1g13120::Chr1_A_fumigatus_Af293:3483302-3483942(+)
749	Afu5g10400::Chr5_A_fumigatus_Af293:2661555-2662694(-)
750	Afu3g11040::Chr3_A_fumigatus_Af293:2880754-2885522(-)
751	MSTRG.329::Chr3_A_fumigatus_Af293:377136-378041(+)
752	Afu2g10830::Chr2_A_fumigatus_Af293:2780931-2782446(+)
753	Afu2g14850::Chr2_A_fumigatus_Af293:3917417-3918284(-)
754	Afu6g00140::Chr6_A_fumigatus_Af293:40731-43026(+)
755	Afu5g01830::Chr5_A_fumigatus_Af293:463788-466012(-)
756	MSTRG.100::Chr1_A_fumigatus_Af293:2750713-2751075(-)
757	Afu6g09785::Chr6_A_fumigatus_Af293:2405446-2406212(+)
758	MSTRG.908::Chr8_A_fumigatus_Af293:295875-297544(-)
759	Afu7g03880::Chr7_A_fumigatus_Af293:865375-869014(-)
760	Afu6g11800::Chr6_A_fumigatus_Af293:2948990-2950141(-)
761	Afu6g09070::Chr6_A_fumigatus_Af293:2154961-2156209(-)
762	Afu6g08155::Chr6_A_fumigatus_Af293:1897433-1898989(+)
763	Afu2g12490::Chr2_A_fumigatus_Af293:3206165-3208689(+)
764	Afu1g16560::Chr1_A_fumigatus_Af293:4486845-4488181(-)
765	MSTRG.461::Chr4_A_fumigatus_Af293:215325-216459(+)
766	Afu5g07550::Chr5_A_fumigatus_Af293:1888807-1889350(+)
767	Afu3g05820::Chr3_A_fumigatus_Af293:1420086-1422936(-)
768	Afu4g09640::Chr4_A_fumigatus_Af293:2511621-2512191(+)
769	Afu1g17542::Chr1_A_fumigatus_Af293:4799086-4800872(+)
770	Afu8g00910::Chr8_A_fumigatus_Af293:209752-210522(-)
771	Afu3g01860::Chr3_A_fumigatus_Af293:455084-456389(-)
772	Afu1g01630::Chr1_A_fumigatus_Af293:510074-511213(-)
773	Afu7g00820::Chr7_A_fumigatus_Af293:214017-215570(-)
774	Afu3g12830::Chr3_A_fumigatus_Af293:3413579-3415196(+)
775	Afu8g05910::Chr8_A_fumigatus_Af293:1399538-1400526(-)
776	Afu5g02670::Chr5_A_fumigatus_Af293:700134-700845(-)
777	MSTRG.101::Chr1_A_fumigatus_Af293:2751081-2751470(+)
778	Afu8g01080::Chr8_A_fumigatus_Af293:254414-256494(+)
779	Afu7g06730::Chr7_A_fumigatus_Af293:1638015-1638408(-)
780	Afu1g15210::Chr1_A_fumigatus_Af293:4093030-4094797(-)
781	Afu6g07610::Chr6_A_fumigatus_Af293:1728157-1729394(+)
782	Afu3g08620::Chr3_A_fumigatus_Af293:2208711-2210488(+)
783	Afu6g11170::Chr6_A_fumigatus_Af293:2754018-2758457(-)
784	Afu2g12780::Chr2_A_fumigatus_Af293:3276161-3279122(-)
785	MSTRG.722::Chr6_A_fumigatus_Af293:974750-975129(+)
786	Afu4g01370::Chr4_A_fumigatus_Af293:361057-363039(-)
787	Afu3g05450::Chr3_A_fumigatus_Af293:1313257-1314948(-)
788	Afu3g01910::Chr3_A_fumigatus_Af293:470750-473668(+)
789	Afu2g15905::Chr2_A_fumigatus_Af293:4206119-4207639(-)
790	Afu4g03470::Chr4_A_fumigatus_Af293:988805-990572(+)
791	Afu8g00270::Chr8_A_fumigatus_Af293:46666-48171(-)
792	Afu8g07370::Chr8_A_fumigatus_Af293:1809472-1811208(+)
793	Afu2g03520::Chr2_A_fumigatus_Af293:938463-940100(+)
794	Afu7g08237::Chr7_A_fumigatus_Af293:1825448-1826892(-)
795	MSTRG.326::Chr3_A_fumigatus_Af293:276798-277081(-)
796	Afu6g04690::Chr6_A_fumigatus_Af293:1094729-1096031(+)
797	MSTRG.917::Chr8_A_fumigatus_Af293:387901-388465(+)
798	Afu2g17370::Chr2_A_fumigatus_Af293:4641738-4642508(-)
799	MSTRG.324::Chr3_A_fumigatus_Af293:290793-291188(-)
800	Afu1g08910::Chr1_A_fumigatus_Af293:2310658-2313463(+)
801	MSTRG.923::Chr8_A_fumigatus_Af293:542603-543215(+)
802	Afu2g04200::Chr2_A_fumigatus_Af293:1167752-1171339(-)
803	MSTRG.938::Chr8_A_fumigatus_Af293:1161360-1162883(+)
804	Afu4g14170::Chr4_A_fumigatus_Af293:3703693-3704352(+)
805	Afu6g08400::Chr6_A_fumigatus_Af293:1966762-1966891(+)
806	Afu5g12420::Chr5_A_fumigatus_Af293:3219833-3223050(+)
807	Afu2g14200::Chr2_A_fumigatus_Af293:3717647-3720947(+)
808	Afu1g17680::Chr1_A_fumigatus_Af293:4847539-4849884(+)
809	Afu4g13890::Chr4_A_fumigatus_Af293:3623546-3624770(+)
810	Afu3g09150::Chr3_A_fumigatus_Af293:2326967-2327770(-)
811	Afu1g04780::Chr1_A_fumigatus_Af293:1354003-1356622(-)
812	Afu5g00870::Chr5_A_fumigatus_Af293:236239-236663(+)
813	Afu3g03960::Chr3_A_fumigatus_Af293:1130338-1131637(+)
814	Afu3g13080::Chr3_A_fumigatus_Af293:3469028-3471025(-)
815	Afu2g17790::Chr2_A_fumigatus_Af293:4731727-4733647(+)
816	Afu6g14420::Chr6_A_fumigatus_Af293:3665747-3667678(-)
817	Afu1g01720::Chr1_A_fumigatus_Af293:528066-531564(-)
818	Afu2g15840::Chr2_A_fumigatus_Af293:4182935-4186156(-)
819	Afu3g14140::Chr3_A_fumigatus_Af293:3757675-3759329(-)
820	Afu4g11060::Chr4_A_fumigatus_Af293:2880244-2882249(-)
821	MSTRG.906::Chr8_A_fumigatus_Af293:136273-136477(-)
822	Afu6g03230::Chr6_A_fumigatus_Af293:684951-686533(+)
823	Afu2g01300::Chr2_A_fumigatus_Af293:315009-316044(+)
824	Afu4g14085::Chr4_A_fumigatus_Af293:3684513-3685676(+)
825	Afu5g11790::Chr5_A_fumigatus_Af293:3029065-3034716(+)
826	MSTRG.360::Chr3_A_fumigatus_Af293:1033714-1034442(-)
827	Afu4g01322::Chr4_A_fumigatus_Af293:349097-351105(-)
828	Afu6g03080::Chr6_A_fumigatus_Af293:648930-652940(+)
829	Afu4g03170::Chr4_A_fumigatus_Af293:887984-890465(+)
830	Afu4g01110::Chr4_A_fumigatus_Af293:299150-300347(+)
831	MSTRG.90::Chr1_A_fumigatus_Af293:2132524-2134309(-)
832	Afu2g03115::Chr2_A_fumigatus_Af293:814672-814788(-)
833	Afu1g03160::Chr1_A_fumigatus_Af293:908363-910329(+)
834	Afu2g12700::Chr2_A_fumigatus_Af293:3260597-3262929(-)
835	Afu2g01200::Chr2_A_fumigatus_Af293:280616-283934(-)
836	Afu5g14910::Chr5_A_fumigatus_Af293:3853364-3853944(-)
837	Afu1g10425::Chr1_A_fumigatus_Af293:2714413-2714678(-)
838	MSTRG.312::Chr2_A_fumigatus_Af293:4821199-4821633(-)
839	Afu3g01450::Chr3_A_fumigatus_Af293:368528-370278(-)
840	Afu2g03500::Chr2_A_fumigatus_Af293:924344-927908(-)
841	Afu2g12280::Chr2_A_fumigatus_Af293:3157564-3159584(-)
842	Afu3g07610::Chr3_A_fumigatus_Af293:1910974-1913638(+)
843	Afu5g00420::Chr5_A_fumigatus_Af293:118070-119830(+)
844	Afu3g03135::Chr3_A_fumigatus_Af293:842271-842387(+)
845	Afu3g01800::Chr3_A_fumigatus_Af293:445131-446424(-)
846	Afu4g11200::Chr4_A_fumigatus_Af293:2923702-2926175(-)
847	Afu7g04030::Chr7_A_fumigatus_Af293:905468-905769(-)
848	Afu2g01750::Chr2_A_fumigatus_Af293:427640-429646(-)
849	Afu7g02520::Chr7_A_fumigatus_Af293:693442-697315(+)
850	Afu1g05010::Chr1_A_fumigatus_Af293:1434423-1436874(-)
851	Afu3g00710::Chr3_A_fumigatus_Af293:159671-161546(+)
852	Afu5g01040::Chr5_A_fumigatus_Af293:271172-271976(+)
853	Afu3g07940::Chr3_A_fumigatus_Af293:2012923-2016484(+)
854	Afu5g07880::Chr5_A_fumigatus_Af293:1975144-1978137(+)
855	MSTRG.533::Chr4_A_fumigatus_Af293:3353187-3353708(+)
856	Afu1g17650::Chr1_A_fumigatus_Af293:4841195-4842254(-)
857	MSTRG.862::Chr7_A_fumigatus_Af293:1262024-1262425(-)
858	Afu6g10800::Chr6_A_fumigatus_Af293:2667151-2669543(+)
859	Afu3g10380::Chr3_A_fumigatus_Af293:2691243-2693488(-)
860	Afu2g13940::Chr2_A_fumigatus_Af293:3635004-3635556(+)
861	Afu2g12440::Chr2_A_fumigatus_Af293:3197876-3199354(-)
862	Afu2g13890::Chr2_A_fumigatus_Af293:3626131-3627695(-)
863	Afu1g09140::Chr1_A_fumigatus_Af293:2374411-2378084(-)
864	Afu2g02690::Chr2_A_fumigatus_Af293:689888-693981(-)
865	MSTRG.958::Chr8_A_fumigatus_Af293:1706766-1707156(-)
866	Afu1g04350::Chr1_A_fumigatus_Af293:1237182-1238611(-)
867	MSTRG.783::Chr6_A_fumigatus_Af293:2861171-2861551(-)
868	Afu4g10110::Chr4_A_fumigatus_Af293:2620157-2624283(-)
869	Afu5g08070::Chr5_A_fumigatus_Af293:2047217-2048483(+)
870	Afu4g01555::Chr4_A_fumigatus_Af293:410010-412227(+)
871	Afu6g10300::Chr6_A_fumigatus_Af293:2546062-2547851(+)
872	Afu5g00380::Chr5_A_fumigatus_Af293:105690-107442(-)
873	MSTRG.410::Chr3_A_fumigatus_Af293:2614648-2615901(+)
874	Afu5g11890::Chr5_A_fumigatus_Af293:3068039-3074415(-)
875	MSTRG.142::Chr1_A_fumigatus_Af293:4336784-4337159(+)
876	Afu7g02040::Chr7_A_fumigatus_Af293:545137-546663(+)
877	Afu5g00800::Chr5_A_fumigatus_Af293:219875-222265(+)
878	Afu3g11970::Chr3_A_fumigatus_Af293:3148742-3152689(-)
879	Afu4g00340::Chr4_A_fumigatus_Af293:91956-93351(-)
880	Afu2tL(CAG)1::Chr2_A_fumigatus_Af293:4365717-4365828(+)
881	Afu4g06960::Chr4_A_fumigatus_Af293:1800294-1801952(+)
882	Afu8g01510::Chr8_A_fumigatus_Af293:386247-387106(-)
883	Afu2g17475::Chr2_A_fumigatus_Af293:4660460-4662844(-)
884	Afu1g01320::Chr1_A_fumigatus_Af293:444988-446455(-)
885	Afu2g17400::Chr2_A_fumigatus_Af293:4647666-4649198(+)
886	Afu3g03060::Chr3_A_fumigatus_Af293:817011-818327(-)
887	Afu5g02140::Chr5_A_fumigatus_Af293:541876-547180(-)
888	Afu5g05950::Chr5_A_fumigatus_Af293:1395545-1396971(-)
889	Afu2g04210::Chr2_A_fumigatus_Af293:1171370-1172460(+)
890	Afu3g00220::Chr3_A_fumigatus_Af293:44924-46811(-)
891	Afu6g00530::Chr6_A_fumigatus_Af293:130203-133762(-)
892	Afu4g03340::Chr4_A_fumigatus_Af293:955974-959644(-)
893	Afu2g04350::Chr2_A_fumigatus_Af293:1194523-1198178(-)
894	Afu2g07830::Chr2_A_fumigatus_Af293:2001831-2002665(-)
895	Afu1g05360::Chr1_A_fumigatus_Af293:1539746-1542048(-)
896	Afu3g10370::Chr3_A_fumigatus_Af293:2688542-2691049(-)
897	Afu1g14420::Chr1_A_fumigatus_Af293:3854532-3855579(+)
898	MSTRG.173::Chr2_A_fumigatus_Af293:518357-519320(-)
899	Afu1g16900::Chr1_A_fumigatus_Af293:4615098-4617349(+)
900	Afu4g00420::Chr4_A_fumigatus_Af293:108525-111201(+)
901	Afu1g17460::Chr1_A_fumigatus_Af293:4779014-4781067(+)
902	Afu6g03220::Chr6_A_fumigatus_Af293:683853-684132(+)
903	Afu5g04270::Chr5_A_fumigatus_Af293:1144350-1146721(+)
904	MSTRG.769::Chr6_A_fumigatus_Af293:2329056-2329471(-)
905	Afu2g08660::Chr2_A_fumigatus_Af293:2222531-2227083(+)
906	Afu2g05360::Chr2_A_fumigatus_Af293:1491343-1493915(-)
907	Afu1g09670::Chr1_A_fumigatus_Af293:2502719-2507282(-)
908	Afu1g12490::Chr1_A_fumigatus_Af293:3289042-3291362(-)
909	Afu2g16590::Chr2_A_fumigatus_Af293:4428198-4430389(-)
910	Afu3g09395::Chr3_A_fumigatus_Af293:2378795-2378911(-)
911	Afu1g00570::Chr1_A_fumigatus_Af293:182512-184079(-)
912	Afu5g12080::Chr5_A_fumigatus_Af293:3129113-3132559(+)
913	Afu1g09870::Chr1_A_fumigatus_Af293:2556139-2560469(+)
914	Afu5g09100::Chr5_A_fumigatus_Af293:2339951-2343376(+)
915	Afu3g12295::Chr3_A_fumigatus_Af293:3242064-3242257(-)
916	MSTRG.462::Chr4_A_fumigatus_Af293:231601-231992(-)
917	Afu5g13700::Chr5_A_fumigatus_Af293:3593382-3596441(-)
918	Afu5g00750::Chr5_A_fumigatus_Af293:209033-209402(-)
919	Afu5g13800::Chr5_A_fumigatus_Af293:3627170-3627956(-)
920	MSTRG.864::Chr7_A_fumigatus_Af293:1374091-1375145(-)
921	Afu7g06250::Chr7_A_fumigatus_Af293:1529796-1530711(+)
922	Afu5g06980::Chr5_A_fumigatus_Af293:1727213-1729151(-)
923	MSTRG.133::Chr1_A_fumigatus_Af293:3951594-3952317(+)
924	Afu1g01940::Chr1_A_fumigatus_Af293:573009-574947(+)
925	Afu3g10350::Chr3_A_fumigatus_Af293:2680017-2684945(+)
926	Afu5g14980::Chr5_A_fumigatus_Af293:3874538-3877890(+)
927	Afu2g15900::Chr2_A_fumigatus_Af293:4204808-4205981(+)
928	Afu2g00510::Chr2_A_fumigatus_Af293:112577-113837(+)
929	Afu2g01150::Chr2_A_fumigatus_Af293:267181-267817(-)
930	Afu6g06400::Chr6_A_fumigatus_Af293:1372667-1377194(-)
931	Afu6g13080::Chr6_A_fumigatus_Af293:3302475-3307584(+)
932	Afu4g00720::Chr4_A_fumigatus_Af293:195196-196070(-)
933	Afu3g01470::Chr3_A_fumigatus_Af293:372629-373698(+)
934	Afu2g04000::Chr2_A_fumigatus_Af293:1086140-1091379(-)
935	Afu7g06670::Chr7_A_fumigatus_Af293:1620789-1625641(+)
936	MSTRG.774::Chr6_A_fumigatus_Af293:2518064-2518795(+)
937	Afu6g11530::Chr6_A_fumigatus_Af293:2864614-2865112(+)
938	MSTRG.668::Chr5_A_fumigatus_Af293:3594225-3594752(-)
939	Afu6g11990::Chr6_A_fumigatus_Af293:3000031-3000532(+)
940	Afu5g07870::Chr5_A_fumigatus_Af293:1972981-1975047(-)
941	Afu3g07210::Chr3_A_fumigatus_Af293:1812015-1813475(+)
942	Afu1g08990::Chr1_A_fumigatus_Af293:2330836-2332281(-)
943	Afu2g15730::Chr2_A_fumigatus_Af293:4153697-4155792(+)
944	Afu1g17690::Chr1_A_fumigatus_Af293:4850563-4852177(+)
945	Afu7g01100::Chr7_A_fumigatus_Af293:289171-290000(-)
946	Afu1g14150::Chr1_A_fumigatus_Af293:3781504-3781936(+)
947	Afu8g01130::Chr8_A_fumigatus_Af293:264134-266678(-)
948	Afu5g01230::Chr5_A_fumigatus_Af293:308560-309772(+)
949	Afu1g05140::Chr1_A_fumigatus_Af293:1472801-1474423(+)
950	Afu4g14140::Chr4_A_fumigatus_Af293:3696655-3698364(-)
951	MSTRG.471::Chr4_A_fumigatus_Af293:793343-793984(-)
952	Afu3g13130::Chr3_A_fumigatus_Af293:3486743-3487482(-)
953	Afu7g01970::Chr7_A_fumigatus_Af293:532188-532864(-)
954	Afu3g00680::Chr3_A_fumigatus_Af293:151249-153677(-)
955	Afu2g15280::Chr2_A_fumigatus_Af293:4048941-4050755(+)
956	Afu1g05670::Chr1_A_fumigatus_Af293:1626278-1630179(-)
957	Afu1g15410::Chr1_A_fumigatus_Af293:4153694-4155176(+)
958	Afu2g08100::Chr2_A_fumigatus_Af293:2101512-2102711(+)
959	Afu1g01170::Chr1_A_fumigatus_Af293:410234-411132(+)
960	Afu7g01118::Chr7_A_fumigatus_Af293:292527-292791(+)
961	Afu2g15010::Chr2_A_fumigatus_Af293:3955099-3962325(-)
962	Afu3g00810::Chr3_A_fumigatus_Af293:179865-181070(-)
963	Afu8g01150::Chr8_A_fumigatus_Af293:272895-275097(+)
964	Afu4g14190::Chr4_A_fumigatus_Af293:3707514-3709516(+)
965	Afu3g09610::Chr3_A_fumigatus_Af293:2442713-2443781(-)
966	Afu4g03305::Chr4_A_fumigatus_Af293:938207-940167(-)
967	MSTRG.392::Chr3_A_fumigatus_Af293:1961703-1962152(-)
968	Afu2g01870::Chr2_A_fumigatus_Af293:465552-469561(-)
969	Afu5g01662::Chr5_A_fumigatus_Af293:421500-423816(+)
970	Afu3g10340::Chr3_A_fumigatus_Af293:2677692-2679664(-)
971	Afu5g02260::Chr5_A_fumigatus_Af293:577629-582809(-)
972	Afu4g03350::Chr4_A_fumigatus_Af293:960148-962538(+)
973	Afu7g06340::Chr7_A_fumigatus_Af293:1550644-1552888(-)
974	Afu6g00710::Chr6_A_fumigatus_Af293:179803-181390(+)
975	Afu2g00310::Chr2_A_fumigatus_Af293:58879-60622(+)
976	Afu6g00290::Chr6_A_fumigatus_Af293:84190-85706(+)
977	Afu2g13740::Chr2_A_fumigatus_Af293:3565856-3569173(+)
978	MSTRG.830::Chr7_A_fumigatus_Af293:239268-240480(+)
979	Afu5g00860::Chr5_A_fumigatus_Af293:234648-235431(-)
980	Afu6g03280::Chr6_A_fumigatus_Af293:695805-697536(+)
981	Afu2g10840::Chr2_A_fumigatus_Af293:2783381-2785027(+)
982	Afu6g13400::Chr6_A_fumigatus_Af293:3409119-3409762(-)
983	Afu1g01710::Chr1_A_fumigatus_Af293:527643-527919(+)
984	Afu6g13810::Chr6_A_fumigatus_Af293:3529779-3531064(+)
985	Afu3g14820::Chr3_A_fumigatus_Af293:3923850-3924974(-)
986	Afu8g01920::Chr8_A_fumigatus_Af293:495888-496386(-)
987	Afu1g13110::Chr1_A_fumigatus_Af293:3479417-3482156(+)
988	Afu8g02650::Chr8_A_fumigatus_Af293:701850-707183(-)
989	Afu7g04170::Chr7_A_fumigatus_Af293:941005-943099(-)
990	Afu4g10900::Chr4_A_fumigatus_Af293:2848475-2848643(+)
991	Afu8g07265::Chr8_A_fumigatus_Af293:1784431-1785531(-)
992	Afu1g06160::Chr1_A_fumigatus_Af293:1777957-1782409(+)
993	Afu3g03540::Chr3_A_fumigatus_Af293:947248-949912(+)
994	Afu8g06990::Chr8_A_fumigatus_Af293:1712213-1714420(+)
995	Afu2g15720::Chr2_A_fumigatus_Af293:4152224-4153397(+)
996	Afu6g08770::Chr6_A_fumigatus_Af293:2079217-2080870(+)
997	Afu2g14610::Chr2_A_fumigatus_Af293:3827491-3829144(+)
998	Afu5g10210::Chr5_A_fumigatus_Af293:2621631-2622486(-)
999	MSTRG.838::Chr7_A_fumigatus_Af293:650040-650364(-)
1000	Afu1g02060::Chr1_A_fumigatus_Af293:608893-610635(+)
1001	Afu4g14200::Chr4_A_fumigatus_Af293:3709932-3711204(-)
1002	Afu6g11770::Chr6_A_fumigatus_Af293:2926409-2927479(+)
1003	Afu2g13830::Chr2_A_fumigatus_Af293:3600581-3607106(+)
1004	Afu1g09590::Chr1_A_fumigatus_Af293:2477515-2479564(+)
1005	Afu6g00450::Chr6_A_fumigatus_Af293:114042-117328(-)
1006	Afu4g10040::Chr4_A_fumigatus_Af293:2599010-2600802(-)
1007	Afu6g14390::Chr6_A_fumigatus_Af293:3658493-3659773(-)
1008	Afu4g03300::Chr4_A_fumigatus_Af293:937436-938052(+)
1009	Afu8g06800::Chr8_A_fumigatus_Af293:1661082-1661970(-)
1010	Afu6g07890::Chr6_A_fumigatus_Af293:1818574-1822558(+)
1011	Afu3g07630::Chr3_A_fumigatus_Af293:1918713-1919637(+)
1012	MSTRG.149::Chr1_A_fumigatus_Af293:4496438-4497427(-)
1013	Afu5g00890::Chr5_A_fumigatus_Af293:237322-238237(+)
1014	Afu2g01770::Chr2_A_fumigatus_Af293:438566-440470(+)
1015	Afu7g06720::Chr7_A_fumigatus_Af293:1635572-1637556(+)
1016	Afu7g01310::Chr7_A_fumigatus_Af293:341038-343901(-)
1017	Afu1g16390::Chr1_A_fumigatus_Af293:4446141-4447742(-)
1018	Afu3g11290::Chr3_A_fumigatus_Af293:2955905-2956801(-)
1019	Afu4g11140::Chr4_A_fumigatus_Af293:2906973-2910232(+)
1020	Afu3g05590::Chr3_A_fumigatus_Af293:1358385-1360961(+)
1021	AfuMt00120::mito_A_fumigatus_Af293:25861-26623(+)
1022	Afu5g06915::Chr5_A_fumigatus_Af293:1704492-1706533(-)
1023	Afu4g13440::Chr4_A_fumigatus_Af293:3515897-3521005(-)
1024	Afu2g17140::Chr2_A_fumigatus_Af293:4578248-4580865(+)
1025	Afu1g01450::Chr1_A_fumigatus_Af293:467132-468547(+)
1026	Afu5g02040::Chr5_A_fumigatus_Af293:522624-524528(+)
1027	Afu5g11810::Chr5_A_fumigatus_Af293:3034877-3048617(+)
1028	Afu2g12500::Chr2_A_fumigatus_Af293:3209204-3211808(+)
1029	Afu3g00510::Chr3_A_fumigatus_Af293:111561-112801(+)
1030	Afu2g17450::Chr2_A_fumigatus_Af293:4656629-4657448(+)
1031	MSTRG.422::Chr3_A_fumigatus_Af293:3023088-3023507(+)
