c(module, names(dataExprAfum)[moduleColors == module])
1	grey60
2	Afu1g01020::Chr1_A_fumigatus_Af293:370901-375565(-)
3	Afu4g10120::Chr4_A_fumigatus_Af293:2637024-2639816(+)
4	Afu7g01695::Chr7_A_fumigatus_Af293:452164-454008(-)
5	Afu4g09910::Chr4_A_fumigatus_Af293:2570559-2573770(+)
6	Afu4g03940::Chr4_A_fumigatus_Af293:1106151-1108233(+)
7	Afu3g13110::Chr3_A_fumigatus_Af293:3480551-3484550(+)
8	Afu6g02950::Chr6_A_fumigatus_Af293:613007-614662(+)
9	Afu5g12040::Chr5_A_fumigatus_Af293:3115603-3117103(+)
10	MSTRG.383::Chr3_A_fumigatus_Af293:1660920-1662944(+)
11	Afu2g17900::Chr2_A_fumigatus_Af293:4757832-4758863(+)
12	Afu1g15460::Chr1_A_fumigatus_Af293:4173213-4177257(-)
13	Afu4g03410::Chr4_A_fumigatus_Af293:972645-973887(+)
14	Afu8g01340::Chr8_A_fumigatus_Af293:329549-332640(+)
15	Afu1g04570::Chr1_A_fumigatus_Af293:1292510-1295852(-)
16	Afu7g01660::Chr7_A_fumigatus_Af293:441530-442164(+)
17	Afu4g03450::Chr4_A_fumigatus_Af293:980422-981429(+)
18	Afu6g14000::Chr6_A_fumigatus_Af293:3570152-3572598(+)
19	Afu1g14550::Chr1_A_fumigatus_Af293:3886698-3888133(+)
20	Afu1g11380::Chr1_A_fumigatus_Af293:2997360-3000449(-)
21	Afu4g06020::Chr4_A_fumigatus_Af293:1527143-1532115(-)
22	Afu2g03910::Chr2_A_fumigatus_Af293:1038257-1041661(+)
23	Afu5g08990::Chr5_A_fumigatus_Af293:2307196-2308209(-)
24	Afu3g00880::Chr3_A_fumigatus_Af293:200539-202711(+)
25	MSTRG.480::Chr4_A_fumigatus_Af293:919543-920368(+)
26	Afu4g08960::Chr4_A_fumigatus_Af293:2324337-2326597(+)
27	Afu1g11740::Chr1_A_fumigatus_Af293:3088567-3089514(-)
28	Afu7g04920::Chr7_A_fumigatus_Af293:1158082-1159108(-)
29	Afu8g06010::Chr8_A_fumigatus_Af293:1425591-1428172(-)
30	Afu8g01485::Chr8_A_fumigatus_Af293:377027-379419(+)
31	Afu5g01405::Chr5_A_fumigatus_Af293:354291-358110(-)
32	Afu1g11930::Chr1_A_fumigatus_Af293:3140539-3142474(+)
33	Afu3g04040::Chr3_A_fumigatus_Af293:1146010-1149036(-)
34	Afu5g12700::Chr5_A_fumigatus_Af293:3302653-3303537(+)
35	MSTRG.41::Chr1_A_fumigatus_Af293:359416-359838(-)
36	Afu3g13680::Chr3_A_fumigatus_Af293:3608486-3610184(-)
37	MSTRG.878::Chr7_A_fumigatus_Af293:1806819-1807141(-)
38	MSTRG.554::Chr5_A_fumigatus_Af293:56487-57430(+)
39	Afu8g05590::Chr8_A_fumigatus_Af293:1311087-1311951(+)
40	Afu3g00600::Chr3_A_fumigatus_Af293:131434-133958(+)
41	Afu4g13850::Chr4_A_fumigatus_Af293:3615425-3618300(-)
42	Afu2g11790::Chr2_A_fumigatus_Af293:3038178-3039652(+)
43	Afu5g01930::Chr5_A_fumigatus_Af293:489699-491868(-)
44	Afu3g06720::Chr3_A_fumigatus_Af293:1667615-1668702(-)
45	Afu4g09960::Chr4_A_fumigatus_Af293:2579275-2582020(-)
46	Afu3g14570::Chr3_A_fumigatus_Af293:3859197-3862305(-)
47	Afu3g13700::Chr3_A_fumigatus_Af293:3612572-3615716(+)
48	Afu8g06510::Chr8_A_fumigatus_Af293:1572571-1574802(-)
49	Afu8g02290::Chr8_A_fumigatus_Af293:611981-613412(-)
50	Afu3g00950::Chr3_A_fumigatus_Af293:224487-225500(-)
51	Afu1g07220::Chr1_A_fumigatus_Af293:2049292-2051774(+)
52	Afu8g00920::Chr8_A_fumigatus_Af293:211323-213115(+)
53	Afu8g01310::Chr8_A_fumigatus_Af293:320268-322604(-)
54	Afu1g16670::Chr1_A_fumigatus_Af293:4527898-4528924(-)
55	Afu6g03390::Chr6_A_fumigatus_Af293:724735-726586(+)
56	Afu4g00485::Chr4_A_fumigatus_Af293:122811-124301(-)
57	Afu7g00730::Chr7_A_fumigatus_Af293:190247-192346(-)
58	Afu5g09870::Chr5_A_fumigatus_Af293:2554305-2555051(-)
59	Afu3g14600::Chr3_A_fumigatus_Af293:3870190-3872218(+)
60	Afu8g07400::Chr8_A_fumigatus_Af293:1827032-1828611(-)
61	Afu3g05575::Chr3_A_fumigatus_Af293:1351629-1352618(-)
62	Afu7g04940::Chr7_A_fumigatus_Af293:1163428-1164283(-)
63	MSTRG.589::Chr5_A_fumigatus_Af293:1347461-1348128(-)
64	Afu8g01320::Chr8_A_fumigatus_Af293:322868-323972(-)
65	Afu6g14360::Chr6_A_fumigatus_Af293:3655034-3656742(+)
66	Afu2g14710::Chr2_A_fumigatus_Af293:3860637-3865137(-)
67	Afu1g16250::Chr1_A_fumigatus_Af293:4418061-4421606(-)
68	Afu3g12255::Chr3_A_fumigatus_Af293:3233117-3235518(+)
69	Afu8g06000::Chr8_A_fumigatus_Af293:1424341-1425549(+)
70	Afu2g04550::Chr2_A_fumigatus_Af293:1246491-1249584(-)
71	Afu7g01290::Chr7_A_fumigatus_Af293:337210-339033(+)
72	Afu8g00290::Chr8_A_fumigatus_Af293:49559-51611(-)
73	Afu4g13630::Chr4_A_fumigatus_Af293:3566067-3572035(-)
74	Afu4g03930::Chr4_A_fumigatus_Af293:1103789-1105578(+)
75	Afu5g05640::Chr5_A_fumigatus_Af293:1315189-1316091(-)
76	MSTRG.179::Chr2_A_fumigatus_Af293:818827-819867(+)
77	Afu2g12910::Chr2_A_fumigatus_Af293:3308483-3313189(-)
78	Afu1g09300::Chr1_A_fumigatus_Af293:2413387-2414540(-)
79	Afu2g03730::Chr2_A_fumigatus_Af293:996601-997517(-)
80	Afu7g01180::Chr7_A_fumigatus_Af293:311141-313320(-)
81	Afu2g09230::Chr2_A_fumigatus_Af293:2364332-2367079(-)
82	MSTRG.390::Chr3_A_fumigatus_Af293:1921005-1928676(+)
83	Afu7g08370::Chr7_A_fumigatus_Af293:1898776-1899820(-)
84	Afu7g00100::Chr7_A_fumigatus_Af293:16509-16833(+)
85	Afu3g15010::Chr3_A_fumigatus_Af293:3958389-3959333(-)
86	Afu3g00605::Chr3_A_fumigatus_Af293:135284-137491(-)
87	Afu3g10530::Chr3_A_fumigatus_Af293:2725908-2728216(+)
88	Afu1g13410::Chr1_A_fumigatus_Af293:3567281-3568533(+)
89	Afu6g05120::Chr6_A_fumigatus_Af293:1218000-1224720(+)
90	Afu8g07200::Chr8_A_fumigatus_Af293:1764751-1767036(+)
91	Afu3g03330::Chr3_A_fumigatus_Af293:889930-891157(-)
92	Afu7g03770::Chr7_A_fumigatus_Af293:817458-823713(-)
93	Afu4g03615::Chr4_A_fumigatus_Af293:1020728-1021152(+)
94	Afu3g13690::Chr3_A_fumigatus_Af293:3610431-3612376(+)
95	Afu3g02570::Chr3_A_fumigatus_Af293:646905-653701(-)
96	Afu3g13670::Chr3_A_fumigatus_Af293:3605729-3607727(+)
97	Afu2g00520::Chr2_A_fumigatus_Af293:115044-116017(+)
98	Afu3g09650::Chr3_A_fumigatus_Af293:2459263-2460772(-)
99	MSTRG.905::Chr7_A_fumigatus_Af293:2040959-2044145(-)
100	Afu2g14520::Chr2_A_fumigatus_Af293:3800310-3802513(+)
101	Afu5g14740::Chr5_A_fumigatus_Af293:3810066-3811228(+)
102	Afu7g06450::Chr7_A_fumigatus_Af293:1579867-1580590(-)
103	Afu2g15930::Chr2_A_fumigatus_Af293:4213519-4214880(-)
104	Afu6g02800::Chr6_A_fumigatus_Af293:569830-571308(-)
105	Afu6g06720::Chr6_A_fumigatus_Af293:1461710-1465966(+)
106	Afu3g07640::Chr3_A_fumigatus_Af293:1929978-1934508(+)
107	Afu5g01200::Chr5_A_fumigatus_Af293:299898-301571(-)
108	Afu4g07270::Chr4_A_fumigatus_Af293:1887030-1890751(-)
109	Afu3g15050::Chr3_A_fumigatus_Af293:3965970-3967877(-)
110	Afu1g14650::Chr1_A_fumigatus_Af293:3909352-3914474(-)
111	Afu7g01260::Chr7_A_fumigatus_Af293:328302-330084(-)
112	Afu5g11170::Chr5_A_fumigatus_Af293:2852444-2855608(+)
113	Afu8g00830::Chr8_A_fumigatus_Af293:196574-197557(+)
114	Afu5g01220::Chr5_A_fumigatus_Af293:305419-306622(+)
115	Afu1g00310::Chr1_A_fumigatus_Af293:84230-85698(-)
116	MSTRG.522::Chr4_A_fumigatus_Af293:2630970-2634893(-)
117	Afu5g01210::Chr5_A_fumigatus_Af293:302632-304030(-)
118	MSTRG.12::Chr1_A_fumigatus_Af293:112804-113135(-)
119	Afu2g15040::Chr2_A_fumigatus_Af293:3970002-3972520(-)
120	MSTRG.876::Chr7_A_fumigatus_Af293:1767194-1767482(-)
121	Afu8g01480::Chr8_A_fumigatus_Af293:373556-376952(+)
122	Afu5g10320::Chr5_A_fumigatus_Af293:2642780-2644083(-)
123	Afu6g00412::Chr6_A_fumigatus_Af293:103790-107346(-)
124	Afu6g09110::Chr6_A_fumigatus_Af293:2162763-2164458(-)
125	Afu2g17895::Chr2_A_fumigatus_Af293:4755287-4757386(-)
126	Afu7g06981::Chr7_A_fumigatus_Af293:1706050-1707088(+)
127	Afu1g01040::Chr1_A_fumigatus_Af293:382399-383350(-)
128	Afu3g09660::Chr3_A_fumigatus_Af293:2460900-2461277(-)
129	Afu2g08280::Chr2_A_fumigatus_Af293:2132909-2136538(-)
130	Afu1g03650::Chr1_A_fumigatus_Af293:1058989-1062721(-)
131	Afu2g13140::Chr2_A_fumigatus_Af293:3372223-3376922(-)
132	Afu2g00630::Chr2_A_fumigatus_Af293:135768-137097(-)
133	Afu2g09220::Chr2_A_fumigatus_Af293:2361219-2364327(-)
134	Afu5g13750::Chr5_A_fumigatus_Af293:3617375-3618452(+)
135	Afu1g04575::Chr1_A_fumigatus_Af293:1296943-1297855(+)
136	Afu3g13660::Chr3_A_fumigatus_Af293:3604237-3604947(-)
137	Afu6g14620::Chr6_A_fumigatus_Af293:3733267-3734788(+)
138	Afu2g13150::Chr2_A_fumigatus_Af293:3383180-3384784(+)
139	Afu6g01905::Chr6_A_fumigatus_Af293:269631-270667(-)
140	Afu3g15020::Chr3_A_fumigatus_Af293:3959768-3961567(-)
141	Afu2g10550::Chr2_A_fumigatus_Af293:2695139-2699119(-)
142	MSTRG.712::Chr6_A_fumigatus_Af293:532509-536035(+)
143	Afu5g11190::Chr5_A_fumigatus_Af293:2859355-2861276(-)
144	Afu1g14540::Chr1_A_fumigatus_Af293:3885520-3886533(-)
145	Afu8g01330::Chr8_A_fumigatus_Af293:325986-327563(+)
146	Afu4g10690::Chr4_A_fumigatus_Af293:2786769-2788628(+)
147	Afu4g07280::Chr4_A_fumigatus_Af293:1891759-1895289(+)
148	Afu1g13250::Chr1_A_fumigatus_Af293:3522984-3531985(+)
149	Afu3g15055::Chr3_A_fumigatus_Af293:3968325-3969341(-)
150	Afu5g11250::Chr5_A_fumigatus_Af293:2882072-2883299(+)
151	Afu8g00300::Chr8_A_fumigatus_Af293:51727-53713(-)
152	Afu3g13650::Chr3_A_fumigatus_Af293:3602838-3604008(+)
153	Afu6g13980::Chr6_A_fumigatus_Af293:3567106-3568190(+)
154	Afu7g07020::Chr7_A_fumigatus_Af293:1720678-1721091(-)
155	MSTRG.102::Chr1_A_fumigatus_Af293:2783608-2784169(+)
156	Afu8g06480::Chr8_A_fumigatus_Af293:1563258-1564399(+)
157	Afu2g03860::Chr2_A_fumigatus_Af293:1029725-1031760(+)
158	Afu3g00940::Chr3_A_fumigatus_Af293:222806-224357(+)
159	Afu5g13740::Chr5_A_fumigatus_Af293:3615777-3616943(+)
160	Afu4g13120::Chr4_A_fumigatus_Af293:3434331-3436853(-)
161	Afu1g05850::Chr1_A_fumigatus_Af293:1692975-1694367(-)
162	MSTRG.570::Chr5_A_fumigatus_Af293:335110-336666(+)
163	Afu2g03850::Chr2_A_fumigatus_Af293:1025615-1029465(-)
164	Afu2g03120::Chr2_A_fumigatus_Af293:814735-817797(-)
165	Afu4g03420::Chr4_A_fumigatus_Af293:973983-974627(+)
166	Afu5g13850::Chr5_A_fumigatus_Af293:3634852-3637276(+)
167	MSTRG.510::Chr4_A_fumigatus_Af293:2228056-2229616(-)
168	Afu5g01248::Chr5_A_fumigatus_Af293:316146-317731(+)
169	Afu4g07440::Chr4_A_fumigatus_Af293:1932843-1934259(-)
170	Afu4g03920::Chr4_A_fumigatus_Af293:1100892-1103024(-)
171	Afu4g03400::Chr4_A_fumigatus_Af293:970400-971786(+)
172	Afu2g13990::Chr2_A_fumigatus_Af293:3657737-3659380(+)
173	MSTRG.592::Chr5_A_fumigatus_Af293:1496078-1497146(-)
174	Afu5g10130::Chr5_A_fumigatus_Af293:2607559-2608369(+)
175	Afu1g11500::Chr1_A_fumigatus_Af293:3036125-3038883(+)
176	Afu6g14320::Chr6_A_fumigatus_Af293:3641452-3644345(-)
177	Afu2g14525::Chr2_A_fumigatus_Af293:3803687-3805222(-)
178	Afu4g01285::Chr4_A_fumigatus_Af293:341045-342241(+)
179	Afu2g12510::Chr2_A_fumigatus_Af293:3212504-3213666(+)
180	Afu8g06020::Chr8_A_fumigatus_Af293:1428320-1430884(+)
181	Afu3g13140::Chr3_A_fumigatus_Af293:3487769-3488875(-)
182	Afu3g00500::Chr3_A_fumigatus_Af293:109669-110366(+)
183	Afu7g08300::Chr7_A_fumigatus_Af293:1870243-1870960(-)
184	Afu2g10520::Chr2_A_fumigatus_Af293:2688974-2690003(-)
