c(module, names(dataExprAfum)[moduleColors == module])
1	lightcyan
2	Afu6tL(CAG)2::Chr6_A_fumigatus_Af293:3401234-3401345(+)
3	Afu3tA(AGC)6::Chr3_A_fumigatus_Af293:741374-741446(-)
4	Afu6g14310::Chr6_A_fumigatus_Af293:3639002-3641263(-)
5	Afu2g08870::Chr2_A_fumigatus_Af293:2280525-2281557(+)
6	Afu8g04880::Chr8_A_fumigatus_Af293:1121826-1123500(-)
7	Afu4g13450::Chr4_A_fumigatus_Af293:3521126-3522703(+)
8	Afu1tD(GUC)2::Chr1_A_fumigatus_Af293:2727248-2727336(+)
9	Afu2g11430::Chr2_A_fumigatus_Af293:2941694-2945343(-)
10	Afu5g02910::Chr5_A_fumigatus_Af293:770880-772556(-)
11	Afu6g14190::Chr6_A_fumigatus_Af293:3611199-3613619(-)
12	Afu1g05300::Chr1_A_fumigatus_Af293:1524931-1529205(-)
13	Afu6g02150::Chr6_A_fumigatus_Af293:370512-371809(+)
14	Afu1g02410::Chr1_A_fumigatus_Af293:701979-703574(+)
15	Afu1g12150::Chr1_A_fumigatus_Af293:3211208-3213001(-)
16	Afu3g09910::Chr3_A_fumigatus_Af293:2541783-2543380(+)
17	Afu3g02390::Chr3_A_fumigatus_Af293:588906-590135(+)
18	Afu1g04360::Chr1_A_fumigatus_Af293:1239772-1245111(-)
19	Afu6g08720::Chr6_A_fumigatus_Af293:2066122-2067753(-)
20	Afu8g02270::Chr8_A_fumigatus_Af293:608287-609312(+)
21	Afu6g04080::Chr6_A_fumigatus_Af293:917191-923761(-)
22	Afu3g12450::Chr3_A_fumigatus_Af293:3285168-3288483(+)
23	Afu5g08700::Chr5_A_fumigatus_Af293:2207705-2215813(-)
24	Afu6g04450::Chr6_A_fumigatus_Af293:1016715-1018197(+)
25	Afu2g02360::Chr2_A_fumigatus_Af293:591028-595937(-)
26	Afu8g06040::Chr8_A_fumigatus_Af293:1433818-1434322(+)
27	Afu1g11980::Chr1_A_fumigatus_Af293:3164781-3166423(+)
28	Afu5g00180::Chr5_A_fumigatus_Af293:34622-35952(+)
29	Afu5tA(UGC)2::Chr5_A_fumigatus_Af293:1440394-1440499(+)
30	Afu1g12600::Chr1_A_fumigatus_Af293:3326720-3329811(+)
31	Afu3g10090::Chr3_A_fumigatus_Af293:2597536-2599246(-)
32	Afu3g12430::Chr3_A_fumigatus_Af293:3278026-3284660(+)
33	Afu1g14070::Chr1_A_fumigatus_Af293:3756325-3759145(-)
34	Afu6g07860::Chr6_A_fumigatus_Af293:1808941-1811956(-)
35	Afu5g11920::Chr5_A_fumigatus_Af293:3083543-3084652(+)
36	Afu5g06370::Chr5_A_fumigatus_Af293:1532940-1535198(+)
37	Afu2g10930::Chr2_A_fumigatus_Af293:2814276-2815750(+)
38	Afu4g06080::Chr4_A_fumigatus_Af293:1557802-1559863(+)
39	Afu1g05320::Chr1_A_fumigatus_Af293:1533150-1534885(-)
40	Afu1g09170::Chr1_A_fumigatus_Af293:2382644-2384415(-)
41	Afu5g12320::Chr5_A_fumigatus_Af293:3191433-3196355(-)
42	Afu1g03560::Chr1_A_fumigatus_Af293:1027922-1029996(-)
43	Afu2g04030::Chr2_A_fumigatus_Af293:1099372-1103047(-)
44	Afu6g10770::Chr6_A_fumigatus_Af293:2660960-2662341(+)
45	Afu1g14870::Chr1_A_fumigatus_Af293:3986217-3988403(+)
46	Afu2tA(UGC)1::Chr2_A_fumigatus_Af293:2549658-2549760(+)
47	Afu1g12450::Chr1_A_fumigatus_Af293:3281315-3282629(-)
48	Afu4g11410::Chr4_A_fumigatus_Af293:2992776-2995508(+)
49	Afu5g08300::Chr5_A_fumigatus_Af293:2106825-2109474(+)
50	Afu3g07850::Chr3_A_fumigatus_Af293:1976707-1979572(+)
51	MSTRG.60::Chr1_A_fumigatus_Af293:940818-941451(+)
52	Afu6g08980::Chr6_A_fumigatus_Af293:2134309-2136284(+)
53	Afu5g08130::Chr5_A_fumigatus_Af293:2057022-2059024(-)
54	Afu5g11880::Chr5_A_fumigatus_Af293:3065206-3067466(+)
55	Afu2g07470::Chr2_A_fumigatus_Af293:1911800-1915451(+)
56	Afu4g07010::Chr4_A_fumigatus_Af293:1815688-1817552(-)
57	Afu6g06345::Chr6_A_fumigatus_Af293:1347419-1348344(+)
58	Afu6g04420::Chr6_A_fumigatus_Af293:1010710-1012427(+)
59	Afu3g09220::Chr3_A_fumigatus_Af293:2337795-2341372(-)
60	Afu1g12875::Chr1_A_fumigatus_Af293:3403936-3404946(-)
61	Afu6g10690::Chr6_A_fumigatus_Af293:2642028-2643157(+)
62	Afu3g11020::Chr3_A_fumigatus_Af293:2874790-2879092(-)
63	Afu2g10880::Chr2_A_fumigatus_Af293:2801682-2803191(+)
64	Afu1g13710::Chr1_A_fumigatus_Af293:3647223-3650580(-)
65	Afu5g04280::Chr5_A_fumigatus_Af293:1147468-1148468(+)
66	Afu4g12890::Chr4_A_fumigatus_Af293:3372612-3374481(+)
67	Afu4g04720::Chr4_A_fumigatus_Af293:1329044-1333265(+)
68	Afu6g07620::Chr6_A_fumigatus_Af293:1729749-1731432(-)
69	Afu2g01090::Chr2_A_fumigatus_Af293:252538-255847(-)
70	Afu8g05830::Chr8_A_fumigatus_Af293:1387260-1388854(+)
71	Afu1g09790::Chr1_A_fumigatus_Af293:2539778-2543054(+)
72	Afu8g04460::Chr8_A_fumigatus_Af293:1003855-1006544(+)
73	Afu2g08560::Chr2_A_fumigatus_Af293:2198987-2202243(-)
74	Afu4g13000::Chr4_A_fumigatus_Af293:3403955-3407201(-)
75	Afu3g08970::Chr3_A_fumigatus_Af293:2291100-2294498(+)
76	Afu5g01740::Chr5_A_fumigatus_Af293:441048-443125(+)
77	Afu3g11320::Chr3_A_fumigatus_Af293:2961878-2965050(-)
78	Afu3g10230::Chr3_A_fumigatus_Af293:2640261-2641835(-)
79	Afu3g13980::Chr3_A_fumigatus_Af293:3714318-3716756(-)
80	Afu2g04920::Chr2_A_fumigatus_Af293:1350984-1356039(+)
81	Afu2g11480::Chr2_A_fumigatus_Af293:2958841-2960691(-)
82	Afu2g08510::Chr2_A_fumigatus_Af293:2191182-2193821(-)
83	Afu2g13070::Chr2_A_fumigatus_Af293:3354058-3357077(-)
84	Afu8g02770::Chr8_A_fumigatus_Af293:738566-739410(+)
85	Afu5g12360::Chr5_A_fumigatus_Af293:3209092-3211133(-)
86	Afu5g11710::Chr5_A_fumigatus_Af293:3012831-3015234(+)
87	Afu1g14940::Chr1_A_fumigatus_Af293:4004643-4007079(+)
88	Afu2g11880::Chr2_A_fumigatus_Af293:3068928-3070354(+)
89	Afu5g06030::Chr5_A_fumigatus_Af293:1431310-1432633(-)
90	Afu4g12560::Chr4_A_fumigatus_Af293:3292634-3296395(-)
91	Afu1g05735::Chr1_A_fumigatus_Af293:1651550-1651650(+)
92	Afu6g12750::Chr6_A_fumigatus_Af293:3221511-3222661(+)
93	Afu1g04520::Chr1_A_fumigatus_Af293:1280086-1281899(-)
94	Afu5g03820::Chr5_A_fumigatus_Af293:1026611-1029110(-)
95	Afu3g10190::Chr3_A_fumigatus_Af293:2631581-2633558(+)
96	Afu1g03810::Chr1_A_fumigatus_Af293:1108744-1109551(+)
97	Afu4g09650::Chr4_A_fumigatus_Af293:2513450-2515805(+)
98	Afu2g14330::Chr2_A_fumigatus_Af293:3754134-3755003(+)
99	Afu1g14020::Chr1_A_fumigatus_Af293:3747442-3749993(-)
100	Afu3g11570::Chr3_A_fumigatus_Af293:3038659-3041745(-)
101	Afu6g12460::Chr6_A_fumigatus_Af293:3149409-3150291(-)
102	Afu8g05500::Chr8_A_fumigatus_Af293:1284056-1285705(+)
103	Afu1g07090::Chr1_A_fumigatus_Af293:2010615-2015970(-)
104	Afu6g05045::Chr6_A_fumigatus_Af293:1198721-1199751(+)
105	Afu2g01530::Chr2_A_fumigatus_Af293:367771-369422(+)
106	Afu1g04080::Chr1_A_fumigatus_Af293:1161933-1164710(+)
107	MSTRG.873::Chr7_A_fumigatus_Af293:1713944-1714189(+)
108	Afu1g03700::Chr1_A_fumigatus_Af293:1072660-1076128(+)
109	Afu3g13250::Chr3_A_fumigatus_Af293:3516388-3518074(-)
110	Afu2g01500::Chr2_A_fumigatus_Af293:354347-359293(-)
111	Afu2g16790::Chr2_A_fumigatus_Af293:4480387-4482451(-)
112	Afu6g07050::Chr6_A_fumigatus_Af293:1576690-1581947(+)
113	Afu5g06700::Chr5_A_fumigatus_Af293:1644667-1646728(+)
114	Afu3g12840::Chr3_A_fumigatus_Af293:3415596-3416300(+)
115	Afu6g13120::Chr6_A_fumigatus_Af293:3313340-3319700(-)
116	Afu6g01810::Chr6_A_fumigatus_Af293:248936-251091(+)
117	Afu5g12370::Chr5_A_fumigatus_Af293:3211185-3212609(+)
118	Afu6g12000::Chr6_A_fumigatus_Af293:3001361-3001996(+)
119	Afu1g03420::Chr1_A_fumigatus_Af293:994042-995480(+)
120	Afu2g11110::Chr2_A_fumigatus_Af293:2844884-2849110(-)
121	Afu2g01520::Chr2_A_fumigatus_Af293:361918-367761(+)
122	Afu5g02560::Chr5_A_fumigatus_Af293:661645-665087(+)
123	Afu3g09370::Chr3_A_fumigatus_Af293:2369232-2373335(-)
124	Afu3g05530::Chr3_A_fumigatus_Af293:1335954-1339841(-)
125	Afu1g07430::Chr1_A_fumigatus_Af293:2100056-2100597(-)
126	Afu1g16720::Chr1_A_fumigatus_Af293:4552734-4554905(-)
127	Afu3g04240::Chr3_A_fumigatus_Af293:1202872-1206669(+)
128	Afu6g07320::Chr6_A_fumigatus_Af293:1648551-1650673(-)
129	Afu7g05550::Chr7_A_fumigatus_Af293:1346760-1349592(+)
130	Afu6g10750::Chr6_A_fumigatus_Af293:2654999-2658888(+)
131	Afu6g09240::Chr6_A_fumigatus_Af293:2194508-2196620(+)
132	Afu3tR(UCG)1::Chr3_A_fumigatus_Af293:1149450-1149522(-)
133	Afu6g05050::Chr6_A_fumigatus_Af293:1199825-1201169(-)
134	Afu1g12790::Chr1_A_fumigatus_Af293:3378587-3381997(-)
135	Afu4g06275::Chr4_A_fumigatus_Af293:1614219-1617160(+)
136	Afu5g09630::Chr5_A_fumigatus_Af293:2483615-2487169(-)
137	Afu1g14190::Chr1_A_fumigatus_Af293:3791997-3793733(+)
138	Afu7g04230::Chr7_A_fumigatus_Af293:953866-955367(+)
139	Afu6g13410::Chr6_A_fumigatus_Af293:3410326-3414441(-)
140	Afu6g04850::Chr6_A_fumigatus_Af293:1141789-1142963(-)
141	Afu4g09880::Chr4_A_fumigatus_Af293:2564584-2567441(+)
142	Afu5g11060::Chr5_A_fumigatus_Af293:2832668-2834197(-)
143	Afu8tQ(UUG)2::Chr8_A_fumigatus_Af293:1106807-1106893(-)
144	Afu6g03110::Chr6_A_fumigatus_Af293:656255-658296(+)
145	Afu1g12950::Chr1_A_fumigatus_Af293:3430434-3433736(+)
146	Afu2g13640::Chr2_A_fumigatus_Af293:3548734-3551999(+)
147	Afu6g10500::Chr6_A_fumigatus_Af293:2601577-2603043(-)
148	Afu6g04810::Chr6_A_fumigatus_Af293:1125524-1126639(-)
149	Afu1g09760::Chr1_A_fumigatus_Af293:2526459-2529052(+)
150	Afu5tT(UGU)2::Chr5_A_fumigatus_Af293:883580-883709(+)
151	Afu3g10810::Chr3_A_fumigatus_Af293:2811753-2816365(+)
152	Afu1g15860::Chr1_A_fumigatus_Af293:4287944-4290367(-)
153	Afu1g12940::Chr1_A_fumigatus_Af293:3427449-3430282(+)
154	Afu1g13790::Chr1_A_fumigatus_Af293:3681582-3683573(+)
155	Afu4g06510::Chr4_A_fumigatus_Af293:1667730-1671333(-)
156	Afu8g02260::Chr8_A_fumigatus_Af293:605431-607598(-)
157	Afu8g04590::Chr8_A_fumigatus_Af293:1047789-1049620(+)
158	Afu7g02090::Chr7_A_fumigatus_Af293:559199-560421(+)
159	Afu2g13520::Chr2_A_fumigatus_Af293:3506866-3516986(+)
160	Afu3g09710::Chr3_A_fumigatus_Af293:2482324-2484367(+)
161	Afu1g11630::Chr1_A_fumigatus_Af293:3063994-3067089(+)
162	Afu1g08800::Chr1_A_fumigatus_Af293:2270586-2273804(-)
163	Afu1g07600::Chr1_A_fumigatus_Af293:2143512-2144604(+)
164	Afu5g03550::Chr5_A_fumigatus_Af293:955727-960662(-)
165	Afu2tA(AGC)5::Chr2_A_fumigatus_Af293:937477-937549(+)
166	Afu1g07020::Chr1_A_fumigatus_Af293:1997176-1998734(-)
167	Afu4g05850::Chr4_A_fumigatus_Af293:1495124-1496509(+)
168	Afu4g10060::Chr4_A_fumigatus_Af293:2603195-2604809(-)
169	Afu2g14240::Chr2_A_fumigatus_Af293:3728497-3731498(-)
170	Afu5g11700::Chr5_A_fumigatus_Af293:3010101-3012790(-)
171	Afu6g14340::Chr6_A_fumigatus_Af293:3649464-3651309(-)
172	Afu1g11810::Chr1_A_fumigatus_Af293:3108411-3110580(+)
173	Afu2g16100::Chr2_A_fumigatus_Af293:4262935-4265655(+)
174	Afu4g07790::Chr4_A_fumigatus_Af293:2036873-2039721(-)
175	Afu2g10080::Chr2_A_fumigatus_Af293:2580845-2583062(+)
176	Afu6g02570::Chr6_A_fumigatus_Af293:487891-490680(-)
177	Afu5g03410::Chr5_A_fumigatus_Af293:923978-925451(-)
178	Afu2g04390::Chr2_A_fumigatus_Af293:1205239-1208344(-)
179	Afu7g03700::Chr7_A_fumigatus_Af293:793762-794640(+)
180	Afu5g02050::Chr5_A_fumigatus_Af293:524905-526068(+)
181	Afu3g07840::Chr3_A_fumigatus_Af293:1975285-1975942(+)
182	Afu1g02050::Chr1_A_fumigatus_Af293:604819-608263(-)
183	Afu4g14630::Chr4_A_fumigatus_Af293:3858999-3860358(+)
184	Afu5g07300::Chr5_A_fumigatus_Af293:1814758-1815768(+)
185	Afu8g04200::Chr8_A_fumigatus_Af293:930173-931374(-)
186	Afu4g10030::Chr4_A_fumigatus_Af293:2596996-2598918(+)
187	Afu5g03180::Chr5_A_fumigatus_Af293:862242-863417(+)
188	Afu6g02390::Chr6_A_fumigatus_Af293:445383-446378(+)
189	Afu7g06850::Chr7_A_fumigatus_Af293:1668679-1670143(+)
190	Afu2g16780::Chr2_A_fumigatus_Af293:4474014-4478368(-)
191	Afu1tM(CAU)1::Chr1_A_fumigatus_Af293:1461858-1461966(+)
192	Afu5g02480::Chr5_A_fumigatus_Af293:639549-641874(-)
193	Afu1g10720::Chr1_A_fumigatus_Af293:2795960-2798515(-)
194	Afu4g10730::Chr4_A_fumigatus_Af293:2793866-2795733(-)
195	Afu1g07340::Chr1_A_fumigatus_Af293:2076146-2078512(-)
196	Afu5g07790::Chr5_A_fumigatus_Af293:1945343-1950532(-)
197	Afu4g09860::Chr4_A_fumigatus_Af293:2560628-2562661(-)
198	Afu6g10030::Chr6_A_fumigatus_Af293:2469285-2470315(+)
199	Afu8g04270::Chr8_A_fumigatus_Af293:945789-951240(-)
200	Afu6g10540::Chr6_A_fumigatus_Af293:2609861-2611360(-)
201	Afu8g02840::Chr8_A_fumigatus_Af293:768592-771614(-)
202	Afu4g09130::Chr4_A_fumigatus_Af293:2384834-2387669(-)
203	Afu6g03800::Chr6_A_fumigatus_Af293:837303-838380(-)
204	Afu2g06200::Chr2_A_fumigatus_Af293:1762680-1764118(+)
205	Afu1g12870::Chr1_A_fumigatus_Af293:3402036-3403795(-)
206	Afu4g12310::Chr4_A_fumigatus_Af293:3223485-3226403(-)
207	Afu1g16950::Chr1_A_fumigatus_Af293:4631194-4633032(+)
208	Afu1g15100::Chr1_A_fumigatus_Af293:4056262-4057564(+)
209	Afu6g07160::Chr6_A_fumigatus_Af293:1606521-1608402(-)
210	Afu4g06460::Chr4_A_fumigatus_Af293:1650011-1653136(-)
211	Afu4g13710::Chr4_A_fumigatus_Af293:3588835-3590648(+)
212	Afu2g16080::Chr2_A_fumigatus_Af293:4255373-4259980(+)
213	Afu5g05460::Chr5_A_fumigatus_Af293:1268052-1269880(-)
214	Afu3g08300::Chr3_A_fumigatus_Af293:2137036-2138758(+)
215	Afu5g05740::Chr5_A_fumigatus_Af293:1336278-1338629(-)
216	Afu1g13780::Chr1_A_fumigatus_Af293:3679731-3681048(-)
217	Afu3g10880::Chr3_A_fumigatus_Af293:2831537-2834082(+)
218	Afu4g03160::Chr4_A_fumigatus_Af293:886360-887395(+)
219	Afu2g03350::Chr2_A_fumigatus_Af293:879409-883840(-)
220	Afu6g05040::Chr6_A_fumigatus_Af293:1197090-1198665(-)
221	Afu6tT(CGU)2::Chr6_A_fumigatus_Af293:1574775-1574860(+)
222	Afu2g16810::Chr2_A_fumigatus_Af293:4485541-4490291(-)
223	Afu5g02430::Chr5_A_fumigatus_Af293:625684-628600(+)
224	Afu7g03750::Chr7_A_fumigatus_Af293:806436-809585(-)
225	Afu4g08660::Chr4_A_fumigatus_Af293:2249408-2250712(+)
226	Afu2g15910::Chr2_A_fumigatus_Af293:4207784-4210342(-)
227	Afu3g13920::Chr3_A_fumigatus_Af293:3690736-3694464(+)
228	Afu7g01750::Chr7_A_fumigatus_Af293:469401-470193(+)
229	Afu6g10020::Chr6_A_fumigatus_Af293:2467987-2468937(-)
230	Afu2g05740::Chr2_A_fumigatus_Af293:1616838-1619693(+)
231	Afu1g12760::Chr1_A_fumigatus_Af293:3371816-3373824(+)
232	Afu7g05510::Chr7_A_fumigatus_Af293:1329876-1332549(+)
233	MSTRG.31::Chr1_A_fumigatus_Af293:254622-254985(+)
234	Afu5g08040::Chr5_A_fumigatus_Af293:2035021-2039610(-)
235	Afu1g13870::Chr1_A_fumigatus_Af293:3704967-3707026(-)
236	Afu6g11640::Chr6_A_fumigatus_Af293:2898173-2899897(-)
237	Afu2g03260::Chr2_A_fumigatus_Af293:853486-854714(+)
238	Afu2g13410::Chr2_A_fumigatus_Af293:3460782-3464176(+)
239	Afu1g03920::Chr1_A_fumigatus_Af293:1128632-1131716(-)
240	Afu4g04310::Chr4_A_fumigatus_Af293:1212854-1216289(-)
241	Afu5g09180::Chr5_A_fumigatus_Af293:2353998-2354975(-)
242	Afu2g05570::Chr2_A_fumigatus_Af293:1552641-1553462(+)
243	Afu3g08180::Chr3_A_fumigatus_Af293:2098162-2099138(-)
244	Afu3g01200::Chr3_A_fumigatus_Af293:296239-297661(+)
245	Afu6g04770::Chr6_A_fumigatus_Af293:1119785-1121244(-)
246	Afu4g04180::Chr4_A_fumigatus_Af293:1174227-1178029(-)
247	Afu2g05210::Chr2_A_fumigatus_Af293:1447637-1450468(+)
248	Afu8g05560::Chr8_A_fumigatus_Af293:1297760-1300776(+)
249	Afu6g04210::Chr6_A_fumigatus_Af293:943324-946296(-)
250	MSTRG.405::Chr3_A_fumigatus_Af293:2424748-2425474(-)
251	Afu2g04140::Chr2_A_fumigatus_Af293:1132817-1137897(+)
252	Afu6g12522::Chr6_A_fumigatus_Af293:3158292-3161698(+)
253	Afu1g01490::Chr1_A_fumigatus_Af293:474894-482069(+)
254	Afu5g03160::Chr5_A_fumigatus_Af293:857005-860414(+)
255	Afu1g07710::Chr1_A_fumigatus_Af293:2176931-2179014(-)
256	Afu1g02150::Chr1_A_fumigatus_Af293:637735-639645(-)
257	Afu4g13040::Chr4_A_fumigatus_Af293:3415336-3416632(+)
258	Afu1g03210::Chr1_A_fumigatus_Af293:932620-934326(-)
259	Afu5g09530::Chr5_A_fumigatus_Af293:2462554-2463115(+)
260	Afu3g09050::Chr3_A_fumigatus_Af293:2304921-2307651(+)
261	Afu2tA(AGC)3::Chr2_A_fumigatus_Af293:936944-937016(-)
262	Afu5g08680::Chr5_A_fumigatus_Af293:2205228-2206484(+)
263	Afu3g00840::Chr3_A_fumigatus_Af293:191940-193601(-)
264	Afu3g09840::Chr3_A_fumigatus_Af293:2520251-2521640(+)
265	Afu4g10630::Chr4_A_fumigatus_Af293:2777796-2778974(-)
266	Afu1g14240::Chr1_A_fumigatus_Af293:3802714-3805429(-)
267	Afu1g10320::Chr1_A_fumigatus_Af293:2658707-2661427(-)
268	Afu3g13950::Chr3_A_fumigatus_Af293:3706563-3709413(-)
269	MSTRG.867::Chr7_A_fumigatus_Af293:1383709-1387720(-)
270	Afu2g14880::Chr2_A_fumigatus_Af293:3921615-3923076(-)
271	Afu1g13150::Chr1_A_fumigatus_Af293:3491235-3491851(+)
272	Afu1g16650::Chr1_A_fumigatus_Af293:4523523-4525224(-)
273	MSTRG.546::Chr4_A_fumigatus_Af293:3776667-3777054(-)
274	Afu3g02330::Chr3_A_fumigatus_Af293:579580-582449(-)
275	Afu5g08510::Chr5_A_fumigatus_Af293:2161182-2163368(-)
276	Afu7g02370::Chr7_A_fumigatus_Af293:642518-648231(+)
277	Afu5g12910::Chr5_A_fumigatus_Af293:3387546-3389130(+)
278	Afu6g09570::Chr6_A_fumigatus_Af293:2332534-2333689(-)
279	Afu4g11467::Chr4_A_fumigatus_Af293:3010300-3011779(+)
280	Afu2g09730::Chr2_A_fumigatus_Af293:2493913-2495519(+)
281	Afu5g11230::Chr5_A_fumigatus_Af293:2869940-2872508(-)
282	Afu2g02170::Chr2_A_fumigatus_Af293:541467-546357(+)
283	Afu6g02660::Chr6_A_fumigatus_Af293:516782-517658(+)
284	Afu2g05600::Chr2_A_fumigatus_Af293:1556614-1557982(-)
285	Afu4g13490::Chr4_A_fumigatus_Af293:3529255-3531292(+)
286	Afu3g10290::Chr3_A_fumigatus_Af293:2663983-2665255(+)
287	Afu5g10120::Chr5_A_fumigatus_Af293:2602509-2606972(+)
288	Afu1g13700::Chr1_A_fumigatus_Af293:3642618-3646608(-)
289	Afu6g06710::Chr6_A_fumigatus_Af293:1459587-1461487(+)
290	Afu8g00962::Chr8_A_fumigatus_Af293:220002-223221(-)
291	Afu5g11900::Chr5_A_fumigatus_Af293:3074666-3079822(+)
292	Afu1g01750::Chr1_A_fumigatus_Af293:538462-540471(+)
293	Afu3g08110::Chr3_A_fumigatus_Af293:2075777-2079452(+)
294	Afu8g05060::Chr8_A_fumigatus_Af293:1177485-1179432(+)
295	Afu4g01060::Chr4_A_fumigatus_Af293:287470-288277(-)
296	Afu4g08100::Chr4_A_fumigatus_Af293:2104334-2105937(+)
297	Afu5g05550::Chr5_A_fumigatus_Af293:1291987-1297577(+)
298	Afu3g11740::Chr3_A_fumigatus_Af293:3081169-3085122(+)
299	Afu1g07640::Chr1_A_fumigatus_Af293:2154986-2157816(-)
300	Afu2g14580::Chr2_A_fumigatus_Af293:3817355-3819940(+)
301	Afu2tD(GUC)4::Chr2_A_fumigatus_Af293:1301451-1301538(-)
302	Afu2g16800::Chr2_A_fumigatus_Af293:4482468-4484514(+)
303	Afu2g07400::Chr2_A_fumigatus_Af293:1881729-1884311(-)
304	Afu1g10525::Chr1_A_fumigatus_Af293:2737649-2741993(-)
305	Afu5g12660::Chr5_A_fumigatus_Af293:3279064-3288604(-)
306	Afu5g04240::Chr5_A_fumigatus_Af293:1130306-1133676(+)
307	Afu1g15250::Chr1_A_fumigatus_Af293:4105293-4107020(+)
308	Afu3g12800::Chr3_A_fumigatus_Af293:3400445-3403293(-)
309	Afu4g13130::Chr4_A_fumigatus_Af293:3438088-3443436(-)
310	Afu7g05540::Chr7_A_fumigatus_Af293:1338967-1345880(-)
311	Afu8g04040::Chr8_A_fumigatus_Af293:864867-869832(+)
312	Afu2g02880::Chr2_A_fumigatus_Af293:744230-747325(+)
313	Afu8g01180::Chr8_A_fumigatus_Af293:278228-279806(+)
314	Afu2g01540::Chr2_A_fumigatus_Af293:369744-372260(-)
315	Afu3g05620::Chr3_A_fumigatus_Af293:1365088-1365824(+)
316	Afu1g11440::Chr1_A_fumigatus_Af293:3013278-3016190(+)
317	Afu6g10090::Chr6_A_fumigatus_Af293:2485462-2486578(-)
318	Afu2g15290::Chr2_A_fumigatus_Af293:4052549-4054473(+)
319	Afu5g08010::Chr5_A_fumigatus_Af293:2026608-2029524(+)
320	Afu6g11450::Chr6_A_fumigatus_Af293:2842489-2845729(-)
321	Afu5tF(GAA)4::Chr5_A_fumigatus_Af293:3169778-3169866(-)
322	Afu4g12610::Chr4_A_fumigatus_Af293:3308676-3310277(+)
323	Afu6g09180::Chr6_A_fumigatus_Af293:2177725-2181106(-)
324	Afu4g04390::Chr4_A_fumigatus_Af293:1243175-1247154(-)
325	Afu2g01110::Chr2_A_fumigatus_Af293:259176-261106(-)
326	Afu1g11990::Chr1_A_fumigatus_Af293:3166689-3167829(-)
327	Afu4g13020::Chr4_A_fumigatus_Af293:3410686-3413548(+)
328	Afu3g10710::Chr3_A_fumigatus_Af293:2775899-2777170(-)
329	Afu6g11040::Chr6_A_fumigatus_Af293:2724819-2726503(-)
330	Afu1g14260::Chr1_A_fumigatus_Af293:3810114-3814080(+)
331	Afu1g11890::Chr1_A_fumigatus_Af293:3128787-3132148(+)
332	Afu5g06740::Chr5_A_fumigatus_Af293:1656745-1659583(-)
333	Afu5g06300::Chr5_A_fumigatus_Af293:1513196-1515949(-)
334	Afu8g04530::Chr8_A_fumigatus_Af293:1029364-1031011(-)
335	Afu1g13100::Chr1_A_fumigatus_Af293:3473071-3479134(+)
336	Afu2g06150::Chr2_A_fumigatus_Af293:1744785-1746985(-)
337	Afu6g09920::Chr6_A_fumigatus_Af293:2438902-2442144(+)
338	Afu1g03860::Chr1_A_fumigatus_Af293:1118108-1120688(-)
339	Afu5g05730::Chr5_A_fumigatus_Af293:1334381-1336160(-)
340	Afu6g12470::Chr6_A_fumigatus_Af293:3150500-3152890(+)
341	Afu3g01210::Chr3_A_fumigatus_Af293:298198-298960(+)
342	Afu8g04430::Chr8_A_fumigatus_Af293:998627-1002012(-)
343	Afu6g11160::Chr6_A_fumigatus_Af293:2752097-2754000(-)
344	Afu5g13370::Chr5_A_fumigatus_Af293:3517575-3520528(-)
345	Afu4g07610::Chr4_A_fumigatus_Af293:1977477-1981108(-)
346	Afu5g07070::Chr5_A_fumigatus_Af293:1749265-1753156(+)
347	Afu8g05810::Chr8_A_fumigatus_Af293:1382705-1384016(-)
348	Afu1g11580::Chr1_A_fumigatus_Af293:3054085-3056033(-)
349	Afu4g02900::Chr4_A_fumigatus_Af293:811113-815296(+)
350	Afu2g08550::Chr2_A_fumigatus_Af293:2195733-2196802(+)
351	Afu1g13540::Chr1_A_fumigatus_Af293:3601320-3603299(-)
352	Afu5g03510::Chr5_A_fumigatus_Af293:948056-949617(+)
353	Afu1g12720::Chr1_A_fumigatus_Af293:3366774-3367725(+)
354	Afu3g10170::Chr3_A_fumigatus_Af293:2623386-2626768(-)
355	Afu1tP(AGG)1::Chr1_A_fumigatus_Af293:3107446-3107536(+)
356	Afu6g08110::Chr6_A_fumigatus_Af293:1879833-1882105(-)
357	Afu4g00730::Chr4_A_fumigatus_Af293:197083-197832(+)
358	Afu2g02810::Chr2_A_fumigatus_Af293:723288-724687(-)
359	Afu1g03820::Chr1_A_fumigatus_Af293:1109888-1112697(-)
360	Afu5g03260::Chr5_A_fumigatus_Af293:879625-880844(+)
361	Afu5g13020::Chr5_A_fumigatus_Af293:3410657-3412898(+)
362	Afu2g13560::Chr2_A_fumigatus_Af293:3526095-3527619(-)
363	Afu3g10085::Chr3_A_fumigatus_Af293:2596727-2597232(-)
364	AfuMt00010::mito_A_fumigatus_Af293:1651-2713(+)
365	Afu3g07350::Chr3_A_fumigatus_Af293:1846465-1849874(+)
366	Afu2g14270::Chr2_A_fumigatus_Af293:3739547-3742652(-)
367	Afu5g06100::Chr5_A_fumigatus_Af293:1454910-1456820(-)
368	Afu2g01510::Chr2_A_fumigatus_Af293:359368-361665(-)
369	Afu6g04990::Chr6_A_fumigatus_Af293:1184053-1186166(+)
370	Afu5g10630::Chr5_A_fumigatus_Af293:2717010-2720609(+)
371	Afu4g11170::Chr4_A_fumigatus_Af293:2916313-2918302(-)
372	Afu6g00640::Chr6_A_fumigatus_Af293:164091-167983(+)
373	Afu1g13860::Chr1_A_fumigatus_Af293:3703011-3704480(-)
374	Afu5g06830::Chr5_A_fumigatus_Af293:1679794-1680358(-)
375	Afu8g04670::Chr8_A_fumigatus_Af293:1066820-1068225(+)
376	Afu5g10680::Chr5_A_fumigatus_Af293:2734830-2737287(+)
377	Afu5g03680::Chr5_A_fumigatus_Af293:984369-985825(-)
378	Afu3g08040::Chr3_A_fumigatus_Af293:2056231-2056824(+)
379	Afu8g05340::Chr8_A_fumigatus_Af293:1244343-1245123(-)
380	Afu1g03400::Chr1_A_fumigatus_Af293:988574-991684(-)
381	Afu4g06290::Chr4_A_fumigatus_Af293:1617226-1619928(-)
382	Afu5g12500::Chr5_A_fumigatus_Af293:3236468-3237455(+)
383	Afu5g05560::Chr5_A_fumigatus_Af293:1298035-1299027(+)
384	Afu6g11300::Chr6_A_fumigatus_Af293:2794998-2799566(-)
385	Afu7g03720::Chr7_A_fumigatus_Af293:801308-802922(-)
386	Afu7g04310::Chr7_A_fumigatus_Af293:974992-977280(-)
387	Afu7g02280::Chr7_A_fumigatus_Af293:614987-617100(+)
388	Afu1g06030::Chr1_A_fumigatus_Af293:1741017-1744450(-)
389	Afu5g10930::Chr5_A_fumigatus_Af293:2798254-2799353(+)
390	Afu6g09400::Chr6_A_fumigatus_Af293:2268476-2269054(+)
391	Afu3g08190::Chr3_A_fumigatus_Af293:2099222-2100293(+)
392	Afu3g10180::Chr3_A_fumigatus_Af293:2628527-2631540(-)
393	Afu1g09280::Chr1_A_fumigatus_Af293:2407311-2409143(+)
394	Afu5g09080::Chr5_A_fumigatus_Af293:2332341-2334997(-)
395	Afu6g05300::Chr6_A_fumigatus_Af293:1270238-1271244(-)
396	Afu1g08760::Chr1_A_fumigatus_Af293:2251826-2253050(+)
397	Afu5g13190::Chr5_A_fumigatus_Af293:3462821-3469726(+)
398	Afu3g06330::Chr3_A_fumigatus_Af293:1566731-1568542(+)
399	Afu4g03810::Chr4_A_fumigatus_Af293:1069402-1071381(+)
400	Afu6g09020::Chr6_A_fumigatus_Af293:2142966-2145231(+)
401	Afu6g14180::Chr6_A_fumigatus_Af293:3609419-3611116(+)
402	Afu6g09420::Chr6_A_fumigatus_Af293:2273972-2274428(-)
403	Afu3g12510::Chr3_A_fumigatus_Af293:3302676-3305992(+)
404	Afu6g07430::Chr6_A_fumigatus_Af293:1676567-1680500(+)
405	Afu2g07540::Chr2_A_fumigatus_Af293:1930585-1931504(-)
406	Afu2g12990::Chr2_A_fumigatus_Af293:3336325-3336981(+)
407	Afu2g16120::Chr2_A_fumigatus_Af293:4267790-4268845(+)
408	Afu2g02780::Chr2_A_fumigatus_Af293:721172-722347(-)
409	Afu5g11930::Chr5_A_fumigatus_Af293:3085102-3085969(-)
410	Afu7g07170::Chr7_A_fumigatus_Af293:1777029-1782275(-)
411	Afu6g12840::Chr6_A_fumigatus_Af293:3241108-3244300(+)
412	Afu2g08390::Chr2_A_fumigatus_Af293:2158998-2160663(+)
413	Afu1g05740::Chr1_A_fumigatus_Af293:1651939-1654970(-)
414	Afu2g04970::Chr2_A_fumigatus_Af293:1366781-1369074(+)
415	Afu4g08200::Chr4_A_fumigatus_Af293:2128400-2130006(+)
416	Afu2g17190::Chr2_A_fumigatus_Af293:4594625-4598635(-)
417	Afu1g11470::Chr1_A_fumigatus_Af293:3028839-3030264(+)
418	Afu6g10980::Chr6_A_fumigatus_Af293:2701578-2705563(-)
419	Afu2g08300::Chr2_A_fumigatus_Af293:2141229-2142906(+)
420	Afu1g01650::Chr1_A_fumigatus_Af293:513914-515287(+)
421	Afu5g11400::Chr5_A_fumigatus_Af293:2929129-2931252(+)
422	Afu4g04350::Chr4_A_fumigatus_Af293:1231190-1235612(+)
423	Afu4g12250::Chr4_A_fumigatus_Af293:3211654-3215048(+)
424	Afu2g10710::Chr2_A_fumigatus_Af293:2739447-2741090(-)
425	Afu5g04200::Chr5_A_fumigatus_Af293:1119248-1121764(-)
426	Afu2g16140::Chr2_A_fumigatus_Af293:4270395-4274746(+)
427	Afu3g09890::Chr3_A_fumigatus_Af293:2532680-2533301(-)
428	Afu2g04620::Chr2_A_fumigatus_Af293:1258485-1261118(-)
429	Afu1g10970::Chr1_A_fumigatus_Af293:2865581-2869345(+)
430	Afu2g13910::Chr2_A_fumigatus_Af293:3629392-3630565(-)
431	Afu6g12760::Chr6_A_fumigatus_Af293:3222844-3225228(+)
432	Afu4g06870::Chr4_A_fumigatus_Af293:1771305-1774301(-)
433	Afu8g04910::Chr8_A_fumigatus_Af293:1129785-1132078(-)
434	Afu2g16850::Chr2_A_fumigatus_Af293:4504353-4508950(-)
435	Afu6g14600::Chr6_A_fumigatus_Af293:3723609-3725121(-)
436	Afu6g07310::Chr6_A_fumigatus_Af293:1644916-1648216(-)
437	Afu5g02510::Chr5_A_fumigatus_Af293:646443-650093(-)
438	Afu2g10280::Chr2_A_fumigatus_Af293:2633103-2634818(+)
439	Afu7g05680::Chr7_A_fumigatus_Af293:1390636-1391485(+)
440	Afu5g13790::Chr5_A_fumigatus_Af293:3625261-3626851(-)
441	Afu5g11470::Chr5_A_fumigatus_Af293:2945716-2948940(-)
442	Afu3g10255::Chr3_A_fumigatus_Af293:2655344-2656827(-)
443	Afu6g10190::Chr6_A_fumigatus_Af293:2516053-2517446(-)
444	Afu6g13650::Chr6_A_fumigatus_Af293:3471024-3474960(+)
445	Afu7g04050::Chr7_A_fumigatus_Af293:911970-913166(-)
446	Afu5g08560::Chr5_A_fumigatus_Af293:2175245-2176814(+)
447	Afu4g05855::Chr4_A_fumigatus_Af293:1497155-1498161(-)
448	Afu5g06400::Chr5_A_fumigatus_Af293:1539234-1542565(-)
449	Afu4g12210::Chr4_A_fumigatus_Af293:3203540-3209120(-)
450	Afu4g12720::Chr4_A_fumigatus_Af293:3336403-3338404(-)
451	Afu6g08660::Chr6_A_fumigatus_Af293:2048628-2052527(-)
452	Afu3g07080::Chr3_A_fumigatus_Af293:1773408-1775500(-)
453	Afu6g02670::Chr6_A_fumigatus_Af293:518425-521016(-)
454	Afu3tR(CCG)1::Chr3_A_fumigatus_Af293:2342081-2342153(+)
455	Afu5g13220::Chr5_A_fumigatus_Af293:3472523-3474541(+)
456	AfuMttL(UAA)2::mito_A_fumigatus_Af293:16259-16341(+)
457	Afu6tD(GUC)7::Chr6_A_fumigatus_Af293:490720-490809(-)
458	Afu1g03590::Chr1_A_fumigatus_Af293:1034386-1038702(+)
459	Afu1g05610::Chr1_A_fumigatus_Af293:1609611-1612932(-)
460	Afu4tI(AAU)3::Chr4_A_fumigatus_Af293:1820475-1820549(-)
461	Afu7g05630::Chr7_A_fumigatus_Af293:1366885-1368321(+)
462	Afu1g05330::Chr1_A_fumigatus_Af293:1534924-1537164(+)
463	Afu4g10490::Chr4_A_fumigatus_Af293:2747864-2750141(+)
464	Afu1g09050::Chr1_A_fumigatus_Af293:2347701-2348534(+)
465	Afu6g11200::Chr6_A_fumigatus_Af293:2771000-2775091(+)
466	Afu6g03570::Chr6_A_fumigatus_Af293:774624-778209(-)
467	Afu4g12670::Chr4_A_fumigatus_Af293:3321650-3323392(+)
468	Afu1g04980::Chr1_A_fumigatus_Af293:1426115-1429837(-)
469	Afu1g02480::Chr1_A_fumigatus_Af293:716050-720223(-)
470	Afu4g08210::Chr4_A_fumigatus_Af293:2130052-2131230(-)
471	Afu4tI(UAU)1::Chr4_A_fumigatus_Af293:916430-916518(-)
472	Afu1g16550::Chr1_A_fumigatus_Af293:4482527-4484178(+)
473	Afu1g00800::Chr1_A_fumigatus_Af293:296635-297872(+)
474	Afu1g05450::Chr1_A_fumigatus_Af293:1561364-1562077(-)
475	Afu5g02590::Chr5_A_fumigatus_Af293:679021-682214(+)
476	Afu3g03920::Chr3_A_fumigatus_Af293:1118322-1121227(-)
477	Afu4g12070::Chr4_A_fumigatus_Af293:3173008-3178712(-)
478	Afu1g10450::Chr1_A_fumigatus_Af293:2721347-2724977(+)
479	Afu2g10610::Chr2_A_fumigatus_Af293:2715017-2718433(+)
480	Afu1g11480::Chr1_A_fumigatus_Af293:3030436-3031919(-)
481	Afu4g06630::Chr4_A_fumigatus_Af293:1714078-1717387(-)
482	Afu1g06240::Chr1_A_fumigatus_Af293:1797490-1798877(-)
483	Afu8g03990::Chr8_A_fumigatus_Af293:851941-855258(-)
484	Afu6g09030::Chr6_A_fumigatus_Af293:2145263-2148116(-)
485	Afu3g05640::Chr3_A_fumigatus_Af293:1372635-1374264(-)
486	Afu5g08460::Chr5_A_fumigatus_Af293:2150250-2151573(+)
487	Afu4g08180::Chr4_A_fumigatus_Af293:2123304-2125751(-)
488	Afu5g12670::Chr5_A_fumigatus_Af293:3288687-3294293(+)
489	Afu3g14300::Chr3_A_fumigatus_Af293:3794456-3795498(-)
490	Afu1g02500::Chr1_A_fumigatus_Af293:722801-724693(-)
491	Afu5g06020::Chr5_A_fumigatus_Af293:1425721-1429373(-)
492	Afu1tE(UUC)3::Chr1_A_fumigatus_Af293:1387247-1387319(-)
493	Afu3g08500::Chr3_A_fumigatus_Af293:2178680-2183523(-)
494	Afu8g04240::Chr8_A_fumigatus_Af293:938665-941169(-)
495	Afu1g13190::Chr1_A_fumigatus_Af293:3498573-3501143(+)
496	Afu8g02700::Chr8_A_fumigatus_Af293:716703-719861(-)
497	Afu1g11550::Chr1_A_fumigatus_Af293:3048569-3051044(+)
498	Afu4g08520::Chr4_A_fumigatus_Af293:2205744-2207870(+)
499	Afu1g05120::Chr1_A_fumigatus_Af293:1462093-1464336(+)
500	Afu7g05670::Chr7_A_fumigatus_Af293:1388513-1390593(-)
501	Afu4g12850::Chr4_A_fumigatus_Af293:3365624-3367567(+)
502	Afu5g11430::Chr5_A_fumigatus_Af293:2936554-2937984(+)
503	Afu1tP(AGG)2::Chr1_A_fumigatus_Af293:3802348-3802437(+)
504	Afu4g03090::Chr4_A_fumigatus_Af293:866599-868324(-)
505	Afu1g04770::Chr1_A_fumigatus_Af293:1350643-1353543(-)
506	Afu4g06120::Chr4_A_fumigatus_Af293:1567746-1570558(-)
507	Afu4g01290::Chr4_A_fumigatus_Af293:342595-345349(+)
508	Afu8g05110::Chr8_A_fumigatus_Af293:1188794-1190891(-)
509	Afu8g02860::Chr8_A_fumigatus_Af293:777433-781153(+)
510	Afu3g03940::Chr3_A_fumigatus_Af293:1124950-1126506(-)
511	Afu1g14310::Chr1_A_fumigatus_Af293:3824763-3826934(-)
512	Afu2g09360::Chr2_A_fumigatus_Af293:2395512-2398107(+)
513	Afu6g11680::Chr6_A_fumigatus_Af293:2907123-2909819(-)
514	MSTRG.232::Chr2_A_fumigatus_Af293:2148829-2149451(+)
515	Afu7g04240::Chr7_A_fumigatus_Af293:955858-956941(+)
516	Afu1g09510::Chr1_A_fumigatus_Af293:2458444-2459662(+)
517	Afu3g08380::Chr3_A_fumigatus_Af293:2148130-2150171(-)
518	Afu8g02800::Chr8_A_fumigatus_Af293:749246-750408(+)
519	Afu5g02100::Chr5_A_fumigatus_Af293:531843-532916(-)
520	MSTRG.220::Chr2_A_fumigatus_Af293:1803483-1804141(-)
521	Afu2g10220::Chr2_A_fumigatus_Af293:2613534-2614914(-)
522	Afu3g05560::Chr3_A_fumigatus_Af293:1344617-1347677(+)
523	Afu6g02060::Chr6_A_fumigatus_Af293:332852-340342(-)
524	Afu5g02600::Chr5_A_fumigatus_Af293:683314-684766(+)
525	Afu2g08430::Chr2_A_fumigatus_Af293:2165549-2166592(+)
526	Afu7g03960::Chr7_A_fumigatus_Af293:889885-890623(-)
527	Afu1g11420::Chr1_A_fumigatus_Af293:3006405-3010805(-)
528	Afu2g15970::Chr2_A_fumigatus_Af293:4222022-4227752(+)
529	Afu1g16500::Chr1_A_fumigatus_Af293:4475618-4477020(+)
530	Afu2g10730::Chr2_A_fumigatus_Af293:2743798-2748799(+)
531	Afu1g05440::Chr1_A_fumigatus_Af293:1559819-1561184(+)
532	Afu4g09620::Chr4_A_fumigatus_Af293:2508223-2509809(-)
533	Afu7g04330::Chr7_A_fumigatus_Af293:980575-982834(+)
534	Afu5g07902::Chr5_A_fumigatus_Af293:1980293-1985113(+)
535	Afu4g12960::Chr4_A_fumigatus_Af293:3391713-3392014(-)
536	Afu1g01930::Chr1_A_fumigatus_Af293:570737-572914(+)
537	Afu1g09920::Chr1_A_fumigatus_Af293:2568861-2569909(-)
538	Afu6g07040::Chr6_A_fumigatus_Af293:1574908-1576471(-)
539	Afu6g10660::Chr6_A_fumigatus_Af293:2635216-2637474(+)
540	Afu2g01450::Chr2_A_fumigatus_Af293:347988-349182(+)
541	Afu6g07570::Chr6_A_fumigatus_Af293:1719524-1721137(+)
542	Afu6g10490::Chr6_A_fumigatus_Af293:2599860-2601257(+)
543	MSTRG.58::Chr1_A_fumigatus_Af293:938251-939299(-)
544	Afu3g14040::Chr3_A_fumigatus_Af293:3733029-3735226(+)
545	Afu3g13390::Chr3_A_fumigatus_Af293:3543486-3545544(-)
546	Afu1g12480::Chr1_A_fumigatus_Af293:3285928-3288840(-)
547	Afu6g04240::Chr6_A_fumigatus_Af293:951673-952709(+)
548	Afu3g06200::Chr3_A_fumigatus_Af293:1530205-1532828(-)
549	MSTRG.678::Chr5_A_fumigatus_Af293:3904517-3905308(-)
550	Afu3g05420::Chr3_A_fumigatus_Af293:1302884-1304315(-)
551	Afu1g11670::Chr1_A_fumigatus_Af293:3074957-3076403(-)
552	Afu1g06250::Chr1_A_fumigatus_Af293:1798968-1801003(+)
553	Afu3tA(AGC)7::Chr3_A_fumigatus_Af293:289691-289763(-)
554	Afu3g11080::Chr3_A_fumigatus_Af293:2892915-2898767(+)
555	Afu1g13140::Chr1_A_fumigatus_Af293:3486409-3488883(-)
556	Afu2g05540::Chr2_A_fumigatus_Af293:1546345-1549205(-)
557	Afu5g11940::Chr5_A_fumigatus_Af293:3086471-3090310(-)
558	Afu5g10820::Chr5_A_fumigatus_Af293:2763347-2766489(+)
559	Afu3g11460::Chr3_A_fumigatus_Af293:3005465-3008605(-)
560	Afu5g02800::Chr5_A_fumigatus_Af293:742623-744489(-)
561	Afu4g12900::Chr4_A_fumigatus_Af293:3374667-3376522(-)
562	Afu6g02560::Chr6_A_fumigatus_Af293:485991-487791(-)
563	Afu2g09820::Chr2_A_fumigatus_Af293:2510311-2511370(-)
564	Afu1g13280::Chr1_A_fumigatus_Af293:3535410-3537375(-)
565	Afu6g04840::Chr6_A_fumigatus_Af293:1136774-1141111(+)
566	Afu2g02580::Chr2_A_fumigatus_Af293:664890-666469(+)
567	Afu2g04960::Chr2_A_fumigatus_Af293:1361312-1366326(-)
568	Afu3g06780::Chr3_A_fumigatus_Af293:1680766-1686329(+)
569	Afu5g06220::Chr5_A_fumigatus_Af293:1488529-1491507(+)
570	Afu3g11200::Chr3_A_fumigatus_Af293:2938752-2942931(-)
571	Afu4g07780::Chr4_A_fumigatus_Af293:2034688-2036305(+)
572	Afu7g05360::Chr7_A_fumigatus_Af293:1285917-1288504(+)
573	Afu8g06030::Chr8_A_fumigatus_Af293:1431614-1433085(+)
574	Afu6g13430::Chr6_A_fumigatus_Af293:3417026-3421373(+)
575	Afu6g10850::Chr6_A_fumigatus_Af293:2677869-2679238(+)
576	Afu3g06990::Chr3_A_fumigatus_Af293:1745617-1747314(+)
577	Afu2g06060::Chr2_A_fumigatus_Af293:1713003-1714478(+)
578	Afu3g09720::Chr3_A_fumigatus_Af293:2484497-2487894(-)
579	Afu1g07130::Chr1_A_fumigatus_Af293:2020805-2022436(-)
580	MSTRG.780::Chr6_A_fumigatus_Af293:2737504-2738383(+)
581	Afu2g09940::Chr2_A_fumigatus_Af293:2545560-2547990(-)
582	Afu3g09950::Chr3_A_fumigatus_Af293:2551631-2553490(+)
583	Afu2tA(AGC)1::Chr2_A_fumigatus_Af293:935025-935097(+)
584	Afu1g11780::Chr1_A_fumigatus_Af293:3096643-3099365(-)
585	Afu6g07170::Chr6_A_fumigatus_Af293:1608452-1609866(+)
586	Afu4g11180::Chr4_A_fumigatus_Af293:2919226-2920846(-)
587	Afu6g12370::Chr6_A_fumigatus_Af293:3118006-3120762(+)
588	Afu1g14960::Chr1_A_fumigatus_Af293:4014462-4020587(-)
589	Afu7g03890::Chr7_A_fumigatus_Af293:869414-872861(+)
590	Afu2g10140::Chr2_A_fumigatus_Af293:2590923-2593967(-)
591	Afu4g13190::Chr4_A_fumigatus_Af293:3451549-3453025(-)
592	Afu8g02810::Chr8_A_fumigatus_Af293:750956-753197(+)
593	Afu8g00980::Chr8_A_fumigatus_Af293:223232-227400(+)
594	Afu6g04550::Chr6_A_fumigatus_Af293:1053315-1056002(-)
595	Afu2g15210::Chr2_A_fumigatus_Af293:4030548-4031701(+)
596	Afu1g13720::Chr1_A_fumigatus_Af293:3650636-3654441(-)
597	Afu4g07560::Chr4_A_fumigatus_Af293:1961759-1967583(-)
598	Afu1g09130::Chr1_A_fumigatus_Af293:2369726-2373501(-)
599	Afu1g12090::Chr1_A_fumigatus_Af293:3201399-3203016(+)
600	Afu5g04020::Chr5_A_fumigatus_Af293:1072172-1076189(+)
601	Afu2g11130::Chr2_A_fumigatus_Af293:2851418-2853900(-)
602	Afu2g05020::Chr2_A_fumigatus_Af293:1377555-1383858(+)
603	Afu1g15310::Chr1_A_fumigatus_Af293:4127949-4131397(+)
604	Afu1g12440::Chr1_A_fumigatus_Af293:3279940-3280921(-)
605	Afu4g10470::Chr4_A_fumigatus_Af293:2743961-2746130(+)
606	Afu2g09180::Chr2_A_fumigatus_Af293:2353200-2354483(-)
607	Afu5g07030::Chr5_A_fumigatus_Af293:1741457-1743069(-)
608	Afu4g00740::Chr4_A_fumigatus_Af293:198242-199838(+)
609	Afu3g04120::Chr3_A_fumigatus_Af293:1167157-1169014(+)
610	Afu6g10160::Chr6_A_fumigatus_Af293:2513820-2514807(-)
611	Afu5g10760::Chr5_A_fumigatus_Af293:2749464-2751676(-)
612	Afu4g10840::Chr4_A_fumigatus_Af293:2835920-2837495(+)
613	Afu3g06980::Chr3_A_fumigatus_Af293:1744380-1745563(-)
614	Afu6g02630::Chr6_A_fumigatus_Af293:509553-512320(-)
615	Afu2g14080::Chr2_A_fumigatus_Af293:3679344-3683397(-)
616	Afu1g10650::Chr1_A_fumigatus_Af293:2779029-2783009(-)
617	Afu8g04420::Chr8_A_fumigatus_Af293:994430-998192(-)
618	Afu4g10600::Chr4_A_fumigatus_Af293:2771572-2774369(+)
619	Afu1g13390::Chr1_A_fumigatus_Af293:3559776-3561986(+)
620	Afu1g07490::Chr1_A_fumigatus_Af293:2111720-2114525(-)
621	Afu3g05890::Chr3_A_fumigatus_Af293:1438577-1443746(-)
622	Afu2g10590::Chr2_A_fumigatus_Af293:2710116-2713335(-)
623	Afu4g09790::Chr4_A_fumigatus_Af293:2548576-2550490(-)
624	MSTRG.305::Chr2_A_fumigatus_Af293:4489108-4489441(+)
625	Afu3g06480::Chr3_A_fumigatus_Af293:1599178-1602253(+)
626	Afu8g04830::Chr8_A_fumigatus_Af293:1110636-1111878(-)
627	Afu1g11920::Chr1_A_fumigatus_Af293:3136175-3140034(-)
628	Afu3g05510::Chr3_A_fumigatus_Af293:1330792-1332687(+)
629	Afu2g03920::Chr2_A_fumigatus_Af293:1046588-1051125(-)
630	Afu8g01640::Chr8_A_fumigatus_Af293:430402-433447(-)
631	Afu4g12190::Chr4_A_fumigatus_Af293:3199555-3201093(-)
632	Afu2g07450::Chr2_A_fumigatus_Af293:1904321-1907944(+)
633	Afu3g10140::Chr3_A_fumigatus_Af293:2612330-2613740(+)
634	Afu6g12830::Chr6_A_fumigatus_Af293:3235962-3240280(-)
635	Afu3g07180::Chr3_A_fumigatus_Af293:1804971-1807912(-)
636	Afu5g15090::Chr5_A_fumigatus_Af293:3917606-3918551(+)
637	Afu4g10450::Chr4_A_fumigatus_Af293:2739108-2740253(+)
638	Afu5tH(GUG)2::Chr5_A_fumigatus_Af293:2557307-2557378(+)
639	Afu6g10740::Chr6_A_fumigatus_Af293:2652893-2654144(+)
640	Afu3g13420::Chr3_A_fumigatus_Af293:3549484-3551959(-)
641	Afu4g09920::Chr4_A_fumigatus_Af293:2573930-2574984(+)
642	Afu6g02160::Chr6_A_fumigatus_Af293:372616-373852(-)
643	Afu3g08290::Chr3_A_fumigatus_Af293:2134802-2136919(+)
644	Afu5g13770::Chr5_A_fumigatus_Af293:3622402-3623319(-)
645	Afu2g13080::Chr2_A_fumigatus_Af293:3359909-3360395(+)
646	Afu7g05480::Chr7_A_fumigatus_Af293:1322578-1326028(+)
647	Afu8g04000::Chr8_A_fumigatus_Af293:855262-857056(+)
648	Afu5g07930::Chr5_A_fumigatus_Af293:1988296-1989865(+)
649	Afu1g01730::Chr1_A_fumigatus_Af293:532929-535122(-)
650	Afu2g05760::Chr2_A_fumigatus_Af293:1621986-1623626(+)
651	Afu3tA(AGC)2::Chr3_A_fumigatus_Af293:531048-531120(+)
652	Afu2g13300::Chr2_A_fumigatus_Af293:3435388-3437238(-)
653	Afu4g07530::Chr4_A_fumigatus_Af293:1953244-1954564(-)
654	Afu4g06150::Chr4_A_fumigatus_Af293:1576318-1579827(-)
655	Afu6g03685::Chr6_A_fumigatus_Af293:809243-809379(-)
656	Afu8g05350::Chr8_A_fumigatus_Af293:1245439-1246516(+)
657	Afu5g06647::Chr5_A_fumigatus_Af293:1629240-1629710(+)
658	Afu1g07660::Chr1_A_fumigatus_Af293:2160157-2163543(+)
659	MSTRG.848::Chr7_A_fumigatus_Af293:916820-918316(+)
660	Afu2g12430::Chr2_A_fumigatus_Af293:3194832-3197583(+)
661	Afu3g14460::Chr3_A_fumigatus_Af293:3840139-3841761(+)
662	Afu6g00630::Chr6_A_fumigatus_Af293:161789-163823(-)
663	Afu3g12750::Chr3_A_fumigatus_Af293:3389005-3390896(-)
664	Afu2g12100::Chr2_A_fumigatus_Af293:3109976-3110786(+)
665	Afu3g09190::Chr3_A_fumigatus_Af293:2332922-2334223(-)
666	Afu6tT(UGU)3::Chr6_A_fumigatus_Af293:617112-617210(+)
667	Afu3g01020::Chr3_A_fumigatus_Af293:235567-236417(-)
668	Afu5g13460::Chr5_A_fumigatus_Af293:3537222-3538820(-)
669	Afu1g10400::Chr1_A_fumigatus_Af293:2705939-2710427(-)
670	Afu1g06210::Chr1_A_fumigatus_Af293:1791508-1793700(+)
671	Afu1g10330::Chr1_A_fumigatus_Af293:2661607-2663798(+)
672	Afu1g12390::Chr1_A_fumigatus_Af293:3269475-3272337(+)
673	Afu4g07970::Chr4_A_fumigatus_Af293:2074495-2076313(+)
674	Afu4g06230::Chr4_A_fumigatus_Af293:1604140-1607360(-)
675	Afu2g13730::Chr2_A_fumigatus_Af293:3564010-3565542(-)
676	Afu3g08930::Chr3_A_fumigatus_Af293:2282629-2285617(+)
677	Afu1g02400::Chr1_A_fumigatus_Af293:698937-701571(-)
678	Afu7tA(AGC)8::Chr7_A_fumigatus_Af293:1156255-1156327(+)
679	Afu3tI(AAU)1::Chr3_A_fumigatus_Af293:108845-108919(+)
680	Afu5tL(UAA)1::Chr5_A_fumigatus_Af293:2691095-2691226(-)
681	Afu3g10150::Chr3_A_fumigatus_Af293:2616388-2619216(+)
682	Afu3g02240::Chr3_A_fumigatus_Af293:552714-554351(+)
683	Afu2g02440::Chr2_A_fumigatus_Af293:614627-616207(+)
684	Afu4g04510::Chr4_A_fumigatus_Af293:1272595-1274304(-)
685	Afu2g04050::Chr2_A_fumigatus_Af293:1104561-1107745(+)
686	Afu5g08240::Chr5_A_fumigatus_Af293:2090862-2091905(-)
687	Afu6g06940::Chr6_A_fumigatus_Af293:1532360-1533631(-)
688	Afu5g06550::Chr5_A_fumigatus_Af293:1596492-1600519(-)
689	Afu6g07560::Chr6_A_fumigatus_Af293:1717218-1719246(-)
690	Afu8g04210::Chr8_A_fumigatus_Af293:932304-934027(+)
691	Afu3g13170::Chr3_A_fumigatus_Af293:3497808-3498039(-)
692	Afu1g15710::Chr1_A_fumigatus_Af293:4245335-4248725(+)
693	Afu5g09610::Chr5_A_fumigatus_Af293:2478743-2481234(-)
694	Afu2g15750::Chr2_A_fumigatus_Af293:4158213-4162166(-)
695	Afu2g16010::Chr2_A_fumigatus_Af293:4235524-4237666(-)
696	Afu1g01175::Chr1_A_fumigatus_Af293:411326-412123(-)
697	Afu2g01330::Chr2_A_fumigatus_Af293:322318-323380(+)
698	Afu1g02350::Chr1_A_fumigatus_Af293:689569-692145(+)
699	Afu6g14170::Chr6_A_fumigatus_Af293:3606173-3608964(-)
700	Afu2g12980::Chr2_A_fumigatus_Af293:3331592-3336227(-)
701	Afu6g06380::Chr6_A_fumigatus_Af293:1369716-1370974(-)
702	Afu1tE(UUC)1::Chr1_A_fumigatus_Af293:1380645-1380717(+)
703	Afu4g06040::Chr4_A_fumigatus_Af293:1536862-1541195(-)
704	Afu8g05370::Chr8_A_fumigatus_Af293:1247831-1251615(+)
705	Afu4g13220::Chr4_A_fumigatus_Af293:3465191-3465627(+)
706	Afu1g14600::Chr1_A_fumigatus_Af293:3897566-3898487(-)
707	Afu3g11090::Chr3_A_fumigatus_Af293:2899170-2901902(-)
708	Afu4g13390::Chr4_A_fumigatus_Af293:3507585-3509583(-)
709	Afu1g03120::Chr1_A_fumigatus_Af293:898104-899701(-)
710	Afu6g10510::Chr6_A_fumigatus_Af293:2603639-2606656(+)
711	Afu2g05860::Chr2_A_fumigatus_Af293:1647573-1651778(+)
712	Afu5g05840::Chr5_A_fumigatus_Af293:1359354-1361661(+)
713	Afu1g15050::Chr1_A_fumigatus_Af293:4045353-4048736(-)
714	Afu4g04560::Chr4_A_fumigatus_Af293:1284602-1287272(+)
715	Afu6g05090::Chr6_A_fumigatus_Af293:1207426-1210049(-)
716	Afu2g05910::Chr2_A_fumigatus_Af293:1662851-1664600(+)
717	Afu3g10050::Chr3_A_fumigatus_Af293:2586045-2587774(-)
718	Afu8g00600::Chr8_A_fumigatus_Af293:141639-142944(+)
719	Afu2g09810::Chr2_A_fumigatus_Af293:2507868-2509863(+)
720	Afu4g04630::Chr4_A_fumigatus_Af293:1301573-1302621(+)
721	Afu2g08860::Chr2_A_fumigatus_Af293:2279158-2280413(-)
722	Afu1tV(CAC)1::Chr1_A_fumigatus_Af293:3909272-3909368(+)
723	Afu1g17100::Chr1_A_fumigatus_Af293:4665665-4667517(-)
724	Afu1g06430::Chr1_A_fumigatus_Af293:1847119-1847723(+)
725	Afu1g06840::Chr1_A_fumigatus_Af293:1949235-1951052(-)
726	Afu3g10660::Chr3_A_fumigatus_Af293:2760413-2762705(+)
727	Afu6g11230::Chr6_A_fumigatus_Af293:2781205-2783158(-)
728	Afu1g13590::Chr1_A_fumigatus_Af293:3612980-3616590(-)
729	Afu5g01870::Chr5_A_fumigatus_Af293:474269-476459(+)
730	Afu2g05040::Chr2_A_fumigatus_Af293:1386695-1388754(-)
731	Afu1g12010::Chr1_A_fumigatus_Af293:3171524-3173057(+)
732	Afu5g11780::Chr5_A_fumigatus_Af293:3027321-3028659(-)
733	Afu4g07750::Chr4_A_fumigatus_Af293:2025539-2026791(+)
734	Afu8tI(AAU)6::Chr8_A_fumigatus_Af293:1434702-1434776(-)
735	Afu6g04150::Chr6_A_fumigatus_Af293:933830-934788(+)
736	Afu2g05780::Chr2_A_fumigatus_Af293:1626127-1627375(+)
737	Afu2g10155::Chr2_A_fumigatus_Af293:2598374-2598474(+)
738	Afu2g16890::Chr2_A_fumigatus_Af293:4517471-4519399(+)
739	Afu2tA(AGC)4::Chr2_A_fumigatus_Af293:933970-934042(-)
740	Afu1g06200::Chr1_A_fumigatus_Af293:1789720-1791347(+)
741	Afu3g10720::Chr3_A_fumigatus_Af293:2777302-2779536(+)
742	Afu7g00805::Chr7_A_fumigatus_Af293:209078-209937(-)
743	Afu7g05620::Chr7_A_fumigatus_Af293:1363277-1366803(-)
744	Afu5g11870::Chr5_A_fumigatus_Af293:3061395-3064971(+)
