#*Genes in clust clusters
#**Genes in clust clusters that were also differentially expressed in all three datasets
Afu4g06890
Afu5g14350
Afu1g07140* **
Afu4g03630
Afu7g03740
Afu2g01260
Afu4g13270
Afu1g14330
Afu1g13800
Afu5g09460*
Afu3g01400
Afu5g00790
Afu1g17440
Afu2g15130
Afu3g03500*
Afu1g12690
Afu5g12660*
Afu4g04760
Afu6g04360
Afu6g12400
Afu2g02690
Afu6g05300
Afu3g10490
Afu3g07850
Afu1g16510
Afu4g08340
Afu6g07670
Afu2g03280
Afu5g03920
Afu6g03470
Afu2g03700
Afu3g12400*
Afu8g04840*
Afu4g10330
Afu2g04710
Afu2g14250*
Afu3g02340
Afu2g14720
Afu1g05830
Afu6g12550
Afu4g01140
Afu1g04870*
Afu1g10390
Afu5g06070
Afu8g05710
Afu1g15490
Afu1g03200
Afu1g16160*
Afu5g07780
Afu2g00320
Afu6g05140*
Afu1g03150
Afu1g05720
Afu8g02440
Afu4g04820
Afu7g00480
Afu3g07300
Afu4g10000*
Afu3g03430
Afu1g05010
Afu6g14200
Afu8g04000
Afu8g07210
Afu3g10660
Afu1g11230
Afu4g07780*
Afu5g10680
Afu4g07130*
Afu7g01220
Afu5g04080
Afu4g12040
Afu4g14770
Afu2g15030
Afu2g17400
Afu4g11500* **
Afu4g09190
Afu1g04720
Afu1g03950
Afu5g06420
Afu3g05900
Afu6g12820
Afu3g11080
Afu1g05800
Afu4g13720
Afu1g10940*
Afu1g15950
Afu1g12940
Afu5g09100
