Afu7g02060
Afu3g09280
Afu3g05420
Afu2g14210
Afu1g05390
Afu6g13370
Afu4g12740
Afu8g00980
Afu6g12960
Afu1g05630
Afu4g09740
Afu2g05240
Afu4g08660
Afu1g09330
Afu6g14470
Afu6g12620
Afu1g13570
Afu1g10720
Afu5g11300
Afu5g01760
Afu2g06200
Afu1g11670
Afu5g02480
Afu5g03130
Afu7g02210
Afu2g10500
Afu7g01990
Afu2g17060
Afu2g11510
Afu1g06980
Afu2g08560
Afu4g13690
Afu3g06120
Afu2g09500
Afu6g07740
Afu5g13140
Afu4g08140
Afu2g09870
Afu1g07000
Afu6g02705
Afu5g08380
Afu4g06930
Afu4g07990
Afu3g10890
Afu4g06600
Afu5g11000
Afu5g04430
Afu3g08300
Afu1g10620
Afu1g07590
Afu4g10740
Afu5g10920
Afu3g06070
Afu5g08500
Afu4g08730
Afu5g11390
Afu2g03140
Afu2g06230
Afu3g11260
Afu7g01370
Afu8g06760
Afu2g07570
Afu2g05670
Afu1g04400
Afu1g06340
Afu6g10620
Afu1g05990
Afu5g12000
Afu5g13490
Afu1g01960
Afu2g16120
Afu4g11690
Afu6g08110
Afu3g06620
Afu1g09970
Afu6g06330
Afu2g05870
Afu3g07350
Afu8g04960
Afu8g04460
Afu4g13190
Afu5g05930
Afu2g13410
Afu2g09210
Afu2g10300
Afu7g01470
Afu2g02100
Afu4g10630
Afu6g04770
Afu1g01740
Afu1g04660
Afu3g08980
Afu4g08190
Afu4g12900
Afu5g02740
Afu4g11700
Afu3g08370
Afu6g03830
Afu6g11260
Afu6g02910
Afu4g10530
Afu7g05790
Afu7g03970
Afu8g03930
Afu5g09410
Afu1g14070
Afu8g00780
Afu5g10820
Afu5g02520
Afu2g03200
Afu6g05174
Afu8g04350
Afu8g04660
Afu5g07210
Afu2g15290
Afu2g09760
Afu1g07080
Afu7g01460
Afu5g05780
Afu4g03250
Afu3g09040
Afu7g04220
Afu6g03980
Afu4g05915
Afu6g08580
Afu4g04270
Afu6g02740
Afu5g06653
Afu6g12970
Afu7g01300
Afu6g05110
Afu3g00440
Afu4g06400
Afu1g07490
Afu3g08600
Afu1g14730
Afu2g00780
Afu7g03960
Afu3g08270
Afu1g15490
Afu1g15140
Afu2g08860
Afu1g09440
Afu3g09600
Afu2g16970
Afu3g05360
Afu5g06560
Afu5g13930
Afu3g12820
Afu3g08660
Afu2g09080
Afu2g05420
Afu3g07180
Afu3g05850
Afu5g13530
Afu6g07540
Afu1g07630
Afu6g13570
Afu2g12010
Afu2g09230
Afu4g13630
Afu4g08770
Afu2g09930
Afu4g10460
Afu4g12670
Afu5g12600
Afu2g08520
Afu2g08460
Afu4g08300
Afu5g12610
Afu3g02390
Afu5g05890
Afu3g14340
Afu2g03260
Afu6g04260
Afu4g11900
Afu5g02010
Afu2g16370
Afu3g13070
Afu3g13320
Afu1g13840
Afu4g10390
Afu4g00235
Afu1g09510
Afu5g11670
Afu2g10140
Afu3g12690
Afu2g09250
Afu4g12920
Afu6g10690
Afu4g12450
Afu7g03730
Afu4g07680
Afu1g12780
Afu6g08200
Afu2g17360
Afu3g10710
Afu2g14060
Afu1g00770
Afu1g09100
Afu1g11860
Afu6g03990
Afu3g08160
Afu1g11130
Afu5g13470
Afu2g13020
Afu8g04800
Afu4g07210
Afu7g05240
Afu3g06370
Afu6g10700
Afu2g11380
Afu3g06840
Afu1g04460
Afu1g09310
Afu5g12360
Afu7g08590
Afu2g04535
Afu7g05720
Afu2g12370
Afu4g10550
Afu1g10930
Afu6g07290
Afu6g07980
Afu1g07530
Afu5g12910
Afu6g12760
Afu6g06790
Afu8g05260
Afu1g10710
Afu6g03750
Afu6g04660
Afu1g06960
Afu1g07600
Afu3g06950
Afu5g09420
Afu5g11985
Afu7g05620
Afu2g07630
Afu4g07435
Afu4g14450
Afu5g01170
Afu4g07350
Afu5g07750
Afu1g09660
Afu3g04170
Afu7g02140
Afu1g04370
Afu2g15500
Afu1g04840
Afu7g06010
Afu6g11110
Afu1g02550
Afu1g06530
Afu2g06050
Afu2g12190
Afu3g10800
Afu4g06000
Afu5g09400
Afu1g12940
Afu1g15460
Afu1g11960
Afu2g04400
Afu4g13710
Afu6g02670
Afu7g01480
Afu4g08200
Afu5g06740
Afu5g11120
Afu4g12160
Afu1g15730
Afu1g14220
Afu1g14410
Afu2g16150
Afu6g12990
Afu6g14180
Afu6g05180
Afu3g05770
Afu3g04190
Afu4g07540
Afu3g06060
Afu2g07380
Afu4g11500
Afu4g10760
Afu4g13170
Afu6g11380
Afu4g07710
Afu4g09790
Afu7g03980
Afu1g11710
Afu2g10420
Afu2g13110
Afu6g07080
Afu1g02680
Afu1g04530
Afu4g10090
Afu3g08140
Afu1g15040
Afu3g09050
Afu8g04080
Afu2g03420
Afu1g16950
Afu1g12890
Afu1g15000
Afu1g04230
Afu3g14350
Afu1g03390
Afu6g07730
Afu7g05220
Afu6g08120
Afu5g09940
Afu5g11090
Afu5g12570
Afu2g11540
Afu2g04270
Afu2g13040
Afu1g11410
Afu1g16710
Afu3g13310
Afu4g12800
Afu3g12280
Afu4g13090
Afu3g06330
Afu7g02120
Afu7g01900
Afu2g04930
Afu3g07920
MSTRG.247
Afu5g12900
Afu2g12250
Afu1g08850
Afu3g06960
Afu7g05290
Afu4g06120
Afu2g05950
Afu4g06620
Afu1g12810
Afu4g07630
Afu6g08910
Afu5g10750
Afu6g04860
Afu5g12790
Afu2g03370
Afu5g05710
Afu3g13400
Afu5g12270
Afu2g16880
Afu1g09170
Afu5g09750
Afu4g10620
Afu5g08120
Afu1g05150
Afu6g05200
Afu5g13330
Afu2g09290
Afu2g04310
Afu3g09370
Afu6g07210
Afu1g07280
Afu2g15390
Afu2g16340
Afu5g05760
Afu1g07380
Afu5g04100
Afu3g10790
Afu4g13480
Afu3g05720
Afu1g06570
Afu2g11750
Afu3g10330
Afu1g08810
Afu6g10460
Afu1g14870
Afu6g04440
Afu5g07120
Afu5g11540
Afu6g08990
Afu3g04260
Afu5g04000
Afu5g08510
Afu5g12350
Afu1g13260
Afu3g11360
Afu4g04420
Afu2g09070
Afu2g14190
Afu1g04850
Afu6g08890
Afu6g13410
Afu5g03640
Afu5g08110
Afu2g10440
Afu1g12170
Afu1g14110
Afu1g11870
Afu4g12760
Afu4g11990
Afu5g02050
Afu5g11230
Afu2g10110
Afu3g02060
Afu7g02620
Afu3g05460
Afu8g00680
Afu5g07850
Afu1g14560
Afu7g01850
Afu1g05190
Afu4g07730
Afu2g02150
Afu4g14610
Afu1g13850
Afu5g09620
Afu1g05340
Afu2g10070
Afu3g10730
Afu6g12930
Afu1g15020
Afu3g08440
Afu4g08210
Afu5g03570
Afu1g14180
Afu3g10900
Afu5g11850
Afu1g02590
Afu5g03020
Afu2g05110
Afu1g10440
Afu2g11330
Afu1g07320
Afu4g12400
Afu7g02080
Afu6g06345
Afu8g04620
Afu4g08320
Afu1g01750
Afu1g04760
Afu2g16020
Afu3g14000
Afu7g04280
Afu1g12870
Afu1g12200
Afu5g12260
Afu2g04130
Afu1g10510
Afu6g02730
Afu5g04336
Afu2g08570
Afu2g03380
Afu6g10100
Afu3g06310
Afu1g04550
Afu6g09180
Afu1g04930
Afu5g14490
Afu2g11010
Afu6g12660
Afu5g03900
Afu1g03410
Afu2g12920
Afu4g03000
Afu4g03970
Afu1g11500
Afu7g05390
Afu2g11140
Afu3g10920
Afu3g02330
Afu3g13350
Afu3g14250
Afu1g12730
Afu6g07550
Afu2g13140
Afu3g06650
Afu4g08010
Afu3g10520
Afu1g06830
Afu8g06170
Afu4g06010
Afu5g05630
Afu8g04140
Afu4g06350
Afu6g06580
Afu4g04390
Afu2g10510
Afu5g06320
Afu2g05570
Afu2g09160
Afu1g03920
Afu2g05210
Afu3g06100
Afu1g15360
Afu4g06770
Afu4g06570
Afu2g02670
Afu2g16770
Afu1g06810
Afu1g09840
Afu5g12800
Afu4g06630
Afu5g10890
Afu2g03590
Afu3g05600
Afu3g13030
Afu1g15380
Afu1g11920
Afu4g05950
Afu5g13510
Afu5g08890
Afu4g06690
Afu1g12065
Afu3g14870
Afu1g13780
Afu6g13440
Afu3g07790
Afu6g14340
Afu4g07970
Afu3g10810
Afu5g01510
Afu5g08990
Afu6g02750
Afu6g06370
Afu6g09110
Afu2g15210
Afu4g07390
Afu1g16660
Afu3g11470
Afu5g08790
Afu2g03150
Afu6g12840
Afu5g13570
Afu1g09450
Afu3g10720
Afu6g07360
Afu7g04420
Afu5g05820
Afu1g15760
Afu1g03440
Afu1g05160
Afu2g02710
Afu4g09750
Afu5g04030
Afu5g09190
Afu7g01930
Afu4g13410
Afu5g02590
Afu4g07230
Afu1g07140
Afu2g16720
Afu1g11990
Afu2g02440
Afu4g07250
Afu1g06330
Afu5g03220
Afu4g10800
Afu6g13430
Afu5g07920
Afu5g03540
Afu4g03040
Afu6g06490
Afu2g09960
Afu2g10750
Afu2g05930
Afu4g13390
Afu5g09500
Afu1g13195
Afu6g02260
Afu2g16600
Afu1g10910
Afu2g16790
Afu1g05500
Afu1g15310
Afu6g02390
Afu3g14090
Afu5g02910
Afu2g12420
Afu8g03940
Afu2g10730
Afu1g05080
Afu2g10350
Afu2g05480
Afu1g13390
Afu2g03040
Afu6g04910
Afu3g07080
Afu6g07390
Afu2g10380
Afu5g06370
Afu6g10070
Afu2g14980
Afu5g12810
Afu3g06600
Afu4g04520
Afu1g11470
Afu2g09360
Afu2g03760
Afu1g15450
Afu4g07650
Afu5g07390
Afu5g09710
Afu8g05460
Afu2g13130
Afu1g02110
Afu5g05590
Afu1g16750
Afu1g16210
Afu2g06030
Afu3g10310
Afu3g06492
Afu6g02440
Afu6g09020
Afu8g05330
Afu4g08940
Afu1g09370
Afu6g08630
Afu6g04210
Afu6g08170
Afu1g12590
Afu1g08795
Afu5g11740
Afu5g11930
Afu5g06590
Afu2g17200
Afu4g11740
Afu1g09550
Afu2g08690
Afu5g03080
Afu6g11100
Afu3g12160
Afu3g07710
Afu1g13770
Afu3g06970
Afu6g04990
Afu6g14230
Afu5g03460
Afu7g06020
Afu3g05500
Afu1g16280
Afu2g00970
Afu6g03710
Afu7g03670
Afu5g02200
Afu3g13820
Afu1g12800
Afu6g06760
Afu6g06610
Afu2g02270
Afu3g10290
Afu1g04510
Afu1g09800
Afu2g16800
Afu5g02440
Afu2g09200
Afu4g08110
Afu5g05540
Afu2g16410
Afu4g07120
Afu1g03830
Afu1g06710
Afu4g07750
Afu5g04230
Afu1g14120
Afu4g09140
Afu2g07550
Afu3g07830
Afu4g07845
Afu3g12300
Afu7g04430
Afu8g06165
Afu3g06760
Afu2g01830
Afu2g01330
Afu3g10660
Afu2g03920
Afu1g11440
Afu1g04040
Afu1g12280
Afu6g08660
Afu1g02030
Afu6g13250
Afu3g06270
Afu2g08600
Afu5g08350
Afu2g10100
Afu8g04630
Afu2g04140
Afu3g12870
Afu7g04783
Afu2g13540
Afu3g01110
Afu5g01950
Afu6g10860
Afu3g06210
Afu5g05460
Afu4g07605
Afu4g03880
Afu5g09670
Afu8g04790
Afu6g06700
Afu5g06780
